term.id,stehfestBouwman2006,pooreNemecek2018,,
1112TetrafluoroethaneToAirInputsProduction,,,,
112TrichlorotrifluoroethaneToAirInputsProduction,,,,
11DichlorotetrafluoroethaneToAirInputsProduction,,,,
blackCarbonToAirFuelCombustion,,,,
blackCarbonToAirInputsProduction,,,,
bod5ToWaterIndustrialProcesses,,,,
bod5ToWaterInputsProduction,,,,
bromochlorodifluoromethaneToAirInputsProduction,,,,
ch4ToAirAquacultureSystems,,,,
ch4ToAirCropResidueBurning,,,,
ch4ToAirCropResidueDecomposition,,,,
ch4ToAirEntericFermentation,,,,
ch4ToAirExcreta,,,,
ch4ToAirFloodedRice,,,,
ch4ToAirFuelCombustion,,,,
ch4ToAirInputsProductionFossil,,,,
ch4ToAirInputsProductionNonFossil,,,,
ch4ToAirNaturalVegetationBurning,,,,
ch4ToAirOrganicSoilBurning,,,,
ch4ToAirOrganicSoilCultivation,,,,
ch4ToAirReservoirs,,,,
ch4ToAirSoilFlux,,,,
ch4ToAirWasteTreatment,,,,
chlorodifluoromethaneToAirInputsProduction,,,,
coToAirFuelCombustion,,,,
coToAirInputsProduction,,,,
co2ToAirAboveGroundBiomassStockChangeManagementChange,,,,
co2ToAirAboveGroundBiomassStockChangeLandUseChange,,,,
co2ToAirBelowGroundBiomassStockChangeManagementChange,,,,
co2ToAirBelowGroundBiomassStockChangeLandUseChange,,,,
co2ToAirCropResidueDecomposition,,,,
co2ToAirFuelCombustion,,,,
co2ToAirInputsProduction,,,,
co2ToAirLimeHydrolysis,,,,
co2ToAirNaturalVegetationBurning,,,,
co2ToAirOrganicSoilBurning,,,,
co2ToAirOrganicSoilCultivation,,,,
co2ToAirSoilCarbonStockChangeManagementChange,,,,
co2ToAirSoilCarbonStockChangeLandUseChange,,,,
co2ToAirUreaHydrolysis,,,,
co2ToAirSoilFlux,,,,
co2ToAirWasteTreatment,,,,
codToWaterIndustrialProcesses,,,,
codToWaterInputsProduction,,,,
dichlorodifluoromethaneToAirInputsProduction,,,,
h2SToAirIndustrialProcesses,,,,
h2SToAirInputsProduction,,,,
hexaneToAirIndustrialProcesses,,,,
hexaneToAirInputsProduction,,,,
nErosionInputsProduction,,,,
nErosionSoilFlux,,,,
nToSurfaceWaterExcreta,,,,
nToSurfaceWaterSoilFlux,,,,
nToSurfaceWaterAquacultureSystems,,,,
nToSurfaceWaterInputsProduction,,,,
n2ToAirAquacultureSystems,,,,
n2ToAirCropResidueDecomposition,,,,
n2ToAirExcreta,,,,
n2ToAirInorganicFertiliser,,,,
n2ToAirOrganicFertiliser,,,,
n2ToAirSoilFlux,,,,
n2ToAirWasteTreatment,,,,
n2OToAirAquacultureSystemsDirect,,,,
n2OToAirAquacultureSystemsIndirect,,,,
n2OToAirBackgroundSoilFluxDirect,,,,
n2OToAirCropResidueBurningDirect,,,,
n2OToAirCropResidueBurningIndirect,,,,
n2OToAirCropResidueDecompositionDirect,,,,
n2OToAirCropResidueDecompositionIndirect,,,,
n2OToAirDiminishingSoilCarbonStocksManagementChangeDirect,,,,
n2OToAirDiminishingSoilCarbonStocksLandUseChangeDirect,,,,
n2OToAirExcretaDirect,cropland,permanent pasture,cropland,permanent pasture
n2OToAirExcretaIndirect,,,,
n2OToAirFuelCombustionDirect,,,,
n2OToAirFuelCombustionIndirect,,,,
n2OToAirInorganicFertiliserDirect,,,,
n2OToAirInorganicFertiliserIndirect,,,,
n2OToAirInputsProduction,,,,
n2OToAirNaturalVegetationBurningDirect,,,,
n2OToAirNaturalVegetationBurningIndirect,,,,
n2OToAirOrganicFertiliserDirect,,,,
n2OToAirOrganicFertiliserIndirect,,,,
n2OToAirOrganicSoilBurningDirect,,,,
n2OToAirOrganicSoilBurningIndirect,,,,
n2OToAirOrganicSoilCultivationDirect,,,,
n2OToAirOrganicSoilCultivationIndirect,,,,
n2OToAirSoilFlux,,,,
n2OToAirWasteTreatmentDirect,,,,
n2OToAirWasteTreatmentIndirect,,,,
nh3ToAirAquacultureSystems,,,,
nh3ToAirCropResidueBurning,,,,
nh3ToAirCropResidueDecomposition,,,,
nh3ToAirExcreta,,,,
nh3ToAirFuelCombustion,,,,
nh3ToAirInorganicFertiliser,,,,
nh3ToAirInputsProduction,,,,
nh3ToAirNaturalVegetationBurning,,,,
nh3ToAirOrganicFertiliser,,,,
nh3ToAirOrganicSoilBurning,,,,
nh3ToAirOrganicSoilCultivation,,,,
nh3ToAirSoilFlux,,,,
nh3ToAirWasteTreatment,,,,
nh4ToGroundwaterCropResidueDecomposition,,,,
nh4ToGroundwaterExcreta,,,,
nh4ToGroundwaterInorganicFertiliser,,,,
nh4ToGroundwaterOrganicFertiliser,,,,
nh4ToGroundwaterSoilFlux,,,,
nh4ToGroundwaterInputsProduction,,,,
nh4ToSurfaceWaterAquacultureSystems,,,,
nh4ToSurfaceWaterInputsProduction,,,,
nh4ToGroundwaterWasteTreatment,,,,
nmvocToAirAnimalHousing,,,,
nmvocToAirExcreta,,,,
nmvocToAirFuelCombustion,,,,
nmvocToAirInputsProduction,,,,
nmvocToAirSilageFeeding,,,,
nmvocToAirSilageStorage,,,,
nmvocToAirWasteTreatment,,,,
noToAirAquacultureSystems,,,,
noToAirCropResidueBurning,,,,
noToAirCropResidueDecomposition,,,,
noToAirExcreta,,,,
noToAirInorganicFertiliser,,,,
noToAirInputsProduction,,,,
noToAirOrganicFertiliser,,,,
noToAirSoilFlux,,,,
noToAirWasteTreatment,,,,
no3ToGroundwaterCropResidueDecomposition,,,,
no3ToGroundwaterExcreta,cropland,permanent pasture,cropland,permanent pasture
no3ToGroundwaterInorganicFertiliser,,,,
no3ToGroundwaterInputsProduction,,,,
no3ToGroundwaterOrganicFertiliser,,,,
no3ToGroundwaterSoilFlux,,,,
no3ToGroundwaterWasteTreatment,,,,
no3ToSurfaceWaterAquacultureSystems,,,,
no3ToSurfaceWaterExcreta,,,,
no3ToSurfaceWaterIndustrialProcesses,,,,
no3ToSurfaceWaterInputsProduction,,,,
noxToAirAquacultureSystems,,,,
noxToAirCropResidueBurning,,,,
noxToAirCropResidueDecomposition,,,,
noxToAirExcreta,cropland,permanent pasture,cropland,permanent pasture
noxToAirFuelCombustion,,,,
noxToAirInorganicFertiliser,,,,
noxToAirInputsProduction,,,,
noxToAirNaturalVegetationBurning,,,,
noxToAirOrganicFertiliser,,,,
noxToAirOrganicSoilBurning,,,,
noxToAirOrganicSoilCultivation,,,,
noxToAirSoilFlux,,,,
noxToAirWasteTreatment,,,,
pErosionInputsProduction,,,,
pErosionSoilFlux,,,,
pToDrainageWaterInputsProduction,,,,
pToDrainageWaterSoilFlux,,,,
pToGroundwaterInputsProduction,,,,
pToGroundwaterSoilFlux,,,,
pToSurfaceWaterSoilFlux,,,,
pToSurfaceWaterAquacultureSystems,,,,
pToSurfaceWaterExcreta,,,,
pToSurfaceWaterInputsProduction,,,,
pm10ToAirAnimalHousing,,,,
pm10ToAirFuelCombustion,,,,
pm10ToAirCropResidueBurning,,,,
pm10ToAirInputsProduction,,,,
pm25ToAirAnimalHousing,,,,
pm25ToAirFuelCombustion,,,,
pm25ToAirCropResidueBurning,,,,
pm25ToAirInputsProduction,,,,
po43ToGroundwaterInorganicFertiliser,,,,
po43ToGroundwaterOrganicFertiliser,,,,
po43ToGroundwaterSoilFlux,,,,
po43ToGroundwaterInputsProduction,,,,
po43ToSurfaceWaterInorganicFertiliser,,,,
po43ToSurfaceWaterOrganicFertiliser,,,,
po43ToSurfaceWaterAquacultureSystems,,,,
po43ToSurfaceWaterSoilFlux,,,,
po43ToSurfaceWaterInputsProduction,,,,
so2ToAirFuelCombustion,,,,
so2ToAirInputsProduction,,,,
so2ToAirCropResidueBurning,,,,
soxToAirFuelCombustion,,,,
soxToAirInputsProduction,,,,
soxToAirCropResidueBurning,,,,
tspToAirFuelCombustion,,,,
tspToAirInputsProduction,,,,
pesticideToAirPesticideApplication,,,,
pesticideToAirInputsProduction,,,,
pesticideToWaterPesticideApplication,,,,
pesticideToWaterInputsProduction,,,,
pesticideToSoilPesticideApplication,,,,
pesticideToSoilInputsProduction,,,,
pesticideToHarvestedCropPesticideApplication,,,,
pesticideToHarvestedCropInputsProduction,,,,
