term.id,noxToAirAquacultureSystems,noxToAirCropResidueBurning,noxToAirCropResidueDecomposition,noxToAirExcreta,noxToAirFuelCombustion,noxToAirInorganicFertiliser,noxToAirInputsProduction,noxToAirNaturalVegetationBurning,noxToAirOrganicFertiliser,noxToAirOrganicSoilBurning,noxToAirOrganicSoilCultivation,noxToAirSoilFlux,noxToAirWasteTreatment,nmvocToAirAnimalHousing,nmvocToAirExcreta,nmvocToAirFuelCombustion,nmvocToAirInputsProduction,nmvocToAirSilageFeeding,nmvocToAirSilageStorage,nmvocToAirWasteTreatment
GADM-AFG,5.7E-06,5.7E-06,5.7E-06,5.7E-06,5.7E-06,5.7E-06,5.7E-06,5.7E-06,5.7E-06,5.7E-06,5.7E-06,5.7E-06,5.7E-06,3.7E-07,3.7E-07,3.7E-07,3.7E-07,3.7E-07,3.7E-07,3.7E-07
GADM-ALB,4.9E-07,4.9E-07,4.9E-07,4.9E-07,4.9E-07,4.9E-07,4.9E-07,4.9E-07,4.9E-07,4.9E-07,4.9E-07,4.9E-07,4.9E-07,1.4E-07,1.4E-07,1.4E-07,1.4E-07,1.4E-07,1.4E-07,1.4E-07
GADM-DZA,9.9E-07,9.9E-07,9.9E-07,9.9E-07,9.9E-07,9.9E-07,9.9E-07,9.9E-07,9.9E-07,9.9E-07,9.9E-07,9.9E-07,9.9E-07,1.7E-07,1.7E-07,1.7E-07,1.7E-07,1.7E-07,1.7E-07,1.7E-07
GADM-AGO,5.8E-07,5.8E-07,5.8E-07,5.8E-07,5.8E-07,5.8E-07,5.8E-07,5.8E-07,5.8E-07,5.8E-07,5.8E-07,5.8E-07,5.8E-07,2.3E-08,2.3E-08,2.3E-08,2.3E-08,2.3E-08,2.3E-08,2.3E-08
GADM-ARG,3.3E-07,3.3E-07,3.3E-07,3.3E-07,3.3E-07,3.3E-07,3.3E-07,3.3E-07,3.3E-07,3.3E-07,3.3E-07,3.3E-07,3.3E-07,3E-08,3E-08,3E-08,3E-08,3E-08,3E-08,3E-08
GADM-ARM,3E-07,3E-07,3E-07,3E-07,3E-07,3E-07,3E-07,3E-07,3E-07,3E-07,3E-07,3E-07,3E-07,1.4E-07,1.4E-07,1.4E-07,1.4E-07,1.4E-07,1.4E-07,1.4E-07
GADM-ABW,6.7E-07,6.7E-07,6.7E-07,6.7E-07,6.7E-07,6.7E-07,6.7E-07,6.7E-07,6.7E-07,6.7E-07,6.7E-07,6.7E-07,6.7E-07,5.9E-08,5.9E-08,5.9E-08,5.9E-08,5.9E-08,5.9E-08,5.9E-08
GADM-AUS,2.8E-07,2.8E-07,2.8E-07,2.8E-07,2.8E-07,2.8E-07,2.8E-07,2.8E-07,2.8E-07,2.8E-07,2.8E-07,2.8E-07,2.8E-07,1.8E-08,1.8E-08,1.8E-08,1.8E-08,1.8E-08,1.8E-08,1.8E-08
GADM-AUT,3.3E-07,3.3E-07,3.3E-07,3.3E-07,3.3E-07,3.3E-07,3.3E-07,3.3E-07,3.3E-07,3.3E-07,3.3E-07,3.3E-07,3.3E-07,1.9E-07,1.9E-07,1.9E-07,1.9E-07,1.9E-07,1.9E-07,1.9E-07
GADM-AZE,3E-07,3E-07,3E-07,3E-07,3E-07,3E-07,3E-07,3E-07,3E-07,3E-07,3E-07,3E-07,3E-07,1.4E-07,1.4E-07,1.4E-07,1.4E-07,1.4E-07,1.4E-07,1.4E-07
GADM-BHS,6.7E-07,6.7E-07,6.7E-07,6.7E-07,6.7E-07,6.7E-07,6.7E-07,6.7E-07,6.7E-07,6.7E-07,6.7E-07,6.7E-07,6.7E-07,5.9E-08,5.9E-08,5.9E-08,5.9E-08,5.9E-08,5.9E-08,5.9E-08
GADM-BHR,9.7E-07,9.7E-07,9.7E-07,9.7E-07,9.7E-07,9.7E-07,9.7E-07,9.7E-07,9.7E-07,9.7E-07,9.7E-07,9.7E-07,9.7E-07,1.6E-07,1.6E-07,1.6E-07,1.6E-07,1.6E-07,1.6E-07,1.6E-07
GADM-BGD,5.7E-06,5.7E-06,5.7E-06,5.7E-06,5.7E-06,5.7E-06,5.7E-06,5.7E-06,5.7E-06,5.7E-06,5.7E-06,5.7E-06,5.7E-06,3.7E-07,3.7E-07,3.7E-07,3.7E-07,3.7E-07,3.7E-07,3.7E-07
GADM-BRB,6.7E-07,6.7E-07,6.7E-07,6.7E-07,6.7E-07,6.7E-07,6.7E-07,6.7E-07,6.7E-07,6.7E-07,6.7E-07,6.7E-07,6.7E-07,5.9E-08,5.9E-08,5.9E-08,5.9E-08,5.9E-08,5.9E-08,5.9E-08
GADM-BLR,3.4E-07,3.4E-07,3.4E-07,3.4E-07,3.4E-07,3.4E-07,3.4E-07,3.4E-07,3.4E-07,3.4E-07,3.4E-07,3.4E-07,3.4E-07,1.6E-07,1.6E-07,1.6E-07,1.6E-07,1.6E-07,1.6E-07,1.6E-07
GADM-BEL,-2.2E-07,-2.2E-07,-2.2E-07,-2.2E-07,-2.2E-07,-2.2E-07,-2.2E-07,-2.2E-07,-2.2E-07,-2.2E-07,-2.2E-07,-2.2E-07,-2.2E-07,3.3E-07,3.3E-07,3.3E-07,3.3E-07,3.3E-07,3.3E-07,3.3E-07
GADM-BLZ,6.7E-07,6.7E-07,6.7E-07,6.7E-07,6.7E-07,6.7E-07,6.7E-07,6.7E-07,6.7E-07,6.7E-07,6.7E-07,6.7E-07,6.7E-07,5.9E-08,5.9E-08,5.9E-08,5.9E-08,5.9E-08,5.9E-08,5.9E-08
GADM-BEN,2.4E-06,2.4E-06,2.4E-06,2.4E-06,2.4E-06,2.4E-06,2.4E-06,2.4E-06,2.4E-06,2.4E-06,2.4E-06,2.4E-06,2.4E-06,1.1E-07,1.1E-07,1.1E-07,1.1E-07,1.1E-07,1.1E-07,1.1E-07
GADM-BTN,5.7E-06,5.7E-06,5.7E-06,5.7E-06,5.7E-06,5.7E-06,5.7E-06,5.7E-06,5.7E-06,5.7E-06,5.7E-06,5.7E-06,5.7E-06,3.7E-07,3.7E-07,3.7E-07,3.7E-07,3.7E-07,3.7E-07,3.7E-07
GADM-BOL,5.1E-07,5.1E-07,5.1E-07,5.1E-07,5.1E-07,5.1E-07,5.1E-07,5.1E-07,5.1E-07,5.1E-07,5.1E-07,5.1E-07,5.1E-07,1.6E-08,1.6E-08,1.6E-08,1.6E-08,1.6E-08,1.6E-08,1.6E-08
GADM-BIH,4.9E-07,4.9E-07,4.9E-07,4.9E-07,4.9E-07,4.9E-07,4.9E-07,4.9E-07,4.9E-07,4.9E-07,4.9E-07,4.9E-07,4.9E-07,1.4E-07,1.4E-07,1.4E-07,1.4E-07,1.4E-07,1.4E-07,1.4E-07
GADM-BWA,5.8E-07,5.8E-07,5.8E-07,5.8E-07,5.8E-07,5.8E-07,5.8E-07,5.8E-07,5.8E-07,5.8E-07,5.8E-07,5.8E-07,5.8E-07,2.3E-08,2.3E-08,2.3E-08,2.3E-08,2.3E-08,2.3E-08,2.3E-08
GADM-BRA,4.5E-07,4.5E-07,4.5E-07,4.5E-07,4.5E-07,4.5E-07,4.5E-07,4.5E-07,4.5E-07,4.5E-07,4.5E-07,4.5E-07,4.5E-07,1.8E-08,1.8E-08,1.8E-08,1.8E-08,1.8E-08,1.8E-08,1.8E-08
GADM-BRN,7E-07,7E-07,7E-07,7E-07,7E-07,7E-07,7E-07,7E-07,7E-07,7E-07,7E-07,7E-07,7E-07,3E-08,3E-08,3E-08,3E-08,3E-08,3E-08,3E-08
GADM-BGR,3.9E-07,3.9E-07,3.9E-07,3.9E-07,3.9E-07,3.9E-07,3.9E-07,3.9E-07,3.9E-07,3.9E-07,3.9E-07,3.9E-07,3.9E-07,1.5E-07,1.5E-07,1.5E-07,1.5E-07,1.5E-07,1.5E-07,1.5E-07
GADM-BFA,2.4E-06,2.4E-06,2.4E-06,2.4E-06,2.4E-06,2.4E-06,2.4E-06,2.4E-06,2.4E-06,2.4E-06,2.4E-06,2.4E-06,2.4E-06,1.1E-07,1.1E-07,1.1E-07,1.1E-07,1.1E-07,1.1E-07,1.1E-07
GADM-BDI,9.7E-07,9.7E-07,9.7E-07,9.7E-07,9.7E-07,9.7E-07,9.7E-07,9.7E-07,9.7E-07,9.7E-07,9.7E-07,9.7E-07,9.7E-07,4.3E-08,4.3E-08,4.3E-08,4.3E-08,4.3E-08,4.3E-08,4.3E-08
GADM-KHM,1.8E-06,1.8E-06,1.8E-06,1.8E-06,1.8E-06,1.8E-06,1.8E-06,1.8E-06,1.8E-06,1.8E-06,1.8E-06,1.8E-06,1.8E-06,4.4E-08,4.4E-08,4.4E-08,4.4E-08,4.4E-08,4.4E-08,4.4E-08
GADM-CMR,2.4E-06,2.4E-06,2.4E-06,2.4E-06,2.4E-06,2.4E-06,2.4E-06,2.4E-06,2.4E-06,2.4E-06,2.4E-06,2.4E-06,2.4E-06,1.1E-07,1.1E-07,1.1E-07,1.1E-07,1.1E-07,1.1E-07,1.1E-07
GADM-CAN,2E-07,2E-07,2E-07,2E-07,2E-07,2E-07,2E-07,2E-07,2E-07,2E-07,2E-07,2E-07,2E-07,1.1E-07,1.1E-07,1.1E-07,1.1E-07,1.1E-07,1.1E-07,1.1E-07
GADM-CPV,2.4E-06,2.4E-06,2.4E-06,2.4E-06,2.4E-06,2.4E-06,2.4E-06,2.4E-06,2.4E-06,2.4E-06,2.4E-06,2.4E-06,2.4E-06,1.1E-07,1.1E-07,1.1E-07,1.1E-07,1.1E-07,1.1E-07,1.1E-07
GADM-CAF,9.7E-07,9.7E-07,9.7E-07,9.7E-07,9.7E-07,9.7E-07,9.7E-07,9.7E-07,9.7E-07,9.7E-07,9.7E-07,9.7E-07,9.7E-07,4.3E-08,4.3E-08,4.3E-08,4.3E-08,4.3E-08,4.3E-08,4.3E-08
GADM-TCD,9.7E-07,9.7E-07,9.7E-07,9.7E-07,9.7E-07,9.7E-07,9.7E-07,9.7E-07,9.7E-07,9.7E-07,9.7E-07,9.7E-07,9.7E-07,4.3E-08,4.3E-08,4.3E-08,4.3E-08,4.3E-08,4.3E-08,4.3E-08
GADM-CHL,1.8E-07,1.8E-07,1.8E-07,1.8E-07,1.8E-07,1.8E-07,1.8E-07,1.8E-07,1.8E-07,1.8E-07,1.8E-07,1.8E-07,1.8E-07,7.6E-08,7.6E-08,7.6E-08,7.6E-08,7.6E-08,7.6E-08,7.6E-08
GADM-CHN,1.6E-06,1.6E-06,1.6E-06,1.6E-06,1.6E-06,1.6E-06,1.6E-06,1.6E-06,1.6E-06,1.6E-06,1.6E-06,1.6E-06,1.6E-06,2.9E-07,2.9E-07,2.9E-07,2.9E-07,2.9E-07,2.9E-07,2.9E-07
GADM-HKG,1.6E-06,1.6E-06,1.6E-06,1.6E-06,1.6E-06,1.6E-06,1.6E-06,1.6E-06,1.6E-06,1.6E-06,1.6E-06,1.6E-06,1.6E-06,2.9E-07,2.9E-07,2.9E-07,2.9E-07,2.9E-07,2.9E-07,2.9E-07
GADM-COL,5.1E-07,5.1E-07,5.1E-07,5.1E-07,5.1E-07,5.1E-07,5.1E-07,5.1E-07,5.1E-07,5.1E-07,5.1E-07,5.1E-07,5.1E-07,1.6E-08,1.6E-08,1.6E-08,1.6E-08,1.6E-08,1.6E-08,1.6E-08
GADM-COM,9.7E-07,9.7E-07,9.7E-07,9.7E-07,9.7E-07,9.7E-07,9.7E-07,9.7E-07,9.7E-07,9.7E-07,9.7E-07,9.7E-07,9.7E-07,4.3E-08,4.3E-08,4.3E-08,4.3E-08,4.3E-08,4.3E-08,4.3E-08
GADM-COG,2.4E-06,2.4E-06,2.4E-06,2.4E-06,2.4E-06,2.4E-06,2.4E-06,2.4E-06,2.4E-06,2.4E-06,2.4E-06,2.4E-06,2.4E-06,1.1E-07,1.1E-07,1.1E-07,1.1E-07,1.1E-07,1.1E-07,1.1E-07
GADM-CRI,6.7E-07,6.7E-07,6.7E-07,6.7E-07,6.7E-07,6.7E-07,6.7E-07,6.7E-07,6.7E-07,6.7E-07,6.7E-07,6.7E-07,6.7E-07,5.9E-08,5.9E-08,5.9E-08,5.9E-08,5.9E-08,5.9E-08,5.9E-08
GADM-CIV,2.4E-06,2.4E-06,2.4E-06,2.4E-06,2.4E-06,2.4E-06,2.4E-06,2.4E-06,2.4E-06,2.4E-06,2.4E-06,2.4E-06,2.4E-06,1.1E-07,1.1E-07,1.1E-07,1.1E-07,1.1E-07,1.1E-07,1.1E-07
GADM-HRV,4.9E-07,4.9E-07,4.9E-07,4.9E-07,4.9E-07,4.9E-07,4.9E-07,4.9E-07,4.9E-07,4.9E-07,4.9E-07,4.9E-07,4.9E-07,1.4E-07,1.4E-07,1.4E-07,1.4E-07,1.4E-07,1.4E-07,1.4E-07
GADM-CUB,6.7E-07,6.7E-07,6.7E-07,6.7E-07,6.7E-07,6.7E-07,6.7E-07,6.7E-07,6.7E-07,6.7E-07,6.7E-07,6.7E-07,6.7E-07,5.9E-08,5.9E-08,5.9E-08,5.9E-08,5.9E-08,5.9E-08,5.9E-08
GADM-CYP,4.4E-07,4.4E-07,4.4E-07,4.4E-07,4.4E-07,4.4E-07,4.4E-07,4.4E-07,4.4E-07,4.4E-07,4.4E-07,4.4E-07,4.4E-07,2.3E-07,2.3E-07,2.3E-07,2.3E-07,2.3E-07,2.3E-07,2.3E-07
GADM-CZE,1.6E-07,1.6E-07,1.6E-07,1.6E-07,1.6E-07,1.6E-07,1.6E-07,1.6E-07,1.6E-07,1.6E-07,1.6E-07,1.6E-07,1.6E-07,1.9E-07,1.9E-07,1.9E-07,1.9E-07,1.9E-07,1.9E-07,1.9E-07
GADM-PRK,5.8E-07,5.8E-07,5.8E-07,5.8E-07,5.8E-07,5.8E-07,5.8E-07,5.8E-07,5.8E-07,5.8E-07,5.8E-07,5.8E-07,5.8E-07,5E-08,5E-08,5E-08,5E-08,5E-08,5E-08,5E-08
GADM-COD,9.7E-07,9.7E-07,9.7E-07,9.7E-07,9.7E-07,9.7E-07,9.7E-07,9.7E-07,9.7E-07,9.7E-07,9.7E-07,9.7E-07,9.7E-07,4.3E-08,4.3E-08,4.3E-08,4.3E-08,4.3E-08,4.3E-08,4.3E-08
GADM-DNK,1.9E-07,1.9E-07,1.9E-07,1.9E-07,1.9E-07,1.9E-07,1.9E-07,1.9E-07,1.9E-07,1.9E-07,1.9E-07,1.9E-07,1.9E-07,1.5E-07,1.5E-07,1.5E-07,1.5E-07,1.5E-07,1.5E-07,1.5E-07
GADM-DJI,9.7E-07,9.7E-07,9.7E-07,9.7E-07,9.7E-07,9.7E-07,9.7E-07,9.7E-07,9.7E-07,9.7E-07,9.7E-07,9.7E-07,9.7E-07,4.3E-08,4.3E-08,4.3E-08,4.3E-08,4.3E-08,4.3E-08,4.3E-08
GADM-DOM,6.7E-07,6.7E-07,6.7E-07,6.7E-07,6.7E-07,6.7E-07,6.7E-07,6.7E-07,6.7E-07,6.7E-07,6.7E-07,6.7E-07,6.7E-07,5.9E-08,5.9E-08,5.9E-08,5.9E-08,5.9E-08,5.9E-08,5.9E-08
GADM-ECU,5.1E-07,5.1E-07,5.1E-07,5.1E-07,5.1E-07,5.1E-07,5.1E-07,5.1E-07,5.1E-07,5.1E-07,5.1E-07,5.1E-07,5.1E-07,1.6E-08,1.6E-08,1.6E-08,1.6E-08,1.6E-08,1.6E-08,1.6E-08
GADM-EGY,6E-07,6E-07,6E-07,6E-07,6E-07,6E-07,6E-07,6E-07,6E-07,6E-07,6E-07,6E-07,6E-07,2.5E-07,2.5E-07,2.5E-07,2.5E-07,2.5E-07,2.5E-07,2.5E-07
GADM-SLV,6.7E-07,6.7E-07,6.7E-07,6.7E-07,6.7E-07,6.7E-07,6.7E-07,6.7E-07,6.7E-07,6.7E-07,6.7E-07,6.7E-07,6.7E-07,5.9E-08,5.9E-08,5.9E-08,5.9E-08,5.9E-08,5.9E-08,5.9E-08
GADM-GNQ,2.4E-06,2.4E-06,2.4E-06,2.4E-06,2.4E-06,2.4E-06,2.4E-06,2.4E-06,2.4E-06,2.4E-06,2.4E-06,2.4E-06,2.4E-06,1.1E-07,1.1E-07,1.1E-07,1.1E-07,1.1E-07,1.1E-07,1.1E-07
GADM-ERI,9.7E-07,9.7E-07,9.7E-07,9.7E-07,9.7E-07,9.7E-07,9.7E-07,9.7E-07,9.7E-07,9.7E-07,9.7E-07,9.7E-07,9.7E-07,4.3E-08,4.3E-08,4.3E-08,4.3E-08,4.3E-08,4.3E-08,4.3E-08
GADM-EST,1.8E-07,1.8E-07,1.8E-07,1.8E-07,1.8E-07,1.8E-07,1.8E-07,1.8E-07,1.8E-07,1.8E-07,1.8E-07,1.8E-07,1.8E-07,1.8E-07,1.8E-07,1.8E-07,1.8E-07,1.8E-07,1.8E-07,1.8E-07
GADM-ETH,9.7E-07,9.7E-07,9.7E-07,9.7E-07,9.7E-07,9.7E-07,9.7E-07,9.7E-07,9.7E-07,9.7E-07,9.7E-07,9.7E-07,9.7E-07,4.3E-08,4.3E-08,4.3E-08,4.3E-08,4.3E-08,4.3E-08,4.3E-08
GADM-FJI,4.5E-07,4.5E-07,4.5E-07,4.5E-07,4.5E-07,4.5E-07,4.5E-07,4.5E-07,4.5E-07,4.5E-07,4.5E-07,4.5E-07,4.5E-07,1E-08,1E-08,1E-08,1E-08,1E-08,1E-08,1E-08
GADM-FIN,1.1E-07,1.1E-07,1.1E-07,1.1E-07,1.1E-07,1.1E-07,1.1E-07,1.1E-07,1.1E-07,1.1E-07,1.1E-07,1.1E-07,1.1E-07,1.3E-07,1.3E-07,1.3E-07,1.3E-07,1.3E-07,1.3E-07,1.3E-07
GADM-FRA,3.2E-07,3.2E-07,3.2E-07,3.2E-07,3.2E-07,3.2E-07,3.2E-07,3.2E-07,3.2E-07,3.2E-07,3.2E-07,3.2E-07,3.2E-07,2.4E-07,2.4E-07,2.4E-07,2.4E-07,2.4E-07,2.4E-07,2.4E-07
GADM-GUF,5.1E-07,5.1E-07,5.1E-07,5.1E-07,5.1E-07,5.1E-07,5.1E-07,5.1E-07,5.1E-07,5.1E-07,5.1E-07,5.1E-07,5.1E-07,1.6E-08,1.6E-08,1.6E-08,1.6E-08,1.6E-08,1.6E-08,1.6E-08
GADM-GAB,2.4E-06,2.4E-06,2.4E-06,2.4E-06,2.4E-06,2.4E-06,2.4E-06,2.4E-06,2.4E-06,2.4E-06,2.4E-06,2.4E-06,2.4E-06,1.1E-07,1.1E-07,1.1E-07,1.1E-07,1.1E-07,1.1E-07,1.1E-07
GADM-GMB,2.4E-06,2.4E-06,2.4E-06,2.4E-06,2.4E-06,2.4E-06,2.4E-06,2.4E-06,2.4E-06,2.4E-06,2.4E-06,2.4E-06,2.4E-06,1.1E-07,1.1E-07,1.1E-07,1.1E-07,1.1E-07,1.1E-07,1.1E-07
GADM-GEO,3E-07,3E-07,3E-07,3E-07,3E-07,3E-07,3E-07,3E-07,3E-07,3E-07,3E-07,3E-07,3E-07,1.4E-07,1.4E-07,1.4E-07,1.4E-07,1.4E-07,1.4E-07,1.4E-07
GADM-DEU,6.9E-08,6.9E-08,6.9E-08,6.9E-08,6.9E-08,6.9E-08,6.9E-08,6.9E-08,6.9E-08,6.9E-08,6.9E-08,6.9E-08,6.9E-08,2.5E-07,2.5E-07,2.5E-07,2.5E-07,2.5E-07,2.5E-07,2.5E-07
GADM-GHA,2.4E-06,2.4E-06,2.4E-06,2.4E-06,2.4E-06,2.4E-06,2.4E-06,2.4E-06,2.4E-06,2.4E-06,2.4E-06,2.4E-06,2.4E-06,1.1E-07,1.1E-07,1.1E-07,1.1E-07,1.1E-07,1.1E-07,1.1E-07
GADM-GRC,4.4E-07,4.4E-07,4.4E-07,4.4E-07,4.4E-07,4.4E-07,4.4E-07,4.4E-07,4.4E-07,4.4E-07,4.4E-07,4.4E-07,4.4E-07,2.3E-07,2.3E-07,2.3E-07,2.3E-07,2.3E-07,2.3E-07,2.3E-07
GADM-GRL,2E-07,2E-07,2E-07,2E-07,2E-07,2E-07,2E-07,2E-07,2E-07,2E-07,2E-07,2E-07,2E-07,1.1E-07,1.1E-07,1.1E-07,1.1E-07,1.1E-07,1.1E-07,1.1E-07
GADM-GRD,6.7E-07,6.7E-07,6.7E-07,6.7E-07,6.7E-07,6.7E-07,6.7E-07,6.7E-07,6.7E-07,6.7E-07,6.7E-07,6.7E-07,6.7E-07,5.9E-08,5.9E-08,5.9E-08,5.9E-08,5.9E-08,5.9E-08,5.9E-08
GADM-GLP,6.7E-07,6.7E-07,6.7E-07,6.7E-07,6.7E-07,6.7E-07,6.7E-07,6.7E-07,6.7E-07,6.7E-07,6.7E-07,6.7E-07,6.7E-07,5.9E-08,5.9E-08,5.9E-08,5.9E-08,5.9E-08,5.9E-08,5.9E-08
GADM-GTM,6.7E-07,6.7E-07,6.7E-07,6.7E-07,6.7E-07,6.7E-07,6.7E-07,6.7E-07,6.7E-07,6.7E-07,6.7E-07,6.7E-07,6.7E-07,5.9E-08,5.9E-08,5.9E-08,5.9E-08,5.9E-08,5.9E-08,5.9E-08
GADM-GIN,2.4E-06,2.4E-06,2.4E-06,2.4E-06,2.4E-06,2.4E-06,2.4E-06,2.4E-06,2.4E-06,2.4E-06,2.4E-06,2.4E-06,2.4E-06,1.1E-07,1.1E-07,1.1E-07,1.1E-07,1.1E-07,1.1E-07,1.1E-07
GADM-GNB,2.4E-06,2.4E-06,2.4E-06,2.4E-06,2.4E-06,2.4E-06,2.4E-06,2.4E-06,2.4E-06,2.4E-06,2.4E-06,2.4E-06,2.4E-06,1.1E-07,1.1E-07,1.1E-07,1.1E-07,1.1E-07,1.1E-07,1.1E-07
GADM-GUY,5.1E-07,5.1E-07,5.1E-07,5.1E-07,5.1E-07,5.1E-07,5.1E-07,5.1E-07,5.1E-07,5.1E-07,5.1E-07,5.1E-07,5.1E-07,1.6E-08,1.6E-08,1.6E-08,1.6E-08,1.6E-08,1.6E-08,1.6E-08
GADM-HTI,6.7E-07,6.7E-07,6.7E-07,6.7E-07,6.7E-07,6.7E-07,6.7E-07,6.7E-07,6.7E-07,6.7E-07,6.7E-07,6.7E-07,6.7E-07,5.9E-08,5.9E-08,5.9E-08,5.9E-08,5.9E-08,5.9E-08,5.9E-08
GADM-HND,6.7E-07,6.7E-07,6.7E-07,6.7E-07,6.7E-07,6.7E-07,6.7E-07,6.7E-07,6.7E-07,6.7E-07,6.7E-07,6.7E-07,6.7E-07,5.9E-08,5.9E-08,5.9E-08,5.9E-08,5.9E-08,5.9E-08,5.9E-08
GADM-HUN,2.8E-07,2.8E-07,2.8E-07,2.8E-07,2.8E-07,2.8E-07,2.8E-07,2.8E-07,2.8E-07,2.8E-07,2.8E-07,2.8E-07,2.8E-07,1.7E-07,1.7E-07,1.7E-07,1.7E-07,1.7E-07,1.7E-07,1.7E-07
GADM-ISL,4.5E-07,4.5E-07,4.5E-07,4.5E-07,4.5E-07,4.5E-07,4.5E-07,4.5E-07,4.5E-07,4.5E-07,4.5E-07,4.5E-07,4.5E-07,1.2E-07,1.2E-07,1.2E-07,1.2E-07,1.2E-07,1.2E-07,1.2E-07
GADM-IND,5.2E-06,5.2E-06,5.2E-06,5.2E-06,5.2E-06,5.2E-06,5.2E-06,5.2E-06,5.2E-06,5.2E-06,5.2E-06,5.2E-06,5.2E-06,4.1E-07,4.1E-07,4.1E-07,4.1E-07,4.1E-07,4.1E-07,4.1E-07
GADM-IDN,1E-06,1E-06,1E-06,1E-06,1E-06,1E-06,1E-06,1E-06,1E-06,1E-06,1E-06,1E-06,1E-06,1.8E-08,1.8E-08,1.8E-08,1.8E-08,1.8E-08,1.8E-08,1.8E-08
GADM-IRN,9.7E-07,9.7E-07,9.7E-07,9.7E-07,9.7E-07,9.7E-07,9.7E-07,9.7E-07,9.7E-07,9.7E-07,9.7E-07,9.7E-07,9.7E-07,1.6E-07,1.6E-07,1.6E-07,1.6E-07,1.6E-07,1.6E-07,1.6E-07
GADM-IRQ,9.7E-07,9.7E-07,9.7E-07,9.7E-07,9.7E-07,9.7E-07,9.7E-07,9.7E-07,9.7E-07,9.7E-07,9.7E-07,9.7E-07,9.7E-07,1.6E-07,1.6E-07,1.6E-07,1.6E-07,1.6E-07,1.6E-07,1.6E-07
GADM-IRL,-1.6E-07,-1.6E-07,-1.6E-07,-1.6E-07,-1.6E-07,-1.6E-07,-1.6E-07,-1.6E-07,-1.6E-07,-1.6E-07,-1.6E-07,-1.6E-07,-1.6E-07,3.2E-07,3.2E-07,3.2E-07,3.2E-07,3.2E-07,3.2E-07,3.2E-07
GADM-ISR,4.9E-07,4.9E-07,4.9E-07,4.9E-07,4.9E-07,4.9E-07,4.9E-07,4.9E-07,4.9E-07,4.9E-07,4.9E-07,4.9E-07,4.9E-07,1.8E-07,1.8E-07,1.8E-07,1.8E-07,1.8E-07,1.8E-07,1.8E-07
GADM-ITA,4.6E-07,4.6E-07,4.6E-07,4.6E-07,4.6E-07,4.6E-07,4.6E-07,4.6E-07,4.6E-07,4.6E-07,4.6E-07,4.6E-07,4.6E-07,2.7E-07,2.7E-07,2.7E-07,2.7E-07,2.7E-07,2.7E-07,2.7E-07
GADM-JAM,6.7E-07,6.7E-07,6.7E-07,6.7E-07,6.7E-07,6.7E-07,6.7E-07,6.7E-07,6.7E-07,6.7E-07,6.7E-07,6.7E-07,6.7E-07,5.9E-08,5.9E-08,5.9E-08,5.9E-08,5.9E-08,5.9E-08,5.9E-08
GADM-JPN,2.3E-09,2.3E-09,2.3E-09,2.3E-09,2.3E-09,2.3E-09,2.3E-09,2.3E-09,2.3E-09,2.3E-09,2.3E-09,2.3E-09,2.3E-09,2.7E-07,2.7E-07,2.7E-07,2.7E-07,2.7E-07,2.7E-07,2.7E-07
GADM-JOR,4.9E-07,4.9E-07,4.9E-07,4.9E-07,4.9E-07,4.9E-07,4.9E-07,4.9E-07,4.9E-07,4.9E-07,4.9E-07,4.9E-07,4.9E-07,1.8E-07,1.8E-07,1.8E-07,1.8E-07,1.8E-07,1.8E-07,1.8E-07
GADM-KAZ,4E-07,4E-07,4E-07,4E-07,4E-07,4E-07,4E-07,4E-07,4E-07,4E-07,4E-07,4E-07,4E-07,1E-07,1E-07,1E-07,1E-07,1E-07,1E-07,1E-07
GADM-KEN,9.7E-07,9.7E-07,9.7E-07,9.7E-07,9.7E-07,9.7E-07,9.7E-07,9.7E-07,9.7E-07,9.7E-07,9.7E-07,9.7E-07,9.7E-07,4.3E-08,4.3E-08,4.3E-08,4.3E-08,4.3E-08,4.3E-08,4.3E-08
GADM-KWT,9.7E-07,9.7E-07,9.7E-07,9.7E-07,9.7E-07,9.7E-07,9.7E-07,9.7E-07,9.7E-07,9.7E-07,9.7E-07,9.7E-07,9.7E-07,1.6E-07,1.6E-07,1.6E-07,1.6E-07,1.6E-07,1.6E-07,1.6E-07
GADM-KGZ,7E-07,7E-07,7E-07,7E-07,7E-07,7E-07,7E-07,7E-07,7E-07,7E-07,7E-07,7E-07,7E-07,1.5E-07,1.5E-07,1.5E-07,1.5E-07,1.5E-07,1.5E-07,1.5E-07
GADM-LAO,1.8E-06,1.8E-06,1.8E-06,1.8E-06,1.8E-06,1.8E-06,1.8E-06,1.8E-06,1.8E-06,1.8E-06,1.8E-06,1.8E-06,1.8E-06,4.4E-08,4.4E-08,4.4E-08,4.4E-08,4.4E-08,4.4E-08,4.4E-08
GADM-LVA,1.8E-07,1.8E-07,1.8E-07,1.8E-07,1.8E-07,1.8E-07,1.8E-07,1.8E-07,1.8E-07,1.8E-07,1.8E-07,1.8E-07,1.8E-07,1.8E-07,1.8E-07,1.8E-07,1.8E-07,1.8E-07,1.8E-07,1.8E-07
GADM-LBN,4.9E-07,4.9E-07,4.9E-07,4.9E-07,4.9E-07,4.9E-07,4.9E-07,4.9E-07,4.9E-07,4.9E-07,4.9E-07,4.9E-07,4.9E-07,1.8E-07,1.8E-07,1.8E-07,1.8E-07,1.8E-07,1.8E-07,1.8E-07
GADM-LSO,4E-07,4E-07,4E-07,4E-07,4E-07,4E-07,4E-07,4E-07,4E-07,4E-07,4E-07,4E-07,4E-07,1.1E-07,1.1E-07,1.1E-07,1.1E-07,1.1E-07,1.1E-07,1.1E-07
GADM-LBR,2.4E-06,2.4E-06,2.4E-06,2.4E-06,2.4E-06,2.4E-06,2.4E-06,2.4E-06,2.4E-06,2.4E-06,2.4E-06,2.4E-06,2.4E-06,1.1E-07,1.1E-07,1.1E-07,1.1E-07,1.1E-07,1.1E-07,1.1E-07
GADM-LBY,9.9E-07,9.9E-07,9.9E-07,9.9E-07,9.9E-07,9.9E-07,9.9E-07,9.9E-07,9.9E-07,9.9E-07,9.9E-07,9.9E-07,9.9E-07,1.7E-07,1.7E-07,1.7E-07,1.7E-07,1.7E-07,1.7E-07,1.7E-07
GADM-LTU,1.8E-07,1.8E-07,1.8E-07,1.8E-07,1.8E-07,1.8E-07,1.8E-07,1.8E-07,1.8E-07,1.8E-07,1.8E-07,1.8E-07,1.8E-07,1.8E-07,1.8E-07,1.8E-07,1.8E-07,1.8E-07,1.8E-07,1.8E-07
GADM-LUX,-2.2E-07,-2.2E-07,-2.2E-07,-2.2E-07,-2.2E-07,-2.2E-07,-2.2E-07,-2.2E-07,-2.2E-07,-2.2E-07,-2.2E-07,-2.2E-07,-2.2E-07,3.3E-07,3.3E-07,3.3E-07,3.3E-07,3.3E-07,3.3E-07,3.3E-07
GADM-MDG,9.7E-07,9.7E-07,9.7E-07,9.7E-07,9.7E-07,9.7E-07,9.7E-07,9.7E-07,9.7E-07,9.7E-07,9.7E-07,9.7E-07,9.7E-07,4.3E-08,4.3E-08,4.3E-08,4.3E-08,4.3E-08,4.3E-08,4.3E-08
GADM-MWI,5.8E-07,5.8E-07,5.8E-07,5.8E-07,5.8E-07,5.8E-07,5.8E-07,5.8E-07,5.8E-07,5.8E-07,5.8E-07,5.8E-07,5.8E-07,2.3E-08,2.3E-08,2.3E-08,2.3E-08,2.3E-08,2.3E-08,2.3E-08
GADM-MYS,7E-07,7E-07,7E-07,7E-07,7E-07,7E-07,7E-07,7E-07,7E-07,7E-07,7E-07,7E-07,7E-07,3E-08,3E-08,3E-08,3E-08,3E-08,3E-08,3E-08
GADM-MDV,5.2E-06,5.2E-06,5.2E-06,5.2E-06,5.2E-06,5.2E-06,5.2E-06,5.2E-06,5.2E-06,5.2E-06,5.2E-06,5.2E-06,5.2E-06,4.1E-07,4.1E-07,4.1E-07,4.1E-07,4.1E-07,4.1E-07,4.1E-07
GADM-MLI,2.4E-06,2.4E-06,2.4E-06,2.4E-06,2.4E-06,2.4E-06,2.4E-06,2.4E-06,2.4E-06,2.4E-06,2.4E-06,2.4E-06,2.4E-06,1.1E-07,1.1E-07,1.1E-07,1.1E-07,1.1E-07,1.1E-07,1.1E-07
GADM-MLT,4.6E-07,4.6E-07,4.6E-07,4.6E-07,4.6E-07,4.6E-07,4.6E-07,4.6E-07,4.6E-07,4.6E-07,4.6E-07,4.6E-07,4.6E-07,2.7E-07,2.7E-07,2.7E-07,2.7E-07,2.7E-07,2.7E-07,2.7E-07
GADM-MTQ,6.7E-07,6.7E-07,6.7E-07,6.7E-07,6.7E-07,6.7E-07,6.7E-07,6.7E-07,6.7E-07,6.7E-07,6.7E-07,6.7E-07,6.7E-07,5.9E-08,5.9E-08,5.9E-08,5.9E-08,5.9E-08,5.9E-08,5.9E-08
GADM-MRT,2.4E-06,2.4E-06,2.4E-06,2.4E-06,2.4E-06,2.4E-06,2.4E-06,2.4E-06,2.4E-06,2.4E-06,2.4E-06,2.4E-06,2.4E-06,1.1E-07,1.1E-07,1.1E-07,1.1E-07,1.1E-07,1.1E-07,1.1E-07
GADM-MUS,9.7E-07,9.7E-07,9.7E-07,9.7E-07,9.7E-07,9.7E-07,9.7E-07,9.7E-07,9.7E-07,9.7E-07,9.7E-07,9.7E-07,9.7E-07,4.3E-08,4.3E-08,4.3E-08,4.3E-08,4.3E-08,4.3E-08,4.3E-08
GADM-MEX,5.8E-07,5.8E-07,5.8E-07,5.8E-07,5.8E-07,5.8E-07,5.8E-07,5.8E-07,5.8E-07,5.8E-07,5.8E-07,5.8E-07,5.8E-07,8.4E-08,8.4E-08,8.4E-08,8.4E-08,8.4E-08,8.4E-08,8.4E-08
GADM-MNG,5.8E-07,5.8E-07,5.8E-07,5.8E-07,5.8E-07,5.8E-07,5.8E-07,5.8E-07,5.8E-07,5.8E-07,5.8E-07,5.8E-07,5.8E-07,5E-08,5E-08,5E-08,5E-08,5E-08,5E-08,5E-08
GADM-MAR,9.9E-07,9.9E-07,9.9E-07,9.9E-07,9.9E-07,9.9E-07,9.9E-07,9.9E-07,9.9E-07,9.9E-07,9.9E-07,9.9E-07,9.9E-07,1.7E-07,1.7E-07,1.7E-07,1.7E-07,1.7E-07,1.7E-07,1.7E-07
GADM-MOZ,5.8E-07,5.8E-07,5.8E-07,5.8E-07,5.8E-07,5.8E-07,5.8E-07,5.8E-07,5.8E-07,5.8E-07,5.8E-07,5.8E-07,5.8E-07,2.3E-08,2.3E-08,2.3E-08,2.3E-08,2.3E-08,2.3E-08,2.3E-08
GADM-MMR,1.8E-06,1.8E-06,1.8E-06,1.8E-06,1.8E-06,1.8E-06,1.8E-06,1.8E-06,1.8E-06,1.8E-06,1.8E-06,1.8E-06,1.8E-06,4.4E-08,4.4E-08,4.4E-08,4.4E-08,4.4E-08,4.4E-08,4.4E-08
GADM-NAM,5.8E-07,5.8E-07,5.8E-07,5.8E-07,5.8E-07,5.8E-07,5.8E-07,5.8E-07,5.8E-07,5.8E-07,5.8E-07,5.8E-07,5.8E-07,2.3E-08,2.3E-08,2.3E-08,2.3E-08,2.3E-08,2.3E-08,2.3E-08
GADM-NPL,5.7E-06,5.7E-06,5.7E-06,5.7E-06,5.7E-06,5.7E-06,5.7E-06,5.7E-06,5.7E-06,5.7E-06,5.7E-06,5.7E-06,5.7E-06,2.3E-08,2.3E-08,2.3E-08,2.3E-08,2.3E-08,2.3E-08,2.3E-08
GADM-NLD,-2.2E-07,-2.2E-07,-2.2E-07,-2.2E-07,-2.2E-07,-2.2E-07,-2.2E-07,-2.2E-07,-2.2E-07,-2.2E-07,-2.2E-07,-2.2E-07,-2.2E-07,3.3E-07,3.3E-07,3.3E-07,3.3E-07,3.3E-07,3.3E-07,3.3E-07
GADM-BES,6.7E-07,6.7E-07,6.7E-07,6.7E-07,6.7E-07,6.7E-07,6.7E-07,6.7E-07,6.7E-07,6.7E-07,6.7E-07,6.7E-07,6.7E-07,5.9E-08,5.9E-08,5.9E-08,5.9E-08,5.9E-08,5.9E-08,5.9E-08
GADM-CUW,6.7E-07,6.7E-07,6.7E-07,6.7E-07,6.7E-07,6.7E-07,6.7E-07,6.7E-07,6.7E-07,6.7E-07,6.7E-07,6.7E-07,6.7E-07,5.9E-08,5.9E-08,5.9E-08,5.9E-08,5.9E-08,5.9E-08,5.9E-08
GADM-SXM,6.7E-07,6.7E-07,6.7E-07,6.7E-07,6.7E-07,6.7E-07,6.7E-07,6.7E-07,6.7E-07,6.7E-07,6.7E-07,6.7E-07,6.7E-07,5.9E-08,5.9E-08,5.9E-08,5.9E-08,5.9E-08,5.9E-08,5.9E-08
GADM-NZL,6.2E-08,6.2E-08,6.2E-08,6.2E-08,6.2E-08,6.2E-08,6.2E-08,6.2E-08,6.2E-08,6.2E-08,6.2E-08,6.2E-08,6.2E-08,8.8E-09,8.8E-09,8.8E-09,8.8E-09,8.8E-09,8.8E-09,8.8E-09
GADM-NIC,6.7E-07,6.7E-07,6.7E-07,6.7E-07,6.7E-07,6.7E-07,6.7E-07,6.7E-07,6.7E-07,6.7E-07,6.7E-07,6.7E-07,6.7E-07,5.9E-08,5.9E-08,5.9E-08,5.9E-08,5.9E-08,5.9E-08,5.9E-08
GADM-NER,2.4E-06,2.4E-06,2.4E-06,2.4E-06,2.4E-06,2.4E-06,2.4E-06,2.4E-06,2.4E-06,2.4E-06,2.4E-06,2.4E-06,2.4E-06,1.1E-07,1.1E-07,1.1E-07,1.1E-07,1.1E-07,1.1E-07,1.1E-07
GADM-NGA,2.4E-06,2.4E-06,2.4E-06,2.4E-06,2.4E-06,2.4E-06,2.4E-06,2.4E-06,2.4E-06,2.4E-06,2.4E-06,2.4E-06,2.4E-06,1.1E-07,1.1E-07,1.1E-07,1.1E-07,1.1E-07,1.1E-07,1.1E-07
GADM-NOR,4.5E-07,4.5E-07,4.5E-07,4.5E-07,4.5E-07,4.5E-07,4.5E-07,4.5E-07,4.5E-07,4.5E-07,4.5E-07,4.5E-07,4.5E-07,1.2E-07,1.2E-07,1.2E-07,1.2E-07,1.2E-07,1.2E-07,1.2E-07
GADM-OMN,9.7E-07,9.7E-07,9.7E-07,9.7E-07,9.7E-07,9.7E-07,9.7E-07,9.7E-07,9.7E-07,9.7E-07,9.7E-07,9.7E-07,9.7E-07,1.6E-07,1.6E-07,1.6E-07,1.6E-07,1.6E-07,1.6E-07,1.6E-07
GADM-PAK,5.7E-06,5.7E-06,5.7E-06,5.7E-06,5.7E-06,5.7E-06,5.7E-06,5.7E-06,5.7E-06,5.7E-06,5.7E-06,5.7E-06,5.7E-06,3.7E-07,3.7E-07,3.7E-07,3.7E-07,3.7E-07,3.7E-07,3.7E-07
GADM-PAN,6.7E-07,6.7E-07,6.7E-07,6.7E-07,6.7E-07,6.7E-07,6.7E-07,6.7E-07,6.7E-07,6.7E-07,6.7E-07,6.7E-07,6.7E-07,5.9E-08,5.9E-08,5.9E-08,5.9E-08,5.9E-08,5.9E-08,5.9E-08
GADM-PNG,4.5E-07,4.5E-07,4.5E-07,4.5E-07,4.5E-07,4.5E-07,4.5E-07,4.5E-07,4.5E-07,4.5E-07,4.5E-07,4.5E-07,4.5E-07,1E-08,1E-08,1E-08,1E-08,1E-08,1E-08,1E-08
GADM-PRY,5.1E-07,5.1E-07,5.1E-07,5.1E-07,5.1E-07,5.1E-07,5.1E-07,5.1E-07,5.1E-07,5.1E-07,5.1E-07,5.1E-07,5.1E-07,1.6E-08,1.6E-08,1.6E-08,1.6E-08,1.6E-08,1.6E-08,1.6E-08
GADM-PER,5.1E-07,5.1E-07,5.1E-07,5.1E-07,5.1E-07,5.1E-07,5.1E-07,5.1E-07,5.1E-07,5.1E-07,5.1E-07,5.1E-07,5.1E-07,1.6E-08,1.6E-08,1.6E-08,1.6E-08,1.6E-08,1.6E-08,1.6E-08
GADM-PHL,4.8E-07,4.8E-07,4.8E-07,4.8E-07,4.8E-07,4.8E-07,4.8E-07,4.8E-07,4.8E-07,4.8E-07,4.8E-07,4.8E-07,4.8E-07,7.2E-08,7.2E-08,7.2E-08,7.2E-08,7.2E-08,7.2E-08,7.2E-08
GADM-POL,1.8E-07,1.8E-07,1.8E-07,1.8E-07,1.8E-07,1.8E-07,1.8E-07,1.8E-07,1.8E-07,1.8E-07,1.8E-07,1.8E-07,1.8E-07,1.8E-07,1.8E-07,1.8E-07,1.8E-07,1.8E-07,1.8E-07,1.8E-07
GADM-PRT,6.2E-07,6.2E-07,6.2E-07,6.2E-07,6.2E-07,6.2E-07,6.2E-07,6.2E-07,6.2E-07,6.2E-07,6.2E-07,6.2E-07,6.2E-07,2.2E-07,2.2E-07,2.2E-07,2.2E-07,2.2E-07,2.2E-07,2.2E-07
GADM-PRI,6.7E-07,6.7E-07,6.7E-07,6.7E-07,6.7E-07,6.7E-07,6.7E-07,6.7E-07,6.7E-07,6.7E-07,6.7E-07,6.7E-07,6.7E-07,5.9E-08,5.9E-08,5.9E-08,5.9E-08,5.9E-08,5.9E-08,5.9E-08
GADM-QAT,9.7E-07,9.7E-07,9.7E-07,9.7E-07,9.7E-07,9.7E-07,9.7E-07,9.7E-07,9.7E-07,9.7E-07,9.7E-07,9.7E-07,9.7E-07,1.6E-07,1.6E-07,1.6E-07,1.6E-07,1.6E-07,1.6E-07,1.6E-07
GADM-KOR,4.1E-07,4.1E-07,4.1E-07,4.1E-07,4.1E-07,4.1E-07,4.1E-07,4.1E-07,4.1E-07,4.1E-07,4.1E-07,4.1E-07,4.1E-07,5E-07,5E-07,5E-07,5E-07,5E-07,5E-07,5E-07
GADM-MDA,3.4E-07,3.4E-07,3.4E-07,3.4E-07,3.4E-07,3.4E-07,3.4E-07,3.4E-07,3.4E-07,3.4E-07,3.4E-07,3.4E-07,3.4E-07,1.6E-07,1.6E-07,1.6E-07,1.6E-07,1.6E-07,1.6E-07,1.6E-07
GADM-REU,9.7E-07,9.7E-07,9.7E-07,9.7E-07,9.7E-07,9.7E-07,9.7E-07,9.7E-07,9.7E-07,9.7E-07,9.7E-07,9.7E-07,9.7E-07,4.3E-08,4.3E-08,4.3E-08,4.3E-08,4.3E-08,4.3E-08,4.3E-08
GADM-ROU,3.8E-07,3.8E-07,3.8E-07,3.8E-07,3.8E-07,3.8E-07,3.8E-07,3.8E-07,3.8E-07,3.8E-07,3.8E-07,3.8E-07,3.8E-07,1.6E-07,1.6E-07,1.6E-07,1.6E-07,1.6E-07,1.6E-07,1.6E-07
GADM-RUS,3.85E-07,3.85E-07,3.85E-07,3.85E-07,3.85E-07,3.85E-07,3.85E-07,3.85E-07,3.85E-07,3.85E-07,3.85E-07,3.85E-07,3.85E-07,1.09E-07,1.09E-07,1.09E-07,1.09E-07,1.09E-07,1.09E-07,1.09E-07
GADM-RWA,9.7E-07,9.7E-07,9.7E-07,9.7E-07,9.7E-07,9.7E-07,9.7E-07,9.7E-07,9.7E-07,9.7E-07,9.7E-07,9.7E-07,9.7E-07,4.3E-08,4.3E-08,4.3E-08,4.3E-08,4.3E-08,4.3E-08,4.3E-08
GADM-LCA,6.7E-07,6.7E-07,6.7E-07,6.7E-07,6.7E-07,6.7E-07,6.7E-07,6.7E-07,6.7E-07,6.7E-07,6.7E-07,6.7E-07,6.7E-07,5.9E-08,5.9E-08,5.9E-08,5.9E-08,5.9E-08,5.9E-08,5.9E-08
GADM-VCT,6.7E-07,6.7E-07,6.7E-07,6.7E-07,6.7E-07,6.7E-07,6.7E-07,6.7E-07,6.7E-07,6.7E-07,6.7E-07,6.7E-07,6.7E-07,5.9E-08,5.9E-08,5.9E-08,5.9E-08,5.9E-08,5.9E-08,5.9E-08
GADM-WSM,4.5E-07,4.5E-07,4.5E-07,4.5E-07,4.5E-07,4.5E-07,4.5E-07,4.5E-07,4.5E-07,4.5E-07,4.5E-07,4.5E-07,4.5E-07,1E-08,1E-08,1E-08,1E-08,1E-08,1E-08,1E-08
GADM-STP,2.4E-06,2.4E-06,2.4E-06,2.4E-06,2.4E-06,2.4E-06,2.4E-06,2.4E-06,2.4E-06,2.4E-06,2.4E-06,2.4E-06,2.4E-06,1.1E-07,1.1E-07,1.1E-07,1.1E-07,1.1E-07,1.1E-07,1.1E-07
GADM-SAU,9.7E-07,9.7E-07,9.7E-07,9.7E-07,9.7E-07,9.7E-07,9.7E-07,9.7E-07,9.7E-07,9.7E-07,9.7E-07,9.7E-07,9.7E-07,1.6E-07,1.6E-07,1.6E-07,1.6E-07,1.6E-07,1.6E-07,1.6E-07
GADM-SEN,2.4E-06,2.4E-06,2.4E-06,2.4E-06,2.4E-06,2.4E-06,2.4E-06,2.4E-06,2.4E-06,2.4E-06,2.4E-06,2.4E-06,2.4E-06,1.1E-07,1.1E-07,1.1E-07,1.1E-07,1.1E-07,1.1E-07,1.1E-07
GADM-SRB,4.9E-07,4.9E-07,4.9E-07,4.9E-07,4.9E-07,4.9E-07,4.9E-07,4.9E-07,4.9E-07,4.9E-07,4.9E-07,4.9E-07,4.9E-07,1.4E-07,1.4E-07,1.4E-07,1.4E-07,1.4E-07,1.4E-07,1.4E-07
GADM-SLE,2.4E-06,2.4E-06,2.4E-06,2.4E-06,2.4E-06,2.4E-06,2.4E-06,2.4E-06,2.4E-06,2.4E-06,2.4E-06,2.4E-06,2.4E-06,1.1E-07,1.1E-07,1.1E-07,1.1E-07,1.1E-07,1.1E-07,1.1E-07
GADM-SGP,7E-07,7E-07,7E-07,7E-07,7E-07,7E-07,7E-07,7E-07,7E-07,7E-07,7E-07,7E-07,7E-07,3E-08,3E-08,3E-08,3E-08,3E-08,3E-08,3E-08
GADM-SVK,1.6E-07,1.6E-07,1.6E-07,1.6E-07,1.6E-07,1.6E-07,1.6E-07,1.6E-07,1.6E-07,1.6E-07,1.6E-07,1.6E-07,1.6E-07,1.9E-07,1.9E-07,1.9E-07,1.9E-07,1.9E-07,1.9E-07,1.9E-07
GADM-SVN,3.3E-07,3.3E-07,3.3E-07,3.3E-07,3.3E-07,3.3E-07,3.3E-07,3.3E-07,3.3E-07,3.3E-07,3.3E-07,3.3E-07,3.3E-07,1.9E-07,1.9E-07,1.9E-07,1.9E-07,1.9E-07,1.9E-07,1.9E-07
GADM-SLB,4.5E-07,4.5E-07,4.5E-07,4.5E-07,4.5E-07,4.5E-07,4.5E-07,4.5E-07,4.5E-07,4.5E-07,4.5E-07,4.5E-07,4.5E-07,1E-08,1E-08,1E-08,1E-08,1E-08,1E-08,1E-08
GADM-SOM,9.7E-07,9.7E-07,9.7E-07,9.7E-07,9.7E-07,9.7E-07,9.7E-07,9.7E-07,9.7E-07,9.7E-07,9.7E-07,9.7E-07,9.7E-07,4.3E-08,4.3E-08,4.3E-08,4.3E-08,4.3E-08,4.3E-08,4.3E-08
GADM-ZAF,4E-07,4E-07,4E-07,4E-07,4E-07,4E-07,4E-07,4E-07,4E-07,4E-07,4E-07,4E-07,4E-07,1.1E-07,1.1E-07,1.1E-07,1.1E-07,1.1E-07,1.1E-07,1.1E-07
GADM-ESP,6.2E-07,6.2E-07,6.2E-07,6.2E-07,6.2E-07,6.2E-07,6.2E-07,6.2E-07,6.2E-07,6.2E-07,6.2E-07,6.2E-07,6.2E-07,2.2E-07,2.2E-07,2.2E-07,2.2E-07,2.2E-07,2.2E-07,2.2E-07
GADM-LKA,5.2E-06,5.2E-06,5.2E-06,5.2E-06,5.2E-06,5.2E-06,5.2E-06,5.2E-06,5.2E-06,5.2E-06,5.2E-06,5.2E-06,5.2E-06,4.1E-07,4.1E-07,4.1E-07,4.1E-07,4.1E-07,4.1E-07,4.1E-07
GADM-SDN,9.7E-07,9.7E-07,9.7E-07,9.7E-07,9.7E-07,9.7E-07,9.7E-07,9.7E-07,9.7E-07,9.7E-07,9.7E-07,9.7E-07,9.7E-07,4.3E-08,4.3E-08,4.3E-08,4.3E-08,4.3E-08,4.3E-08,4.3E-08
GADM-SUR,5.1E-07,5.1E-07,5.1E-07,5.1E-07,5.1E-07,5.1E-07,5.1E-07,5.1E-07,5.1E-07,5.1E-07,5.1E-07,5.1E-07,5.1E-07,1.6E-08,1.6E-08,1.6E-08,1.6E-08,1.6E-08,1.6E-08,1.6E-08
GADM-SWZ,4E-07,4E-07,4E-07,4E-07,4E-07,4E-07,4E-07,4E-07,4E-07,4E-07,4E-07,4E-07,4E-07,1.1E-07,1.1E-07,1.1E-07,1.1E-07,1.1E-07,1.1E-07,1.1E-07
GADM-SWE,1.9E-07,1.9E-07,1.9E-07,1.9E-07,1.9E-07,1.9E-07,1.9E-07,1.9E-07,1.9E-07,1.9E-07,1.9E-07,1.9E-07,1.9E-07,1.5E-07,1.5E-07,1.5E-07,1.5E-07,1.5E-07,1.5E-07,1.5E-07
GADM-CHE,4.2E-07,4.2E-07,4.2E-07,4.2E-07,4.2E-07,4.2E-07,4.2E-07,4.2E-07,4.2E-07,4.2E-07,4.2E-07,4.2E-07,4.2E-07,2E-07,2E-07,2E-07,2E-07,2E-07,2E-07,2E-07
GADM-SYR,4.9E-07,4.9E-07,4.9E-07,4.9E-07,4.9E-07,4.9E-07,4.9E-07,4.9E-07,4.9E-07,4.9E-07,4.9E-07,4.9E-07,4.9E-07,1.8E-07,1.8E-07,1.8E-07,1.8E-07,1.8E-07,1.8E-07,1.8E-07
GADM-TJK,7E-07,7E-07,7E-07,7E-07,7E-07,7E-07,7E-07,7E-07,7E-07,7E-07,7E-07,7E-07,7E-07,1.5E-07,1.5E-07,1.5E-07,1.5E-07,1.5E-07,1.5E-07,1.5E-07
GADM-TWN,1E-06,1E-06,1E-06,1E-06,1E-06,1E-06,1E-06,1E-06,1E-06,1E-06,1E-06,1E-06,1E-06,2E-07,2E-07,2E-07,2E-07,2E-07,2E-07,2E-07
GADM-THA,1.2E-06,1.2E-06,1.2E-06,1.2E-06,1.2E-06,1.2E-06,1.2E-06,1.2E-06,1.2E-06,1.2E-06,1.2E-06,1.2E-06,1.2E-06,5.3E-08,5.3E-08,5.3E-08,5.3E-08,5.3E-08,5.3E-08,5.3E-08
GADM-MKD,4.9E-07,4.9E-07,4.9E-07,4.9E-07,4.9E-07,4.9E-07,4.9E-07,4.9E-07,4.9E-07,4.9E-07,4.9E-07,4.9E-07,4.9E-07,1.4E-07,1.4E-07,1.4E-07,1.4E-07,1.4E-07,1.4E-07,1.4E-07
GADM-TGO,2.4E-06,2.4E-06,2.4E-06,2.4E-06,2.4E-06,2.4E-06,2.4E-06,2.4E-06,2.4E-06,2.4E-06,2.4E-06,2.4E-06,2.4E-06,1.1E-07,1.1E-07,1.1E-07,1.1E-07,1.1E-07,1.1E-07,1.1E-07
GADM-TON,4.5E-07,4.5E-07,4.5E-07,4.5E-07,4.5E-07,4.5E-07,4.5E-07,4.5E-07,4.5E-07,4.5E-07,4.5E-07,4.5E-07,4.5E-07,1E-08,1E-08,1E-08,1E-08,1E-08,1E-08,1E-08
GADM-TTO,6.7E-07,6.7E-07,6.7E-07,6.7E-07,6.7E-07,6.7E-07,6.7E-07,6.7E-07,6.7E-07,6.7E-07,6.7E-07,6.7E-07,6.7E-07,5.9E-08,5.9E-08,5.9E-08,5.9E-08,5.9E-08,5.9E-08,5.9E-08
GADM-TUN,9.9E-07,9.9E-07,9.9E-07,9.9E-07,9.9E-07,9.9E-07,9.9E-07,9.9E-07,9.9E-07,9.9E-07,9.9E-07,9.9E-07,9.9E-07,1.7E-07,1.7E-07,1.7E-07,1.7E-07,1.7E-07,1.7E-07,1.7E-07
GADM-TUR,6.2E-07,6.2E-07,6.2E-07,6.2E-07,6.2E-07,6.2E-07,6.2E-07,6.2E-07,6.2E-07,6.2E-07,6.2E-07,6.2E-07,6.2E-07,1.9E-07,1.9E-07,1.9E-07,1.9E-07,1.9E-07,1.9E-07,1.9E-07
GADM-TKM,7E-07,7E-07,7E-07,7E-07,7E-07,7E-07,7E-07,7E-07,7E-07,7E-07,7E-07,7E-07,7E-07,1.5E-07,1.5E-07,1.5E-07,1.5E-07,1.5E-07,1.5E-07,1.5E-07
GADM-UGA,9.7E-07,9.7E-07,9.7E-07,9.7E-07,9.7E-07,9.7E-07,9.7E-07,9.7E-07,9.7E-07,9.7E-07,9.7E-07,9.7E-07,9.7E-07,4.3E-08,4.3E-08,4.3E-08,4.3E-08,4.3E-08,4.3E-08,4.3E-08
GADM-UKR,3.4E-07,3.4E-07,3.4E-07,3.4E-07,3.4E-07,3.4E-07,3.4E-07,3.4E-07,3.4E-07,3.4E-07,3.4E-07,3.4E-07,3.4E-07,1.6E-07,1.6E-07,1.6E-07,1.6E-07,1.6E-07,1.6E-07,1.6E-07
GADM-ARE,9.7E-07,9.7E-07,9.7E-07,9.7E-07,9.7E-07,9.7E-07,9.7E-07,9.7E-07,9.7E-07,9.7E-07,9.7E-07,9.7E-07,9.7E-07,1.6E-07,1.6E-07,1.6E-07,1.6E-07,1.6E-07,1.6E-07,1.6E-07
GADM-GBR,-1.6E-07,-1.6E-07,-1.6E-07,-1.6E-07,-1.6E-07,-1.6E-07,-1.6E-07,-1.6E-07,-1.6E-07,-1.6E-07,-1.6E-07,-1.6E-07,-1.6E-07,3.2E-07,3.2E-07,3.2E-07,3.2E-07,3.2E-07,3.2E-07,3.2E-07
GADM-TZA,9.7E-07,9.7E-07,9.7E-07,9.7E-07,9.7E-07,9.7E-07,9.7E-07,9.7E-07,9.7E-07,9.7E-07,9.7E-07,9.7E-07,9.7E-07,4.3E-08,4.3E-08,4.3E-08,4.3E-08,4.3E-08,4.3E-08,4.3E-08
GADM-USA,1.9E-07,1.9E-07,1.9E-07,1.9E-07,1.9E-07,1.9E-07,1.9E-07,1.9E-07,1.9E-07,1.9E-07,1.9E-07,1.9E-07,1.9E-07,1.9E-07,1.9E-07,1.9E-07,1.9E-07,1.9E-07,1.9E-07,1.9E-07
GADM-URY,3.3E-07,3.3E-07,3.3E-07,3.3E-07,3.3E-07,3.3E-07,3.3E-07,3.3E-07,3.3E-07,3.3E-07,3.3E-07,3.3E-07,3.3E-07,3E-08,3E-08,3E-08,3E-08,3E-08,3E-08,3E-08
GADM-UZB,7E-07,7E-07,7E-07,7E-07,7E-07,7E-07,7E-07,7E-07,7E-07,7E-07,7E-07,7E-07,7E-07,1.5E-07,1.5E-07,1.5E-07,1.5E-07,1.5E-07,1.5E-07,1.5E-07
GADM-VUT,4.5E-07,4.5E-07,4.5E-07,4.5E-07,4.5E-07,4.5E-07,4.5E-07,4.5E-07,4.5E-07,4.5E-07,4.5E-07,4.5E-07,4.5E-07,1E-08,1E-08,1E-08,1E-08,1E-08,1E-08,1E-08
GADM-VEN,5.1E-07,5.1E-07,5.1E-07,5.1E-07,5.1E-07,5.1E-07,5.1E-07,5.1E-07,5.1E-07,5.1E-07,5.1E-07,5.1E-07,5.1E-07,1.6E-08,1.6E-08,1.6E-08,1.6E-08,1.6E-08,1.6E-08,1.6E-08
GADM-VNM,1.1E-06,1.1E-06,1.1E-06,1.1E-06,1.1E-06,1.1E-06,1.1E-06,1.1E-06,1.1E-06,1.1E-06,1.1E-06,1.1E-06,1.1E-06,4.3E-08,4.3E-08,4.3E-08,4.3E-08,4.3E-08,4.3E-08,4.3E-08
GADM-ESH,9.9E-07,9.9E-07,9.9E-07,9.9E-07,9.9E-07,9.9E-07,9.9E-07,9.9E-07,9.9E-07,9.9E-07,9.9E-07,9.9E-07,9.9E-07,1.7E-07,1.7E-07,1.7E-07,1.7E-07,1.7E-07,1.7E-07,1.7E-07
GADM-YEM,9.7E-07,9.7E-07,9.7E-07,9.7E-07,9.7E-07,9.7E-07,9.7E-07,9.7E-07,9.7E-07,9.7E-07,9.7E-07,9.7E-07,9.7E-07,1.6E-07,1.6E-07,1.6E-07,1.6E-07,1.6E-07,1.6E-07,1.6E-07
GADM-ZMB,5.8E-07,5.8E-07,5.8E-07,5.8E-07,5.8E-07,5.8E-07,5.8E-07,5.8E-07,5.8E-07,5.8E-07,5.8E-07,5.8E-07,5.8E-07,2.3E-08,2.3E-08,2.3E-08,2.3E-08,2.3E-08,2.3E-08,2.3E-08
GADM-ZWE,5.8E-07,5.8E-07,5.8E-07,5.8E-07,5.8E-07,5.8E-07,5.8E-07,5.8E-07,5.8E-07,5.8E-07,5.8E-07,5.8E-07,5.8E-07,2.3E-08,2.3E-08,2.3E-08,2.3E-08,2.3E-08,2.3E-08,2.3E-08
region-africa,1.1E-06,1.1E-06,1.1E-06,1.1E-06,1.1E-06,1.1E-06,1.1E-06,1.1E-06,1.1E-06,1.1E-06,1.1E-06,1.1E-06,1.1E-06,6.4E-08,6.4E-08,6.4E-08,6.4E-08,6.4E-08,6.4E-08,6.4E-08
region-asia,2E-06,2E-06,2E-06,2E-06,2E-06,2E-06,2E-06,2E-06,2E-06,2E-06,2E-06,2E-06,2E-06,1.9E-07,1.9E-07,1.9E-07,1.9E-07,1.9E-07,1.9E-07,1.9E-07
region-europe,3.1E-07,3.1E-07,3.1E-07,3.1E-07,3.1E-07,3.1E-07,3.1E-07,3.1E-07,3.1E-07,3.1E-07,3.1E-07,3.1E-07,3.1E-07,1.6E-07,1.6E-07,1.6E-07,1.6E-07,1.6E-07,1.6E-07,1.6E-07
region-northern-america,1.9E-07,1.9E-07,1.9E-07,1.9E-07,1.9E-07,1.9E-07,1.9E-07,1.9E-07,1.9E-07,1.9E-07,1.9E-07,1.9E-07,1.9E-07,1.7E-07,1.7E-07,1.7E-07,1.7E-07,1.7E-07,1.7E-07,1.7E-07
region-oceania,2.7E-07,2.7E-07,2.7E-07,2.7E-07,2.7E-07,2.7E-07,2.7E-07,2.7E-07,2.7E-07,2.7E-07,2.7E-07,2.7E-07,2.7E-07,1.7E-08,1.7E-08,1.7E-08,1.7E-08,1.7E-08,1.7E-08,1.7E-08
region-central-america,4.9E-07,4.9E-07,4.9E-07,4.9E-07,4.9E-07,4.9E-07,4.9E-07,4.9E-07,4.9E-07,4.9E-07,4.9E-07,4.9E-07,4.9E-07,3E-08,3E-08,3E-08,3E-08,3E-08,3E-08,3E-08
region-south-america,4.9E-07,4.9E-07,4.9E-07,4.9E-07,4.9E-07,4.9E-07,4.9E-07,4.9E-07,4.9E-07,4.9E-07,4.9E-07,4.9E-07,4.9E-07,3E-08,3E-08,3E-08,3E-08,3E-08,3E-08,3E-08
region-world,9.1E-07,9.1E-07,9.1E-07,9.1E-07,9.1E-07,9.1E-07,9.1E-07,9.1E-07,9.1E-07,9.1E-07,9.1E-07,9.1E-07,9.1E-07,1.4E-07,1.4E-07,1.4E-07,1.4E-07,1.4E-07,1.4E-07,1.4E-07
