term.id,so2ToAirFuelCombustion,so2ToAirInputsProduction,h2SToAirIndustrialProcesses,h2SToAirInputsProduction,noxToAirAquacultureSystems,noxToAirCropResidueBurning,noxToAirCropResidueDecomposition,noxToAirExcreta,noxToAirFuelCombustion,noxToAirInorganicFertiliser,noxToAirInputsProduction,noxToAirNaturalVegetationBurning,noxToAirOrganicFertiliser,noxToAirOrganicSoilBurning,noxToAirOrganicSoilCultivation,noxToAirSoilFlux,noxToAirWasteTreatment,nh3ToAirAquacultureSystems,nh3ToAirCropResidueBurning,nh3ToAirCropResidueDecomposition,nh3ToAirExcreta,nh3ToAirFuelCombustion,nh3ToAirInorganicFertiliser,nh3ToAirInputsProduction,nh3ToAirNaturalVegetationBurning,nh3ToAirOrganicFertiliser,nh3ToAirOrganicSoilBurning,nh3ToAirOrganicSoilCultivation,nh3ToAirSoilFlux,nh3ToAirWasteTreatment,noToAirAquacultureSystems,noToAirCropResidueBurning,noToAirCropResidueDecomposition,noToAirExcreta,noToAirInorganicFertiliser,noToAirInputsProduction,noToAirOrganicFertiliser,noToAirSoilFlux,noToAirWasteTreatment,no3ToGroundwaterCropResidueDecomposition,no3ToGroundwaterExcreta,no3ToGroundwaterInorganicFertiliser,no3ToGroundwaterInputsProduction,no3ToGroundwaterOrganicFertiliser,no3ToGroundwaterSoilFlux,no3ToGroundwaterWasteTreatment,no3ToSurfaceWaterAquacultureSystems,no3ToSurfaceWaterIndustrialProcesses,no3ToSurfaceWaterInputsProduction
GADM-AFG,8.49E-16,8.49E-16,1.6E-15,1.6E-15,8.23E-16,8.23E-16,8.23E-16,8.23E-16,8.23E-16,8.23E-16,8.23E-16,8.23E-16,8.23E-16,8.23E-16,8.23E-16,8.23E-16,8.23E-16,1.7E-15,1.7E-15,1.7E-15,1.7E-15,1.7E-15,1.7E-15,1.7E-15,1.7E-15,1.7E-15,1.7E-15,1.7E-15,1.7E-15,1.7E-15,1.26E-15,1.26E-15,1.26E-15,1.26E-15,1.26E-15,1.26E-15,1.26E-15,1.26E-15,1.26E-15,6.11E-16,6.11E-16,6.11E-16,6.11E-16,6.11E-16,6.11E-16,6.11E-16,6.11E-16,6.11E-16,6.11E-16
GADM-ALB,1.32E-13,1.32E-13,2.48E-13,2.48E-13,5.95E-14,5.95E-14,5.95E-14,5.95E-14,5.95E-14,5.95E-14,5.95E-14,5.95E-14,5.95E-14,5.95E-14,5.95E-14,5.95E-14,5.95E-14,4.41E-14,4.41E-14,4.41E-14,4.41E-14,4.41E-14,4.41E-14,4.41E-14,4.41E-14,4.41E-14,4.41E-14,4.41E-14,4.41E-14,4.41E-14,9.12E-14,9.12E-14,9.12E-14,9.12E-14,9.12E-14,9.12E-14,9.12E-14,9.12E-14,9.12E-14,4.41E-14,4.41E-14,4.41E-14,4.41E-14,4.41E-14,4.41E-14,4.41E-14,4.41E-14,4.41E-14,4.41E-14
GADM-DZA,3.99E-15,3.99E-15,7.51E-15,7.51E-15,4.1E-15,4.1E-15,4.1E-15,4.1E-15,4.1E-15,4.1E-15,4.1E-15,4.1E-15,4.1E-15,4.1E-15,4.1E-15,4.1E-15,4.1E-15,5.97E-15,5.97E-15,5.97E-15,5.97E-15,5.97E-15,5.97E-15,5.97E-15,5.97E-15,5.97E-15,5.97E-15,5.97E-15,5.97E-15,5.97E-15,6.29E-15,6.29E-15,6.29E-15,6.29E-15,6.29E-15,6.29E-15,6.29E-15,6.29E-15,6.29E-15,3.04E-15,3.04E-15,3.04E-15,3.04E-15,3.04E-15,3.04E-15,3.04E-15,3.04E-15,3.04E-15,3.04E-15
GADM-AGO,5.88E-16,5.88E-16,1.11E-15,1.11E-15,8.55E-16,8.55E-16,8.55E-16,8.55E-16,8.55E-16,8.55E-16,8.55E-16,8.55E-16,8.55E-16,8.55E-16,8.55E-16,8.55E-16,8.55E-16,5.54E-16,5.54E-16,5.54E-16,5.54E-16,5.54E-16,5.54E-16,5.54E-16,5.54E-16,5.54E-16,5.54E-16,5.54E-16,5.54E-16,5.54E-16,1.31E-15,1.31E-15,1.31E-15,1.31E-15,1.31E-15,1.31E-15,1.31E-15,1.31E-15,1.31E-15,6.34E-16,6.34E-16,6.34E-16,6.34E-16,6.34E-16,6.34E-16,6.34E-16,6.34E-16,6.34E-16,6.34E-16
GADM-ATA,0,0,0,0,0,0,0,0,0,0,0,0,0,0,0,0,0,0,0,0,0,0,0,0,0,0,0,0,0,0,0,0,0,0,0,0,0,0,0,0,0,0,0,0,0,0,0,0,0
GADM-ARG,1.27E-15,1.27E-15,2.39E-15,2.39E-15,1.11E-15,1.11E-15,1.11E-15,1.11E-15,1.11E-15,1.11E-15,1.11E-15,1.11E-15,1.11E-15,1.11E-15,1.11E-15,1.11E-15,1.11E-15,3.15E-16,3.15E-16,3.15E-16,3.15E-16,3.15E-16,3.15E-16,3.15E-16,3.15E-16,3.15E-16,3.15E-16,3.15E-16,3.15E-16,3.15E-16,1.7E-15,1.7E-15,1.7E-15,1.7E-15,1.7E-15,1.7E-15,1.7E-15,1.7E-15,1.7E-15,8.24E-16,8.24E-16,8.24E-16,8.24E-16,8.24E-16,8.24E-16,8.24E-16,8.24E-16,8.24E-16,8.24E-16
GADM-ARM,0,0,0,0,0,0,0,0,0,0,0,0,0,0,0,0,0,0,0,0,0,0,0,0,0,0,0,0,0,0,0,0,0,0,0,0,0,0,0,0,0,0,0,0,0,0,0,0,0
GADM-AUS,2.12E-14,2.12E-14,3.99E-14,3.99E-14,6.09E-14,6.09E-14,6.09E-14,6.09E-14,6.09E-14,6.09E-14,6.09E-14,6.09E-14,6.09E-14,6.09E-14,6.09E-14,6.09E-14,6.09E-14,8.41E-15,8.41E-15,8.41E-15,8.41E-15,8.41E-15,8.41E-15,8.41E-15,8.41E-15,8.41E-15,8.41E-15,8.41E-15,8.41E-15,8.41E-15,9.34E-14,9.34E-14,9.34E-14,9.34E-14,9.34E-14,9.34E-14,9.34E-14,9.34E-14,9.34E-14,4.52E-14,4.52E-14,4.52E-14,4.52E-14,4.52E-14,4.52E-14,4.52E-14,4.52E-14,4.52E-14,4.52E-14
GADM-AUT,3.86E-15,3.86E-15,7.27E-15,7.27E-15,1.28E-15,1.28E-15,1.28E-15,1.28E-15,1.28E-15,1.28E-15,1.28E-15,1.28E-15,1.28E-15,1.28E-15,1.28E-15,1.28E-15,1.28E-15,2.78E-15,2.78E-15,2.78E-15,2.78E-15,2.78E-15,2.78E-15,2.78E-15,2.78E-15,2.78E-15,2.78E-15,2.78E-15,2.78E-15,2.78E-15,1.96E-15,1.96E-15,1.96E-15,1.96E-15,1.96E-15,1.96E-15,1.96E-15,1.96E-15,1.96E-15,9.5E-16,9.5E-16,9.5E-16,9.5E-16,9.5E-16,9.5E-16,9.5E-16,9.5E-16,9.5E-16,9.5E-16
GADM-AZE,2.58E-14,2.58E-14,4.86E-14,4.86E-14,3.38E-14,3.38E-14,3.38E-14,3.38E-14,3.38E-14,3.38E-14,3.38E-14,3.38E-14,3.38E-14,3.38E-14,3.38E-14,3.38E-14,3.38E-14,4.72E-14,4.72E-14,4.72E-14,4.72E-14,4.72E-14,4.72E-14,4.72E-14,4.72E-14,4.72E-14,4.72E-14,4.72E-14,4.72E-14,4.72E-14,5.18E-14,5.18E-14,5.18E-14,5.18E-14,5.18E-14,5.18E-14,5.18E-14,5.18E-14,5.18E-14,2.51E-14,2.51E-14,2.51E-14,2.51E-14,2.51E-14,2.51E-14,2.51E-14,2.51E-14,2.51E-14,2.51E-14
GADM-PRT.2_1,0,0,0,0,0,0,0,0,0,0,0,0,0,0,0,0,0,0,0,0,0,0,0,0,0,0,0,0,0,0,0,0,0,0,0,0,0,0,0,0,0,0,0,0,0,0,0,0,0
GADM-BHS,0,0,0,0,0,0,0,0,0,0,0,0,0,0,0,0,0,0,0,0,0,0,0,0,0,0,0,0,0,0,0,0,0,0,0,0,0,0,0,0,0,0,0,0,0,0,0,0,0
GADM-BGD,5.39E-17,5.39E-17,1.01E-16,1.01E-16,2.46E-17,2.46E-17,2.46E-17,2.46E-17,2.46E-17,2.46E-17,2.46E-17,2.46E-17,2.46E-17,2.46E-17,2.46E-17,2.46E-17,2.46E-17,5.32E-17,5.32E-17,5.32E-17,5.32E-17,5.32E-17,5.32E-17,5.32E-17,5.32E-17,5.32E-17,5.32E-17,5.32E-17,5.32E-17,5.32E-17,3.77E-17,3.77E-17,3.77E-17,3.77E-17,3.77E-17,3.77E-17,3.77E-17,3.77E-17,3.77E-17,1.83E-17,1.83E-17,1.83E-17,1.83E-17,1.83E-17,1.83E-17,1.83E-17,1.83E-17,1.83E-17,1.83E-17
GADM-BLR,0,0,0,0,4.14E-18,4.14E-18,4.14E-18,4.14E-18,4.14E-18,4.14E-18,4.14E-18,4.14E-18,4.14E-18,4.14E-18,4.14E-18,4.14E-18,4.14E-18,6.9E-18,6.9E-18,6.9E-18,6.9E-18,6.9E-18,6.9E-18,6.9E-18,6.9E-18,6.9E-18,6.9E-18,6.9E-18,6.9E-18,6.9E-18,6.35E-18,6.35E-18,6.35E-18,6.35E-18,6.35E-18,6.35E-18,6.35E-18,6.35E-18,6.35E-18,3.07E-18,3.07E-18,3.07E-18,3.07E-18,3.07E-18,3.07E-18,3.07E-18,3.07E-18,3.07E-18,3.07E-18
GADM-BEL,4.21E-17,4.21E-17,7.92E-17,7.92E-17,3.19E-17,3.19E-17,3.19E-17,3.19E-17,3.19E-17,3.19E-17,3.19E-17,3.19E-17,3.19E-17,3.19E-17,3.19E-17,3.19E-17,3.19E-17,3.51E-17,3.51E-17,3.51E-17,3.51E-17,3.51E-17,3.51E-17,3.51E-17,3.51E-17,3.51E-17,3.51E-17,3.51E-17,3.51E-17,3.51E-17,4.89E-17,4.89E-17,4.89E-17,4.89E-17,4.89E-17,4.89E-17,4.89E-17,4.89E-17,4.89E-17,2.37E-17,2.37E-17,2.37E-17,2.37E-17,2.37E-17,2.37E-17,2.37E-17,2.37E-17,2.37E-17,2.37E-17
GADM-BLZ,0,0,0,0,0,0,0,0,0,0,0,0,0,0,0,0,0,0,0,0,0,0,0,0,0,0,0,0,0,0,0,0,0,0,0,0,0,0,0,0,0,0,0,0,0,0,0,0,0
GADM-BEN,0,0,0,0,0,0,0,0,0,0,0,0,0,0,0,0,0,0,0,0,0,0,0,0,0,0,0,0,0,0,0,0,0,0,0,0,0,0,0,0,0,0,0,0,0,0,0,0,0
GADM-BTN,0,0,0,0,0,0,0,0,0,0,0,0,0,0,0,0,0,0,0,0,0,0,0,0,0,0,0,0,0,0,0,0,0,0,0,0,0,0,0,0,0,0,0,0,0,0,0,0,0
GADM-BOL,3.99E-12,3.99E-12,7.51E-12,7.51E-12,1.07E-13,1.07E-13,1.07E-13,1.07E-13,1.07E-13,1.07E-13,1.07E-13,1.07E-13,1.07E-13,1.07E-13,1.07E-13,1.07E-13,1.07E-13,1.54E-13,1.54E-13,1.54E-13,1.54E-13,1.54E-13,1.54E-13,1.54E-13,1.54E-13,1.54E-13,1.54E-13,1.54E-13,1.54E-13,1.54E-13,1.64E-13,1.64E-13,1.64E-13,1.64E-13,1.64E-13,1.64E-13,1.64E-13,1.64E-13,1.64E-13,7.94E-14,7.94E-14,7.94E-14,7.94E-14,7.94E-14,7.94E-14,7.94E-14,7.94E-14,7.94E-14,7.94E-14
GADM-BIH,7.73E-15,7.73E-15,1.46E-14,1.46E-14,1.36E-14,1.36E-14,1.36E-14,1.36E-14,1.36E-14,1.36E-14,1.36E-14,1.36E-14,1.36E-14,1.36E-14,1.36E-14,1.36E-14,1.36E-14,3.93E-14,3.93E-14,3.93E-14,3.93E-14,3.93E-14,3.93E-14,3.93E-14,3.93E-14,3.93E-14,3.93E-14,3.93E-14,3.93E-14,3.93E-14,2.09E-14,2.09E-14,2.09E-14,2.09E-14,2.09E-14,2.09E-14,2.09E-14,2.09E-14,2.09E-14,1.01E-14,1.01E-14,1.01E-14,1.01E-14,1.01E-14,1.01E-14,1.01E-14,1.01E-14,1.01E-14,1.01E-14
GADM-BWA,4.57E-16,4.57E-16,8.6E-16,8.6E-16,1.33E-15,1.33E-15,1.33E-15,1.33E-15,1.33E-15,1.33E-15,1.33E-15,1.33E-15,1.33E-15,1.33E-15,1.33E-15,1.33E-15,1.33E-15,1.02E-15,1.02E-15,1.02E-15,1.02E-15,1.02E-15,1.02E-15,1.02E-15,1.02E-15,1.02E-15,1.02E-15,1.02E-15,1.02E-15,1.02E-15,2.04E-15,2.04E-15,2.04E-15,2.04E-15,2.04E-15,2.04E-15,2.04E-15,2.04E-15,2.04E-15,9.87E-16,9.87E-16,9.87E-16,9.87E-16,9.87E-16,9.87E-16,9.87E-16,9.87E-16,9.87E-16,9.87E-16
GADM-BRA,5.54E-15,5.54E-15,1.04E-14,1.04E-14,3.3E-15,3.3E-15,3.3E-15,3.3E-15,3.3E-15,3.3E-15,3.3E-15,3.3E-15,3.3E-15,3.3E-15,3.3E-15,3.3E-15,3.3E-15,7.27E-15,7.27E-15,7.27E-15,7.27E-15,7.27E-15,7.27E-15,7.27E-15,7.27E-15,7.27E-15,7.27E-15,7.27E-15,7.27E-15,7.27E-15,5.06E-15,5.06E-15,5.06E-15,5.06E-15,5.06E-15,5.06E-15,5.06E-15,5.06E-15,5.06E-15,2.45E-15,2.45E-15,2.45E-15,2.45E-15,2.45E-15,2.45E-15,2.45E-15,2.45E-15,2.45E-15,2.45E-15
GADM-BRN,0,0,0,0,0,0,0,0,0,0,0,0,0,0,0,0,0,0,0,0,0,0,0,0,0,0,0,0,0,0,0,0,0,0,0,0,0,0,0,0,0,0,0,0,0,0,0,0,0
GADM-BGR,4.55E-15,4.55E-15,8.56E-15,8.56E-15,9.14E-15,9.14E-15,9.14E-15,9.14E-15,9.14E-15,9.14E-15,9.14E-15,9.14E-15,9.14E-15,9.14E-15,9.14E-15,9.14E-15,9.14E-15,1.08E-14,1.08E-14,1.08E-14,1.08E-14,1.08E-14,1.08E-14,1.08E-14,1.08E-14,1.08E-14,1.08E-14,1.08E-14,1.08E-14,1.08E-14,1.4E-14,1.4E-14,1.4E-14,1.4E-14,1.4E-14,1.4E-14,1.4E-14,1.4E-14,1.4E-14,6.78E-15,6.78E-15,6.78E-15,6.78E-15,6.78E-15,6.78E-15,6.78E-15,6.78E-15,6.78E-15,6.78E-15
GADM-BFA,0,0,0,0,0,0,0,0,0,0,0,0,0,0,0,0,0,6.09E-18,6.09E-18,6.09E-18,6.09E-18,6.09E-18,6.09E-18,6.09E-18,6.09E-18,6.09E-18,6.09E-18,6.09E-18,6.09E-18,6.09E-18,0,0,0,0,0,0,0,0,0,0,0,0,0,0,0,0,0,0,0
GADM-BDI,0,0,0,0,0,0,0,0,0,0,0,0,0,0,0,0,0,0,0,0,0,0,0,0,0,0,0,0,0,0,0,0,0,0,0,0,0,0,0,0,0,0,0,0,0,0,0,0,0
GADM-KHM,4.81E-16,4.81E-16,9.05E-16,9.05E-16,1.63E-16,1.63E-16,1.63E-16,1.63E-16,1.63E-16,1.63E-16,1.63E-16,1.63E-16,1.63E-16,1.63E-16,1.63E-16,1.63E-16,1.63E-16,5.62E-16,5.62E-16,5.62E-16,5.62E-16,5.62E-16,5.62E-16,5.62E-16,5.62E-16,5.62E-16,5.62E-16,5.62E-16,5.62E-16,5.62E-16,2.5E-16,2.5E-16,2.5E-16,2.5E-16,2.5E-16,2.5E-16,2.5E-16,2.5E-16,2.5E-16,1.21E-16,1.21E-16,1.21E-16,1.21E-16,1.21E-16,1.21E-16,1.21E-16,1.21E-16,1.21E-16,1.21E-16
GADM-CMR,2.98E-16,2.98E-16,5.61E-16,5.61E-16,1.69E-16,1.69E-16,1.69E-16,1.69E-16,1.69E-16,1.69E-16,1.69E-16,1.69E-16,1.69E-16,1.69E-16,1.69E-16,1.69E-16,1.69E-16,1.69E-16,1.69E-16,1.69E-16,1.69E-16,1.69E-16,1.69E-16,1.69E-16,1.69E-16,1.69E-16,1.69E-16,1.69E-16,1.69E-16,1.69E-16,2.59E-16,2.59E-16,2.59E-16,2.59E-16,2.59E-16,2.59E-16,2.59E-16,2.59E-16,2.59E-16,1.25E-16,1.25E-16,1.25E-16,1.25E-16,1.25E-16,1.25E-16,1.25E-16,1.25E-16,1.25E-16,1.25E-16
GADM-CAN,2.28E-16,2.28E-16,4.29E-16,4.29E-16,3.77E-17,3.77E-17,3.77E-17,3.77E-17,3.77E-17,3.77E-17,3.77E-17,3.77E-17,3.77E-17,3.77E-17,3.77E-17,3.77E-17,3.77E-17,3.02E-17,3.02E-17,3.02E-17,3.02E-17,3.02E-17,3.02E-17,3.02E-17,3.02E-17,3.02E-17,3.02E-17,3.02E-17,3.02E-17,3.02E-17,5.78E-17,5.78E-17,5.78E-17,5.78E-17,5.78E-17,5.78E-17,5.78E-17,5.78E-17,5.78E-17,2.8E-17,2.8E-17,2.8E-17,2.8E-17,2.8E-17,2.8E-17,2.8E-17,2.8E-17,2.8E-17,2.8E-17
GADM-ESP.14_1,0,0,0,0,0,0,0,0,0,0,0,0,0,0,0,0,0,0,0,0,0,0,0,0,0,0,0,0,0,0,0,0,0,0,0,0,0,0,0,0,0,0,0,0,0,0,0,0,0
GADM-CYM,0,0,0,0,0,0,0,0,0,0,0,0,0,0,0,0,0,0,0,0,0,0,0,0,0,0,0,0,0,0,0,0,0,0,0,0,0,0,0,0,0,0,0,0,0,0,0,0,0
GADM-CAF,0,0,0,0,1.26E-16,1.26E-16,1.26E-16,1.26E-16,1.26E-16,1.26E-16,1.26E-16,1.26E-16,1.26E-16,1.26E-16,1.26E-16,1.26E-16,1.26E-16,9.69E-17,9.69E-17,9.69E-17,9.69E-17,9.69E-17,9.69E-17,9.69E-17,9.69E-17,9.69E-17,9.69E-17,9.69E-17,9.69E-17,9.69E-17,1.93E-16,1.93E-16,1.93E-16,1.93E-16,1.93E-16,1.93E-16,1.93E-16,1.93E-16,1.93E-16,9.35E-17,9.35E-17,9.35E-17,9.35E-17,9.35E-17,9.35E-17,9.35E-17,9.35E-17,9.35E-17,9.35E-17
GADM-TCD,0,0,0,0,0,0,0,0,0,0,0,0,0,0,0,0,0,6.34E-18,6.34E-18,6.34E-18,6.34E-18,6.34E-18,6.34E-18,6.34E-18,6.34E-18,6.34E-18,6.34E-18,6.34E-18,6.34E-18,6.34E-18,0,0,0,0,0,0,0,0,0,0,0,0,0,0,0,0,0,0,0
GADM-CHL,6.66E-14,6.66E-14,1.25E-13,1.25E-13,9.48E-15,9.48E-15,9.48E-15,9.48E-15,9.48E-15,9.48E-15,9.48E-15,9.48E-15,9.48E-15,9.48E-15,9.48E-15,9.48E-15,9.48E-15,2.94E-14,2.94E-14,2.94E-14,2.94E-14,2.94E-14,2.94E-14,2.94E-14,2.94E-14,2.94E-14,2.94E-14,2.94E-14,2.94E-14,2.94E-14,1.45E-14,1.45E-14,1.45E-14,1.45E-14,1.45E-14,1.45E-14,1.45E-14,1.45E-14,1.45E-14,7.03E-15,7.03E-15,7.03E-15,7.03E-15,7.03E-15,7.03E-15,7.03E-15,7.03E-15,7.03E-15,7.03E-15
GADM-CHN,5.04E-16,5.04E-16,9.49E-16,9.49E-16,6.75E-16,6.75E-16,6.75E-16,6.75E-16,6.75E-16,6.75E-16,6.75E-16,6.75E-16,6.75E-16,6.75E-16,6.75E-16,6.75E-16,6.75E-16,2.32E-15,2.32E-15,2.32E-15,2.32E-15,2.32E-15,2.32E-15,2.32E-15,2.32E-15,2.32E-15,2.32E-15,2.32E-15,2.32E-15,2.32E-15,1.03E-15,1.03E-15,1.03E-15,1.03E-15,1.03E-15,1.03E-15,1.03E-15,1.03E-15,1.03E-15,5.01E-16,5.01E-16,5.01E-16,5.01E-16,5.01E-16,5.01E-16,5.01E-16,5.01E-16,5.01E-16,5.01E-16
GADM-COL,5.48E-12,5.48E-12,1.03E-11,1.03E-11,3.25E-13,3.25E-13,3.25E-13,3.25E-13,3.25E-13,3.25E-13,3.25E-13,3.25E-13,3.25E-13,3.25E-13,3.25E-13,3.25E-13,3.25E-13,9.8E-14,9.8E-14,9.8E-14,9.8E-14,9.8E-14,9.8E-14,9.8E-14,9.8E-14,9.8E-14,9.8E-14,9.8E-14,9.8E-14,9.8E-14,4.98E-13,4.98E-13,4.98E-13,4.98E-13,4.98E-13,4.98E-13,4.98E-13,4.98E-13,4.98E-13,2.41E-13,2.41E-13,2.41E-13,2.41E-13,2.41E-13,2.41E-13,2.41E-13,2.41E-13,2.41E-13,2.41E-13
GADM-COM,0,0,0,0,0,0,0,0,0,0,0,0,0,0,0,0,0,0,0,0,0,0,0,0,0,0,0,0,0,0,0,0,0,0,0,0,0,0,0,0,0,0,0,0,0,0,0,0,0
GADM-COG,1.91E-15,1.91E-15,3.6E-15,3.6E-15,1.41E-15,1.41E-15,1.41E-15,1.41E-15,1.41E-15,1.41E-15,1.41E-15,1.41E-15,1.41E-15,1.41E-15,1.41E-15,1.41E-15,1.41E-15,1.54E-15,1.54E-15,1.54E-15,1.54E-15,1.54E-15,1.54E-15,1.54E-15,1.54E-15,1.54E-15,1.54E-15,1.54E-15,1.54E-15,1.54E-15,2.16E-15,2.16E-15,2.16E-15,2.16E-15,2.16E-15,2.16E-15,2.16E-15,2.16E-15,2.16E-15,1.05E-15,1.05E-15,1.05E-15,1.05E-15,1.05E-15,1.05E-15,1.05E-15,1.05E-15,1.05E-15,1.05E-15
GADM-CRI,5.42E-15,5.42E-15,1.02E-14,1.02E-14,1.54E-14,1.54E-14,1.54E-14,1.54E-14,1.54E-14,1.54E-14,1.54E-14,1.54E-14,1.54E-14,1.54E-14,1.54E-14,1.54E-14,1.54E-14,2.79E-14,2.79E-14,2.79E-14,2.79E-14,2.79E-14,2.79E-14,2.79E-14,2.79E-14,2.79E-14,2.79E-14,2.79E-14,2.79E-14,2.79E-14,2.36E-14,2.36E-14,2.36E-14,2.36E-14,2.36E-14,2.36E-14,2.36E-14,2.36E-14,2.36E-14,1.14E-14,1.14E-14,1.14E-14,1.14E-14,1.14E-14,1.14E-14,1.14E-14,1.14E-14,1.14E-14,1.14E-14
GADM-CIV,1.54E-16,1.54E-16,2.9E-16,2.9E-16,8.63E-17,8.63E-17,8.63E-17,8.63E-17,8.63E-17,8.63E-17,8.63E-17,8.63E-17,8.63E-17,8.63E-17,8.63E-17,8.63E-17,8.63E-17,5.52E-17,5.52E-17,5.52E-17,5.52E-17,5.52E-17,5.52E-17,5.52E-17,5.52E-17,5.52E-17,5.52E-17,5.52E-17,5.52E-17,5.52E-17,1.32E-16,1.32E-16,1.32E-16,1.32E-16,1.32E-16,1.32E-16,1.32E-16,1.32E-16,1.32E-16,6.4E-17,6.4E-17,6.4E-17,6.4E-17,6.4E-17,6.4E-17,6.4E-17,6.4E-17,6.4E-17,6.4E-17
GADM-HRV,7.8E-17,7.8E-17,1.47E-16,1.47E-16,9.06E-17,9.06E-17,9.06E-17,9.06E-17,9.06E-17,9.06E-17,9.06E-17,9.06E-17,9.06E-17,9.06E-17,9.06E-17,9.06E-17,9.06E-17,1.41E-16,1.41E-16,1.41E-16,1.41E-16,1.41E-16,1.41E-16,1.41E-16,1.41E-16,1.41E-16,1.41E-16,1.41E-16,1.41E-16,1.41E-16,1.39E-16,1.39E-16,1.39E-16,1.39E-16,1.39E-16,1.39E-16,1.39E-16,1.39E-16,1.39E-16,6.72E-17,6.72E-17,6.72E-17,6.72E-17,6.72E-17,6.72E-17,6.72E-17,6.72E-17,6.72E-17,6.72E-17
GADM-CUB,4.14E-12,4.14E-12,7.79E-12,7.79E-12,3.58E-13,3.58E-13,3.58E-13,3.58E-13,3.58E-13,3.58E-13,3.58E-13,3.58E-13,3.58E-13,3.58E-13,3.58E-13,3.58E-13,3.58E-13,2.76E-13,2.76E-13,2.76E-13,2.76E-13,2.76E-13,2.76E-13,2.76E-13,2.76E-13,2.76E-13,2.76E-13,2.76E-13,2.76E-13,2.76E-13,5.49E-13,5.49E-13,5.49E-13,5.49E-13,5.49E-13,5.49E-13,5.49E-13,5.49E-13,5.49E-13,2.66E-13,2.66E-13,2.66E-13,2.66E-13,2.66E-13,2.66E-13,2.66E-13,2.66E-13,2.66E-13,2.66E-13
GADM-CYP,0,0,0,0,0,0,0,0,0,0,0,0,0,0,0,0,0,0,0,0,0,0,0,0,0,0,0,0,0,0,0,0,0,0,0,0,0,0,0,0,0,0,0,0,0,0,0,0,0
GADM-CZE,4.24E-17,4.24E-17,7.98E-17,7.98E-17,1.73E-17,1.73E-17,1.73E-17,1.73E-17,1.73E-17,1.73E-17,1.73E-17,1.73E-17,1.73E-17,1.73E-17,1.73E-17,1.73E-17,1.73E-17,1.52E-17,1.52E-17,1.52E-17,1.52E-17,1.52E-17,1.52E-17,1.52E-17,1.52E-17,1.52E-17,1.52E-17,1.52E-17,1.52E-17,1.52E-17,2.65E-17,2.65E-17,2.65E-17,2.65E-17,2.65E-17,2.65E-17,2.65E-17,2.65E-17,2.65E-17,1.28E-17,1.28E-17,1.28E-17,1.28E-17,1.28E-17,1.28E-17,1.28E-17,1.28E-17,1.28E-17,1.28E-17
GADM-PRK,1.44E-16,1.44E-16,2.71E-16,2.71E-16,9.88E-17,9.88E-17,9.88E-17,9.88E-17,9.88E-17,9.88E-17,9.88E-17,9.88E-17,9.88E-17,9.88E-17,9.88E-17,9.88E-17,9.88E-17,2.13E-16,2.13E-16,2.13E-16,2.13E-16,2.13E-16,2.13E-16,2.13E-16,2.13E-16,2.13E-16,2.13E-16,2.13E-16,2.13E-16,2.13E-16,1.51E-16,1.51E-16,1.51E-16,1.51E-16,1.51E-16,1.51E-16,1.51E-16,1.51E-16,1.51E-16,7.33E-17,7.33E-17,7.33E-17,7.33E-17,7.33E-17,7.33E-17,7.33E-17,7.33E-17,7.33E-17,7.33E-17
GADM-COD,2.86E-16,2.86E-16,5.38E-16,5.38E-16,2.25E-16,2.25E-16,2.25E-16,2.25E-16,2.25E-16,2.25E-16,2.25E-16,2.25E-16,2.25E-16,2.25E-16,2.25E-16,2.25E-16,2.25E-16,3.03E-16,3.03E-16,3.03E-16,3.03E-16,3.03E-16,3.03E-16,3.03E-16,3.03E-16,3.03E-16,3.03E-16,3.03E-16,3.03E-16,3.03E-16,3.45E-16,3.45E-16,3.45E-16,3.45E-16,3.45E-16,3.45E-16,3.45E-16,3.45E-16,3.45E-16,1.67E-16,1.67E-16,1.67E-16,1.67E-16,1.67E-16,1.67E-16,1.67E-16,1.67E-16,1.67E-16,1.67E-16
GADM-DNK,0,0,0,0,9.77E-18,9.77E-18,9.77E-18,9.77E-18,9.77E-18,9.77E-18,9.77E-18,9.77E-18,9.77E-18,9.77E-18,9.77E-18,9.77E-18,9.77E-18,0,0,0,0,0,0,0,0,0,0,0,0,0,1.5E-17,1.5E-17,1.5E-17,1.5E-17,1.5E-17,1.5E-17,1.5E-17,1.5E-17,1.5E-17,7.25E-18,7.25E-18,7.25E-18,7.25E-18,7.25E-18,7.25E-18,7.25E-18,7.25E-18,7.25E-18,7.25E-18
GADM-DJI,0,0,0,0,0,0,0,0,0,0,0,0,0,0,0,0,0,0,0,0,0,0,0,0,0,0,0,0,0,0,0,0,0,0,0,0,0,0,0,0,0,0,0,0,0,0,0,0,0
GADM-DOM,0,0,0,0,0,0,0,0,0,0,0,0,0,0,0,0,0,0,0,0,0,0,0,0,0,0,0,0,0,0,0,0,0,0,0,0,0,0,0,0,0,0,0,0,0,0,0,0,0
GADM-ECU,6.66E-14,6.66E-14,1.25E-13,1.25E-13,1.76E-14,1.76E-14,1.76E-14,1.76E-14,1.76E-14,1.76E-14,1.76E-14,1.76E-14,1.76E-14,1.76E-14,1.76E-14,1.76E-14,1.76E-14,7.44E-14,7.44E-14,7.44E-14,7.44E-14,7.44E-14,7.44E-14,7.44E-14,7.44E-14,7.44E-14,7.44E-14,7.44E-14,7.44E-14,7.44E-14,2.7E-14,2.7E-14,2.7E-14,2.7E-14,2.7E-14,2.7E-14,2.7E-14,2.7E-14,2.7E-14,1.31E-14,1.31E-14,1.31E-14,1.31E-14,1.31E-14,1.31E-14,1.31E-14,1.31E-14,1.31E-14,1.31E-14
GADM-EGY,1.05E-15,1.05E-15,1.98E-15,1.98E-15,2.24E-15,2.24E-15,2.24E-15,2.24E-15,2.24E-15,2.24E-15,2.24E-15,2.24E-15,2.24E-15,2.24E-15,2.24E-15,2.24E-15,2.24E-15,4.07E-16,4.07E-16,4.07E-16,4.07E-16,4.07E-16,4.07E-16,4.07E-16,4.07E-16,4.07E-16,4.07E-16,4.07E-16,4.07E-16,4.07E-16,3.43E-15,3.43E-15,3.43E-15,3.43E-15,3.43E-15,3.43E-15,3.43E-15,3.43E-15,3.43E-15,1.66E-15,1.66E-15,1.66E-15,1.66E-15,1.66E-15,1.66E-15,1.66E-15,1.66E-15,1.66E-15,1.66E-15
GADM-SLV,0,0,0,0,0,0,0,0,0,0,0,0,0,0,0,0,0,0,0,0,0,0,0,0,0,0,0,0,0,0,0,0,0,0,0,0,0,0,0,0,0,0,0,0,0,0,0,0,0
GADM-GNQ,0,0,0,0,0,0,0,0,0,0,0,0,0,0,0,0,0,0,0,0,0,0,0,0,0,0,0,0,0,0,0,0,0,0,0,0,0,0,0,0,0,0,0,0,0,0,0,0,0
GADM-ERI,6.69E-16,6.69E-16,1.26E-15,1.26E-15,4.44E-16,4.44E-16,4.44E-16,4.44E-16,4.44E-16,4.44E-16,4.44E-16,4.44E-16,4.44E-16,4.44E-16,4.44E-16,4.44E-16,4.44E-16,2.51E-16,2.51E-16,2.51E-16,2.51E-16,2.51E-16,2.51E-16,2.51E-16,2.51E-16,2.51E-16,2.51E-16,2.51E-16,2.51E-16,2.51E-16,6.81E-16,6.81E-16,6.81E-16,6.81E-16,6.81E-16,6.81E-16,6.81E-16,6.81E-16,6.81E-16,3.29E-16,3.29E-16,3.29E-16,3.29E-16,3.29E-16,3.29E-16,3.29E-16,3.29E-16,3.29E-16,3.29E-16
GADM-EST,0,0,0,0,0,0,0,0,0,0,0,0,0,0,0,0,0,0,0,0,0,0,0,0,0,0,0,0,0,0,0,0,0,0,0,0,0,0,0,0,0,0,0,0,0,0,0,0,0
GADM-ETH,1.19E-15,1.19E-15,2.24E-15,2.24E-15,9.14E-16,9.14E-16,9.14E-16,9.14E-16,9.14E-16,9.14E-16,9.14E-16,9.14E-16,9.14E-16,9.14E-16,9.14E-16,9.14E-16,9.14E-16,8.58E-16,8.58E-16,8.58E-16,8.58E-16,8.58E-16,8.58E-16,8.58E-16,8.58E-16,8.58E-16,8.58E-16,8.58E-16,8.58E-16,8.58E-16,1.4E-15,1.4E-15,1.4E-15,1.4E-15,1.4E-15,1.4E-15,1.4E-15,1.4E-15,1.4E-15,6.78E-16,6.78E-16,6.78E-16,6.78E-16,6.78E-16,6.78E-16,6.78E-16,6.78E-16,6.78E-16,6.78E-16
GADM-FLK,0,0,0,0,0,0,0,0,0,0,0,0,0,0,0,0,0,0,0,0,0,0,0,0,0,0,0,0,0,0,0,0,0,0,0,0,0,0,0,0,0,0,0,0,0,0,0,0,0
GADM-FIN,0,0,0,0,0,0,0,0,0,0,0,0,0,0,0,0,0,0,0,0,0,0,0,0,0,0,0,0,0,0,0,0,0,0,0,0,0,0,0,0,0,0,0,0,0,0,0,0,0
GADM-FRA,5.04E-16,5.04E-16,9.49E-16,9.49E-16,4.19E-16,4.19E-16,4.19E-16,4.19E-16,4.19E-16,4.19E-16,4.19E-16,4.19E-16,4.19E-16,4.19E-16,4.19E-16,4.19E-16,4.19E-16,4.92E-16,4.92E-16,4.92E-16,4.92E-16,4.92E-16,4.92E-16,4.92E-16,4.92E-16,4.92E-16,4.92E-16,4.92E-16,4.92E-16,4.92E-16,6.42E-16,6.42E-16,6.42E-16,6.42E-16,6.42E-16,6.42E-16,6.42E-16,6.42E-16,6.42E-16,3.11E-16,3.11E-16,3.11E-16,3.11E-16,3.11E-16,3.11E-16,3.11E-16,3.11E-16,3.11E-16,3.11E-16
GADM-GUF,0,0,0,0,0,0,0,0,0,0,0,0,0,0,0,0,0,0,0,0,0,0,0,0,0,0,0,0,0,0,0,0,0,0,0,0,0,0,0,0,0,0,0,0,0,0,0,0,0
GADM-GAB,5.53E-16,5.53E-16,1.04E-15,1.04E-15,5.37E-16,5.37E-16,5.37E-16,5.37E-16,5.37E-16,5.37E-16,5.37E-16,5.37E-16,5.37E-16,5.37E-16,5.37E-16,5.37E-16,5.37E-16,6.25E-16,6.25E-16,6.25E-16,6.25E-16,6.25E-16,6.25E-16,6.25E-16,6.25E-16,6.25E-16,6.25E-16,6.25E-16,6.25E-16,6.25E-16,8.23E-16,8.23E-16,8.23E-16,8.23E-16,8.23E-16,8.23E-16,8.23E-16,8.23E-16,8.23E-16,3.98E-16,3.98E-16,3.98E-16,3.98E-16,3.98E-16,3.98E-16,3.98E-16,3.98E-16,3.98E-16,3.98E-16
GADM-GMB,2.17E-13,2.17E-13,4.08E-13,4.08E-13,5.08E-14,5.08E-14,5.08E-14,5.08E-14,5.08E-14,5.08E-14,5.08E-14,5.08E-14,5.08E-14,5.08E-14,5.08E-14,5.08E-14,5.08E-14,3.16E-14,3.16E-14,3.16E-14,3.16E-14,3.16E-14,3.16E-14,3.16E-14,3.16E-14,3.16E-14,3.16E-14,3.16E-14,3.16E-14,3.16E-14,7.79E-14,7.79E-14,7.79E-14,7.79E-14,7.79E-14,7.79E-14,7.79E-14,7.79E-14,7.79E-14,3.77E-14,3.77E-14,3.77E-14,3.77E-14,3.77E-14,3.77E-14,3.77E-14,3.77E-14,3.77E-14,3.77E-14
GADM-GEO,2.49E-15,2.49E-15,4.69E-15,4.69E-15,4E-15,4E-15,4E-15,4E-15,4E-15,4E-15,4E-15,4E-15,4E-15,4E-15,4E-15,4E-15,4E-15,3.03E-15,3.03E-15,3.03E-15,3.03E-15,3.03E-15,3.03E-15,3.03E-15,3.03E-15,3.03E-15,3.03E-15,3.03E-15,3.03E-15,3.03E-15,6.13E-15,6.13E-15,6.13E-15,6.13E-15,6.13E-15,6.13E-15,6.13E-15,6.13E-15,6.13E-15,2.97E-15,2.97E-15,2.97E-15,2.97E-15,2.97E-15,2.97E-15,2.97E-15,2.97E-15,2.97E-15,2.97E-15
GADM-DEU,3.57E-16,3.57E-16,6.72E-16,6.72E-16,2.3E-16,2.3E-16,2.3E-16,2.3E-16,2.3E-16,2.3E-16,2.3E-16,2.3E-16,2.3E-16,2.3E-16,2.3E-16,2.3E-16,2.3E-16,5.39E-16,5.39E-16,5.39E-16,5.39E-16,5.39E-16,5.39E-16,5.39E-16,5.39E-16,5.39E-16,5.39E-16,5.39E-16,5.39E-16,5.39E-16,3.53E-16,3.53E-16,3.53E-16,3.53E-16,3.53E-16,3.53E-16,3.53E-16,3.53E-16,3.53E-16,1.71E-16,1.71E-16,1.71E-16,1.71E-16,1.71E-16,1.71E-16,1.71E-16,1.71E-16,1.71E-16,1.71E-16
GADM-GHA,4.52E-17,4.52E-17,8.51E-17,8.51E-17,3.71E-17,3.71E-17,3.71E-17,3.71E-17,3.71E-17,3.71E-17,3.71E-17,3.71E-17,3.71E-17,3.71E-17,3.71E-17,3.71E-17,3.71E-17,3.13E-17,3.13E-17,3.13E-17,3.13E-17,3.13E-17,3.13E-17,3.13E-17,3.13E-17,3.13E-17,3.13E-17,3.13E-17,3.13E-17,3.13E-17,5.69E-17,5.69E-17,5.69E-17,5.69E-17,5.69E-17,5.69E-17,5.69E-17,5.69E-17,5.69E-17,2.75E-17,2.75E-17,2.75E-17,2.75E-17,2.75E-17,2.75E-17,2.75E-17,2.75E-17,2.75E-17,2.75E-17
GADM-GRC,2.25E-14,2.25E-14,4.24E-14,4.24E-14,4.1E-14,4.1E-14,4.1E-14,4.1E-14,4.1E-14,4.1E-14,4.1E-14,4.1E-14,4.1E-14,4.1E-14,4.1E-14,4.1E-14,4.1E-14,5.58E-14,5.58E-14,5.58E-14,5.58E-14,5.58E-14,5.58E-14,5.58E-14,5.58E-14,5.58E-14,5.58E-14,5.58E-14,5.58E-14,5.58E-14,6.29E-14,6.29E-14,6.29E-14,6.29E-14,6.29E-14,6.29E-14,6.29E-14,6.29E-14,6.29E-14,3.04E-14,3.04E-14,3.04E-14,3.04E-14,3.04E-14,3.04E-14,3.04E-14,3.04E-14,3.04E-14,3.04E-14
GADM-GLP,0,0,0,0,0,0,0,0,0,0,0,0,0,0,0,0,0,0,0,0,0,0,0,0,0,0,0,0,0,0,0,0,0,0,0,0,0,0,0,0,0,0,0,0,0,0,0,0,0
GADM-GTM,2.75E-14,2.75E-14,5.18E-14,5.18E-14,6.05E-15,6.05E-15,6.05E-15,6.05E-15,6.05E-15,6.05E-15,6.05E-15,6.05E-15,6.05E-15,6.05E-15,6.05E-15,6.05E-15,6.05E-15,1.15E-14,1.15E-14,1.15E-14,1.15E-14,1.15E-14,1.15E-14,1.15E-14,1.15E-14,1.15E-14,1.15E-14,1.15E-14,1.15E-14,1.15E-14,9.28E-15,9.28E-15,9.28E-15,9.28E-15,9.28E-15,9.28E-15,9.28E-15,9.28E-15,9.28E-15,4.49E-15,4.49E-15,4.49E-15,4.49E-15,4.49E-15,4.49E-15,4.49E-15,4.49E-15,4.49E-15,4.49E-15
GADM-GIN,1.64E-16,1.64E-16,3.09E-16,3.09E-16,6.79E-17,6.79E-17,6.79E-17,6.79E-17,6.79E-17,6.79E-17,6.79E-17,6.79E-17,6.79E-17,6.79E-17,6.79E-17,6.79E-17,6.79E-17,6.04E-17,6.04E-17,6.04E-17,6.04E-17,6.04E-17,6.04E-17,6.04E-17,6.04E-17,6.04E-17,6.04E-17,6.04E-17,6.04E-17,6.04E-17,1.04E-16,1.04E-16,1.04E-16,1.04E-16,1.04E-16,1.04E-16,1.04E-16,1.04E-16,1.04E-16,5.04E-17,5.04E-17,5.04E-17,5.04E-17,5.04E-17,5.04E-17,5.04E-17,5.04E-17,5.04E-17,5.04E-17
GADM-GNB,0,0,0,0,0,0,0,0,0,0,0,0,0,0,0,0,0,0,0,0,0,0,0,0,0,0,0,0,0,0,0,0,0,0,0,0,0,0,0,0,0,0,0,0,0,0,0,0,0
GADM-GUY,0,0,0,0,9.02E-17,9.02E-17,9.02E-17,9.02E-17,9.02E-17,9.02E-17,9.02E-17,9.02E-17,9.02E-17,9.02E-17,9.02E-17,9.02E-17,9.02E-17,4.28E-16,4.28E-16,4.28E-16,4.28E-16,4.28E-16,4.28E-16,4.28E-16,4.28E-16,4.28E-16,4.28E-16,4.28E-16,4.28E-16,4.28E-16,1.38E-16,1.38E-16,1.38E-16,1.38E-16,1.38E-16,1.38E-16,1.38E-16,1.38E-16,1.38E-16,6.69E-17,6.69E-17,6.69E-17,6.69E-17,6.69E-17,6.69E-17,6.69E-17,6.69E-17,6.69E-17,6.69E-17
GADM-HTI,3.2E-13,3.2E-13,6.02E-13,6.02E-13,1.54E-13,1.54E-13,1.54E-13,1.54E-13,1.54E-13,1.54E-13,1.54E-13,1.54E-13,1.54E-13,1.54E-13,1.54E-13,1.54E-13,1.54E-13,1.14E-13,1.14E-13,1.14E-13,1.14E-13,1.14E-13,1.14E-13,1.14E-13,1.14E-13,1.14E-13,1.14E-13,1.14E-13,1.14E-13,1.14E-13,2.36E-13,2.36E-13,2.36E-13,2.36E-13,2.36E-13,2.36E-13,2.36E-13,2.36E-13,2.36E-13,1.14E-13,1.14E-13,1.14E-13,1.14E-13,1.14E-13,1.14E-13,1.14E-13,1.14E-13,1.14E-13,1.14E-13
GADM-HND,5.45E-15,5.45E-15,1.03E-14,1.03E-14,4.16E-16,4.16E-16,4.16E-16,4.16E-16,4.16E-16,4.16E-16,4.16E-16,4.16E-16,4.16E-16,4.16E-16,4.16E-16,4.16E-16,4.16E-16,2.78E-16,2.78E-16,2.78E-16,2.78E-16,2.78E-16,2.78E-16,2.78E-16,2.78E-16,2.78E-16,2.78E-16,2.78E-16,2.78E-16,2.78E-16,6.38E-16,6.38E-16,6.38E-16,6.38E-16,6.38E-16,6.38E-16,6.38E-16,6.38E-16,6.38E-16,3.09E-16,3.09E-16,3.09E-16,3.09E-16,3.09E-16,3.09E-16,3.09E-16,3.09E-16,3.09E-16,3.09E-16
GADM-HUN,3.98E-17,3.98E-17,7.49E-17,7.49E-17,2.17E-17,2.17E-17,2.17E-17,2.17E-17,2.17E-17,2.17E-17,2.17E-17,2.17E-17,2.17E-17,2.17E-17,2.17E-17,2.17E-17,2.17E-17,1.62E-17,1.62E-17,1.62E-17,1.62E-17,1.62E-17,1.62E-17,1.62E-17,1.62E-17,1.62E-17,1.62E-17,1.62E-17,1.62E-17,1.62E-17,3.33E-17,3.33E-17,3.33E-17,3.33E-17,3.33E-17,3.33E-17,3.33E-17,3.33E-17,3.33E-17,1.61E-17,1.61E-17,1.61E-17,1.61E-17,1.61E-17,1.61E-17,1.61E-17,1.61E-17,1.61E-17,1.61E-17
GADM-ISL,0,0,0,0,0,0,0,0,0,0,0,0,0,0,0,0,0,0,0,0,0,0,0,0,0,0,0,0,0,0,0,0,0,0,0,0,0,0,0,0,0,0,0,0,0,0,0,0,0
GADM-IND,6.55E-16,6.55E-16,1.23E-15,1.23E-15,3.21E-16,3.21E-16,3.21E-16,3.21E-16,3.21E-16,3.21E-16,3.21E-16,3.21E-16,3.21E-16,3.21E-16,3.21E-16,3.21E-16,3.21E-16,1.5E-15,1.5E-15,1.5E-15,1.5E-15,1.5E-15,1.5E-15,1.5E-15,1.5E-15,1.5E-15,1.5E-15,1.5E-15,1.5E-15,1.5E-15,4.92E-16,4.92E-16,4.92E-16,4.92E-16,4.92E-16,4.92E-16,4.92E-16,4.92E-16,4.92E-16,2.38E-16,2.38E-16,2.38E-16,2.38E-16,2.38E-16,2.38E-16,2.38E-16,2.38E-16,2.38E-16,2.38E-16
GADM-IDN,8.72E-16,8.72E-16,1.64E-15,1.64E-15,1.03E-15,1.03E-15,1.03E-15,1.03E-15,1.03E-15,1.03E-15,1.03E-15,1.03E-15,1.03E-15,1.03E-15,1.03E-15,1.03E-15,1.03E-15,9.22E-16,9.22E-16,9.22E-16,9.22E-16,9.22E-16,9.22E-16,9.22E-16,9.22E-16,9.22E-16,9.22E-16,9.22E-16,9.22E-16,9.22E-16,1.58E-15,1.58E-15,1.58E-15,1.58E-15,1.58E-15,1.58E-15,1.58E-15,1.58E-15,1.58E-15,7.64E-16,7.64E-16,7.64E-16,7.64E-16,7.64E-16,7.64E-16,7.64E-16,7.64E-16,7.64E-16,7.64E-16
GADM-IRN,9.17E-14,9.17E-14,1.73E-13,1.73E-13,2.16E-14,2.16E-14,2.16E-14,2.16E-14,2.16E-14,2.16E-14,2.16E-14,2.16E-14,2.16E-14,2.16E-14,2.16E-14,2.16E-14,2.16E-14,1.92E-14,1.92E-14,1.92E-14,1.92E-14,1.92E-14,1.92E-14,1.92E-14,1.92E-14,1.92E-14,1.92E-14,1.92E-14,1.92E-14,1.92E-14,3.31E-14,3.31E-14,3.31E-14,3.31E-14,3.31E-14,3.31E-14,3.31E-14,3.31E-14,3.31E-14,1.6E-14,1.6E-14,1.6E-14,1.6E-14,1.6E-14,1.6E-14,1.6E-14,1.6E-14,1.6E-14,1.6E-14
GADM-IRQ,3.47E-15,3.47E-15,6.53E-15,6.53E-15,3.89E-15,3.89E-15,3.89E-15,3.89E-15,3.89E-15,3.89E-15,3.89E-15,3.89E-15,3.89E-15,3.89E-15,3.89E-15,3.89E-15,3.89E-15,7.63E-15,7.63E-15,7.63E-15,7.63E-15,7.63E-15,7.63E-15,7.63E-15,7.63E-15,7.63E-15,7.63E-15,7.63E-15,7.63E-15,7.63E-15,5.96E-15,5.96E-15,5.96E-15,5.96E-15,5.96E-15,5.96E-15,5.96E-15,5.96E-15,5.96E-15,2.89E-15,2.89E-15,2.89E-15,2.89E-15,2.89E-15,2.89E-15,2.89E-15,2.89E-15,2.89E-15,2.89E-15
GADM-IRL,0,0,0,0,0,0,0,0,0,0,0,0,0,0,0,0,0,1.08E-17,1.08E-17,1.08E-17,1.08E-17,1.08E-17,1.08E-17,1.08E-17,1.08E-17,1.08E-17,1.08E-17,1.08E-17,1.08E-17,1.08E-17,0,0,0,0,0,0,0,0,0,0,0,0,0,0,0,0,0,0,0
GADM-ISR,0,0,0,0,0,0,0,0,0,0,0,0,0,0,0,0,0,0,0,0,0,0,0,0,0,0,0,0,0,0,0,0,0,0,0,0,0,0,0,0,0,0,0,0,0,0,0,0,0
GADM-ITA,1.44E-12,1.44E-12,2.71E-12,2.71E-12,6.15E-13,6.15E-13,6.15E-13,6.15E-13,6.15E-13,6.15E-13,6.15E-13,6.15E-13,6.15E-13,6.15E-13,6.15E-13,6.15E-13,6.15E-13,1.31E-13,1.31E-13,1.31E-13,1.31E-13,1.31E-13,1.31E-13,1.31E-13,1.31E-13,1.31E-13,1.31E-13,1.31E-13,1.31E-13,1.31E-13,9.43E-13,9.43E-13,9.43E-13,9.43E-13,9.43E-13,9.43E-13,9.43E-13,9.43E-13,9.43E-13,4.56E-13,4.56E-13,4.56E-13,4.56E-13,4.56E-13,4.56E-13,4.56E-13,4.56E-13,4.56E-13,4.56E-13
GADM-JAM,0,0,0,0,0,0,0,0,0,0,0,0,0,0,0,0,0,0,0,0,0,0,0,0,0,0,0,0,0,0,0,0,0,0,0,0,0,0,0,0,0,0,0,0,0,0,0,0,0
GADM-JPN,1.74E-15,1.74E-15,3.28E-15,3.28E-15,4.31E-16,4.31E-16,4.31E-16,4.31E-16,4.31E-16,4.31E-16,4.31E-16,4.31E-16,4.31E-16,4.31E-16,4.31E-16,4.31E-16,4.31E-16,1.41E-15,1.41E-15,1.41E-15,1.41E-15,1.41E-15,1.41E-15,1.41E-15,1.41E-15,1.41E-15,1.41E-15,1.41E-15,1.41E-15,1.41E-15,6.61E-16,6.61E-16,6.61E-16,6.61E-16,6.61E-16,6.61E-16,6.61E-16,6.61E-16,6.61E-16,3.2E-16,3.2E-16,3.2E-16,3.2E-16,3.2E-16,3.2E-16,3.2E-16,3.2E-16,3.2E-16,3.2E-16
GADM-JEY,0,0,0,0,0,0,0,0,0,0,0,0,0,0,0,0,0,0,0,0,0,0,0,0,0,0,0,0,0,0,0,0,0,0,0,0,0,0,0,0,0,0,0,0,0,0,0,0,0
GADM-JOR,1.76E-15,1.76E-15,3.31E-15,3.31E-15,1.17E-15,1.17E-15,1.17E-15,1.17E-15,1.17E-15,1.17E-15,1.17E-15,1.17E-15,1.17E-15,1.17E-15,1.17E-15,1.17E-15,1.17E-15,1.21E-15,1.21E-15,1.21E-15,1.21E-15,1.21E-15,1.21E-15,1.21E-15,1.21E-15,1.21E-15,1.21E-15,1.21E-15,1.21E-15,1.21E-15,1.79E-15,1.79E-15,1.79E-15,1.79E-15,1.79E-15,1.79E-15,1.79E-15,1.79E-15,1.79E-15,8.68E-16,8.68E-16,8.68E-16,8.68E-16,8.68E-16,8.68E-16,8.68E-16,8.68E-16,8.68E-16,8.68E-16
GADM-KAZ,1.06E-14,1.06E-14,2E-14,2E-14,8.85E-15,8.85E-15,8.85E-15,8.85E-15,8.85E-15,8.85E-15,8.85E-15,8.85E-15,8.85E-15,8.85E-15,8.85E-15,8.85E-15,8.85E-15,3.31E-14,3.31E-14,3.31E-14,3.31E-14,3.31E-14,3.31E-14,3.31E-14,3.31E-14,3.31E-14,3.31E-14,3.31E-14,3.31E-14,3.31E-14,1.36E-14,1.36E-14,1.36E-14,1.36E-14,1.36E-14,1.36E-14,1.36E-14,1.36E-14,1.36E-14,6.57E-15,6.57E-15,6.57E-15,6.57E-15,6.57E-15,6.57E-15,6.57E-15,6.57E-15,6.57E-15,6.57E-15
GADM-KEN,1.26E-16,1.26E-16,2.37E-16,2.37E-16,1.56E-16,1.56E-16,1.56E-16,1.56E-16,1.56E-16,1.56E-16,1.56E-16,1.56E-16,1.56E-16,1.56E-16,1.56E-16,1.56E-16,1.56E-16,4.03E-16,4.03E-16,4.03E-16,4.03E-16,4.03E-16,4.03E-16,4.03E-16,4.03E-16,4.03E-16,4.03E-16,4.03E-16,4.03E-16,4.03E-16,2.39E-16,2.39E-16,2.39E-16,2.39E-16,2.39E-16,2.39E-16,2.39E-16,2.39E-16,2.39E-16,1.16E-16,1.16E-16,1.16E-16,1.16E-16,1.16E-16,1.16E-16,1.16E-16,1.16E-16,1.16E-16,1.16E-16
GADM-KWT,0,0,0,0,0,0,0,0,0,0,0,0,0,0,0,0,0,0,0,0,0,0,0,0,0,0,0,0,0,0,0,0,0,0,0,0,0,0,0,0,0,0,0,0,0,0,0,0,0
GADM-KGZ,1.41E-15,1.41E-15,2.65E-15,2.65E-15,1.62E-15,1.62E-15,1.62E-15,1.62E-15,1.62E-15,1.62E-15,1.62E-15,1.62E-15,1.62E-15,1.62E-15,1.62E-15,1.62E-15,1.62E-15,1.98E-15,1.98E-15,1.98E-15,1.98E-15,1.98E-15,1.98E-15,1.98E-15,1.98E-15,1.98E-15,1.98E-15,1.98E-15,1.98E-15,1.98E-15,2.48E-15,2.48E-15,2.48E-15,2.48E-15,2.48E-15,2.48E-15,2.48E-15,2.48E-15,2.48E-15,1.2E-15,1.2E-15,1.2E-15,1.2E-15,1.2E-15,1.2E-15,1.2E-15,1.2E-15,1.2E-15,1.2E-15
GADM-LAO,8.8E-16,8.8E-16,1.66E-15,1.66E-15,3.83E-16,3.83E-16,3.83E-16,3.83E-16,3.83E-16,3.83E-16,3.83E-16,3.83E-16,3.83E-16,3.83E-16,3.83E-16,3.83E-16,3.83E-16,1.15E-15,1.15E-15,1.15E-15,1.15E-15,1.15E-15,1.15E-15,1.15E-15,1.15E-15,1.15E-15,1.15E-15,1.15E-15,1.15E-15,1.15E-15,5.87E-16,5.87E-16,5.87E-16,5.87E-16,5.87E-16,5.87E-16,5.87E-16,5.87E-16,5.87E-16,2.84E-16,2.84E-16,2.84E-16,2.84E-16,2.84E-16,2.84E-16,2.84E-16,2.84E-16,2.84E-16,2.84E-16
GADM-LVA,0,0,0,0,0,0,0,0,0,0,0,0,0,0,0,0,0,0,0,0,0,0,0,0,0,0,0,0,0,0,0,0,0,0,0,0,0,0,0,0,0,0,0,0,0,0,0,0,0
GADM-LBN,0,0,0,0,0,0,0,0,0,0,0,0,0,0,0,0,0,0,0,0,0,0,0,0,0,0,0,0,0,0,0,0,0,0,0,0,0,0,0,0,0,0,0,0,0,0,0,0,0
GADM-LSO,1.47E-15,1.47E-15,2.77E-15,2.77E-15,4.18E-15,4.18E-15,4.18E-15,4.18E-15,4.18E-15,4.18E-15,4.18E-15,4.18E-15,4.18E-15,4.18E-15,4.18E-15,4.18E-15,4.18E-15,9.32E-15,9.32E-15,9.32E-15,9.32E-15,9.32E-15,9.32E-15,9.32E-15,9.32E-15,9.32E-15,9.32E-15,9.32E-15,9.32E-15,9.32E-15,6.41E-15,6.41E-15,6.41E-15,6.41E-15,6.41E-15,6.41E-15,6.41E-15,6.41E-15,6.41E-15,3.1E-15,3.1E-15,3.1E-15,3.1E-15,3.1E-15,3.1E-15,3.1E-15,3.1E-15,3.1E-15,3.1E-15
GADM-LBR,0,0,0,0,0,0,0,0,0,0,0,0,0,0,0,0,0,0,0,0,0,0,0,0,0,0,0,0,0,0,0,0,0,0,0,0,0,0,0,0,0,0,0,0,0,0,0,0,0
GADM-LBY,1.21E-15,1.21E-15,2.28E-15,2.28E-15,4.53E-16,4.53E-16,4.53E-16,4.53E-16,4.53E-16,4.53E-16,4.53E-16,4.53E-16,4.53E-16,4.53E-16,4.53E-16,4.53E-16,4.53E-16,2.59E-16,2.59E-16,2.59E-16,2.59E-16,2.59E-16,2.59E-16,2.59E-16,2.59E-16,2.59E-16,2.59E-16,2.59E-16,2.59E-16,2.59E-16,6.95E-16,6.95E-16,6.95E-16,6.95E-16,6.95E-16,6.95E-16,6.95E-16,6.95E-16,6.95E-16,3.36E-16,3.36E-16,3.36E-16,3.36E-16,3.36E-16,3.36E-16,3.36E-16,3.36E-16,3.36E-16,3.36E-16
GADM-LTU,0,0,0,0,0,0,0,0,0,0,0,0,0,0,0,0,0,0,0,0,0,0,0,0,0,0,0,0,0,0,0,0,0,0,0,0,0,0,0,0,0,0,0,0,0,0,0,0,0
GADM-LUX,0,0,0,0,0,0,0,0,0,0,0,0,0,0,0,0,0,0,0,0,0,0,0,0,0,0,0,0,0,0,0,0,0,0,0,0,0,0,0,0,0,0,0,0,0,0,0,0,0
GADM-MDG,1E-15,1E-15,1.88E-15,1.88E-15,1.34E-15,1.34E-15,1.34E-15,1.34E-15,1.34E-15,1.34E-15,1.34E-15,1.34E-15,1.34E-15,1.34E-15,1.34E-15,1.34E-15,1.34E-15,4.75E-15,4.75E-15,4.75E-15,4.75E-15,4.75E-15,4.75E-15,4.75E-15,4.75E-15,4.75E-15,4.75E-15,4.75E-15,4.75E-15,4.75E-15,2.05E-15,2.05E-15,2.05E-15,2.05E-15,2.05E-15,2.05E-15,2.05E-15,2.05E-15,2.05E-15,9.94E-16,9.94E-16,9.94E-16,9.94E-16,9.94E-16,9.94E-16,9.94E-16,9.94E-16,9.94E-16,9.94E-16
GADM-PRT.13_1,0,0,0,0,0,0,0,0,0,0,0,0,0,0,0,0,0,0,0,0,0,0,0,0,0,0,0,0,0,0,0,0,0,0,0,0,0,0,0,0,0,0,0,0,0,0,0,0,0
GADM-MWI,0,0,0,0,0,0,0,0,0,0,0,0,0,0,0,0,0,0,0,0,0,0,0,0,0,0,0,0,0,0,0,0,0,0,0,0,0,0,0,0,0,0,0,0,0,0,0,0,0
GADM-MYS,9.96E-16,9.96E-16,1.87E-15,1.87E-15,6.05E-16,6.05E-16,6.05E-16,6.05E-16,6.05E-16,6.05E-16,6.05E-16,6.05E-16,6.05E-16,6.05E-16,6.05E-16,6.05E-16,6.05E-16,1.15E-15,1.15E-15,1.15E-15,1.15E-15,1.15E-15,1.15E-15,1.15E-15,1.15E-15,1.15E-15,1.15E-15,1.15E-15,1.15E-15,1.15E-15,9.28E-16,9.28E-16,9.28E-16,9.28E-16,9.28E-16,9.28E-16,9.28E-16,9.28E-16,9.28E-16,4.49E-16,4.49E-16,4.49E-16,4.49E-16,4.49E-16,4.49E-16,4.49E-16,4.49E-16,4.49E-16,4.49E-16
GADM-MLI,0,0,0,0,0,0,0,0,0,0,0,0,0,0,0,0,0,4.86E-18,4.86E-18,4.86E-18,4.86E-18,4.86E-18,4.86E-18,4.86E-18,4.86E-18,4.86E-18,4.86E-18,4.86E-18,4.86E-18,4.86E-18,0,0,0,0,0,0,0,0,0,0,0,0,0,0,0,0,0,0,0
GADM-MRT,0,0,0,0,0,0,0,0,0,0,0,0,0,0,0,0,0,1.9E-17,1.9E-17,1.9E-17,1.9E-17,1.9E-17,1.9E-17,1.9E-17,1.9E-17,1.9E-17,1.9E-17,1.9E-17,1.9E-17,1.9E-17,0,0,0,0,0,0,0,0,0,0,0,0,0,0,0,0,0,0,0
GADM-MUS,0,0,0,0,0,0,0,0,0,0,0,0,0,0,0,0,0,0,0,0,0,0,0,0,0,0,0,0,0,0,0,0,0,0,0,0,0,0,0,0,0,0,0,0,0,0,0,0,0
GADM-MEX,7.02E-13,7.02E-13,1.32E-12,1.32E-12,4.89E-14,4.89E-14,4.89E-14,4.89E-14,4.89E-14,4.89E-14,4.89E-14,4.89E-14,4.89E-14,4.89E-14,4.89E-14,4.89E-14,4.89E-14,7.46E-14,7.46E-14,7.46E-14,7.46E-14,7.46E-14,7.46E-14,7.46E-14,7.46E-14,7.46E-14,7.46E-14,7.46E-14,7.46E-14,7.46E-14,7.5E-14,7.5E-14,7.5E-14,7.5E-14,7.5E-14,7.5E-14,7.5E-14,7.5E-14,7.5E-14,3.63E-14,3.63E-14,3.63E-14,3.63E-14,3.63E-14,3.63E-14,3.63E-14,3.63E-14,3.63E-14,3.63E-14
GADM-MNG,9.35E-18,9.35E-18,1.76E-17,1.76E-17,1.24E-17,1.24E-17,1.24E-17,1.24E-17,1.24E-17,1.24E-17,1.24E-17,1.24E-17,1.24E-17,1.24E-17,1.24E-17,1.24E-17,1.24E-17,2.07E-17,2.07E-17,2.07E-17,2.07E-17,2.07E-17,2.07E-17,2.07E-17,2.07E-17,2.07E-17,2.07E-17,2.07E-17,2.07E-17,2.07E-17,1.9E-17,1.9E-17,1.9E-17,1.9E-17,1.9E-17,1.9E-17,1.9E-17,1.9E-17,1.9E-17,9.2E-18,9.2E-18,9.2E-18,9.2E-18,9.2E-18,9.2E-18,9.2E-18,9.2E-18,9.2E-18,9.2E-18
GADM-MNE,0,0,0,0,0,0,0,0,0,0,0,0,0,0,0,0,0,0,0,0,0,0,0,0,0,0,0,0,0,0,0,0,0,0,0,0,0,0,0,0,0,0,0,0,0,0,0,0,0
GADM-MAR,1.58E-15,1.58E-15,2.97E-15,2.97E-15,1.32E-15,1.32E-15,1.32E-15,1.32E-15,1.32E-15,1.32E-15,1.32E-15,1.32E-15,1.32E-15,1.32E-15,1.32E-15,1.32E-15,1.32E-15,3.83E-15,3.83E-15,3.83E-15,3.83E-15,3.83E-15,3.83E-15,3.83E-15,3.83E-15,3.83E-15,3.83E-15,3.83E-15,3.83E-15,3.83E-15,2.02E-15,2.02E-15,2.02E-15,2.02E-15,2.02E-15,2.02E-15,2.02E-15,2.02E-15,2.02E-15,9.79E-16,9.79E-16,9.79E-16,9.79E-16,9.79E-16,9.79E-16,9.79E-16,9.79E-16,9.79E-16,9.79E-16
GADM-MOZ,9.06E-15,9.06E-15,1.71E-14,1.71E-14,1.68E-14,1.68E-14,1.68E-14,1.68E-14,1.68E-14,1.68E-14,1.68E-14,1.68E-14,1.68E-14,1.68E-14,1.68E-14,1.68E-14,1.68E-14,3.37E-14,3.37E-14,3.37E-14,3.37E-14,3.37E-14,3.37E-14,3.37E-14,3.37E-14,3.37E-14,3.37E-14,3.37E-14,3.37E-14,3.37E-14,2.58E-14,2.58E-14,2.58E-14,2.58E-14,2.58E-14,2.58E-14,2.58E-14,2.58E-14,2.58E-14,1.25E-14,1.25E-14,1.25E-14,1.25E-14,1.25E-14,1.25E-14,1.25E-14,1.25E-14,1.25E-14,1.25E-14
GADM-MMR,2.16E-16,2.16E-16,4.07E-16,4.07E-16,1.79E-16,1.79E-16,1.79E-16,1.79E-16,1.79E-16,1.79E-16,1.79E-16,1.79E-16,1.79E-16,1.79E-16,1.79E-16,1.79E-16,1.79E-16,4.4E-16,4.4E-16,4.4E-16,4.4E-16,4.4E-16,4.4E-16,4.4E-16,4.4E-16,4.4E-16,4.4E-16,4.4E-16,4.4E-16,4.4E-16,2.74E-16,2.74E-16,2.74E-16,2.74E-16,2.74E-16,2.74E-16,2.74E-16,2.74E-16,2.74E-16,1.33E-16,1.33E-16,1.33E-16,1.33E-16,1.33E-16,1.33E-16,1.33E-16,1.33E-16,1.33E-16,1.33E-16
GADM-NAM,6.72E-15,6.72E-15,1.26E-14,1.26E-14,6.41E-15,6.41E-15,6.41E-15,6.41E-15,6.41E-15,6.41E-15,6.41E-15,6.41E-15,6.41E-15,6.41E-15,6.41E-15,6.41E-15,6.41E-15,1.28E-15,1.28E-15,1.28E-15,1.28E-15,1.28E-15,1.28E-15,1.28E-15,1.28E-15,1.28E-15,1.28E-15,1.28E-15,1.28E-15,1.28E-15,9.83E-15,9.83E-15,9.83E-15,9.83E-15,9.83E-15,9.83E-15,9.83E-15,9.83E-15,9.83E-15,4.76E-15,4.76E-15,4.76E-15,4.76E-15,4.76E-15,4.76E-15,4.76E-15,4.76E-15,4.76E-15,4.76E-15
GADM-NPL,1.99E-16,1.99E-16,3.75E-16,3.75E-16,1.42E-16,1.42E-16,1.42E-16,1.42E-16,1.42E-16,1.42E-16,1.42E-16,1.42E-16,1.42E-16,1.42E-16,1.42E-16,1.42E-16,1.42E-16,8.49E-16,8.49E-16,8.49E-16,8.49E-16,8.49E-16,8.49E-16,8.49E-16,8.49E-16,8.49E-16,8.49E-16,8.49E-16,8.49E-16,8.49E-16,2.18E-16,2.18E-16,2.18E-16,2.18E-16,2.18E-16,2.18E-16,2.18E-16,2.18E-16,2.18E-16,1.05E-16,1.05E-16,1.05E-16,1.05E-16,1.05E-16,1.05E-16,1.05E-16,1.05E-16,1.05E-16,1.05E-16
GADM-NLD,0,0,0,0,2.12E-17,2.12E-17,2.12E-17,2.12E-17,2.12E-17,2.12E-17,2.12E-17,2.12E-17,2.12E-17,2.12E-17,2.12E-17,2.12E-17,2.12E-17,3.04E-17,3.04E-17,3.04E-17,3.04E-17,3.04E-17,3.04E-17,3.04E-17,3.04E-17,3.04E-17,3.04E-17,3.04E-17,3.04E-17,3.04E-17,3.25E-17,3.25E-17,3.25E-17,3.25E-17,3.25E-17,3.25E-17,3.25E-17,3.25E-17,3.25E-17,1.57E-17,1.57E-17,1.57E-17,1.57E-17,1.57E-17,1.57E-17,1.57E-17,1.57E-17,1.57E-17,1.57E-17
GADM-NZL,0,0,0,0,0,0,0,0,0,0,0,0,0,0,0,0,0,0,0,0,0,0,0,0,0,0,0,0,0,0,0,0,0,0,0,0,0,0,0,0,0,0,0,0,0,0,0,0,0
GADM-NIC,2.07E-15,2.07E-15,3.9E-15,3.9E-15,5.54E-16,5.54E-16,5.54E-16,5.54E-16,5.54E-16,5.54E-16,5.54E-16,5.54E-16,5.54E-16,5.54E-16,5.54E-16,5.54E-16,5.54E-16,3.92E-15,3.92E-15,3.92E-15,3.92E-15,3.92E-15,3.92E-15,3.92E-15,3.92E-15,3.92E-15,3.92E-15,3.92E-15,3.92E-15,3.92E-15,8.49E-16,8.49E-16,8.49E-16,8.49E-16,8.49E-16,8.49E-16,8.49E-16,8.49E-16,8.49E-16,4.11E-16,4.11E-16,4.11E-16,4.11E-16,4.11E-16,4.11E-16,4.11E-16,4.11E-16,4.11E-16,4.11E-16
GADM-NER,0,0,0,0,0,0,0,0,0,0,0,0,0,0,0,0,0,0,0,0,0,0,0,0,0,0,0,0,0,0,0,0,0,0,0,0,0,0,0,0,0,0,0,0,0,0,0,0,0
GADM-NGA,9.61E-16,9.61E-16,1.81E-15,1.81E-15,8.41E-16,8.41E-16,8.41E-16,8.41E-16,8.41E-16,8.41E-16,8.41E-16,8.41E-16,8.41E-16,8.41E-16,8.41E-16,8.41E-16,8.41E-16,2.26E-16,2.26E-16,2.26E-16,2.26E-16,2.26E-16,2.26E-16,2.26E-16,2.26E-16,2.26E-16,2.26E-16,2.26E-16,2.26E-16,2.26E-16,1.29E-15,1.29E-15,1.29E-15,1.29E-15,1.29E-15,1.29E-15,1.29E-15,1.29E-15,1.29E-15,6.24E-16,6.24E-16,6.24E-16,6.24E-16,6.24E-16,6.24E-16,6.24E-16,6.24E-16,6.24E-16,6.24E-16
GADM-NOR,0,0,0,0,0,0,0,0,0,0,0,0,0,0,0,0,0,0,0,0,0,0,0,0,0,0,0,0,0,0,0,0,0,0,0,0,0,0,0,0,0,0,0,0,0,0,0,0,0
GADM-OMN,1.01E-12,1.01E-12,1.9E-12,1.9E-12,3.1E-13,3.1E-13,3.1E-13,3.1E-13,3.1E-13,3.1E-13,3.1E-13,3.1E-13,3.1E-13,3.1E-13,3.1E-13,3.1E-13,3.1E-13,1.57E-13,1.57E-13,1.57E-13,1.57E-13,1.57E-13,1.57E-13,1.57E-13,1.57E-13,1.57E-13,1.57E-13,1.57E-13,1.57E-13,1.57E-13,4.75E-13,4.75E-13,4.75E-13,4.75E-13,4.75E-13,4.75E-13,4.75E-13,4.75E-13,4.75E-13,2.3E-13,2.3E-13,2.3E-13,2.3E-13,2.3E-13,2.3E-13,2.3E-13,2.3E-13,2.3E-13,2.3E-13
GADM-PAK,9.27E-15,9.27E-15,1.74E-14,1.74E-14,5.46E-15,5.46E-15,5.46E-15,5.46E-15,5.46E-15,5.46E-15,5.46E-15,5.46E-15,5.46E-15,5.46E-15,5.46E-15,5.46E-15,5.46E-15,1.08E-14,1.08E-14,1.08E-14,1.08E-14,1.08E-14,1.08E-14,1.08E-14,1.08E-14,1.08E-14,1.08E-14,1.08E-14,1.08E-14,1.08E-14,8.37E-15,8.37E-15,8.37E-15,8.37E-15,8.37E-15,8.37E-15,8.37E-15,8.37E-15,8.37E-15,4.05E-15,4.05E-15,4.05E-15,4.05E-15,4.05E-15,4.05E-15,4.05E-15,4.05E-15,4.05E-15,4.05E-15
GADM-PSE,0,0,0,0,0,0,0,0,0,0,0,0,0,0,0,0,0,0,0,0,0,0,0,0,0,0,0,0,0,0,0,0,0,0,0,0,0,0,0,0,0,0,0,0,0,0,0,0,0
GADM-PAN,0,0,0,0,0,0,0,0,0,0,0,0,0,0,0,0,0,0,0,0,0,0,0,0,0,0,0,0,0,0,0,0,0,0,0,0,0,0,0,0,0,0,0,0,0,0,0,0,0
GADM-PNG,0,0,0,0,0,0,0,0,0,0,0,0,0,0,0,0,0,0,0,0,0,0,0,0,0,0,0,0,0,0,0,0,0,0,0,0,0,0,0,0,0,0,0,0,0,0,0,0,0
GADM-PRY,3.88E-16,3.88E-16,7.3E-16,7.3E-16,4.66E-17,4.66E-17,4.66E-17,4.66E-17,4.66E-17,4.66E-17,4.66E-17,4.66E-17,4.66E-17,4.66E-17,4.66E-17,4.66E-17,4.66E-17,1.98E-16,1.98E-16,1.98E-16,1.98E-16,1.98E-16,1.98E-16,1.98E-16,1.98E-16,1.98E-16,1.98E-16,1.98E-16,1.98E-16,1.98E-16,7.15E-17,7.15E-17,7.15E-17,7.15E-17,7.15E-17,7.15E-17,7.15E-17,7.15E-17,7.15E-17,3.46E-17,3.46E-17,3.46E-17,3.46E-17,3.46E-17,3.46E-17,3.46E-17,3.46E-17,3.46E-17,3.46E-17
GADM-PER,8.4E-13,8.4E-13,1.58E-12,1.58E-12,2.49E-14,2.49E-14,2.49E-14,2.49E-14,2.49E-14,2.49E-14,2.49E-14,2.49E-14,2.49E-14,2.49E-14,2.49E-14,2.49E-14,2.49E-14,1.31E-13,1.31E-13,1.31E-13,1.31E-13,1.31E-13,1.31E-13,1.31E-13,1.31E-13,1.31E-13,1.31E-13,1.31E-13,1.31E-13,1.31E-13,3.82E-14,3.82E-14,3.82E-14,3.82E-14,3.82E-14,3.82E-14,3.82E-14,3.82E-14,3.82E-14,1.85E-14,1.85E-14,1.85E-14,1.85E-14,1.85E-14,1.85E-14,1.85E-14,1.85E-14,1.85E-14,1.85E-14
GADM-PHL,9.77E-15,9.77E-15,1.84E-14,1.84E-14,1.34E-14,1.34E-14,1.34E-14,1.34E-14,1.34E-14,1.34E-14,1.34E-14,1.34E-14,1.34E-14,1.34E-14,1.34E-14,1.34E-14,1.34E-14,2.85E-14,2.85E-14,2.85E-14,2.85E-14,2.85E-14,2.85E-14,2.85E-14,2.85E-14,2.85E-14,2.85E-14,2.85E-14,2.85E-14,2.85E-14,2.05E-14,2.05E-14,2.05E-14,2.05E-14,2.05E-14,2.05E-14,2.05E-14,2.05E-14,2.05E-14,9.94E-15,9.94E-15,9.94E-15,9.94E-15,9.94E-15,9.94E-15,9.94E-15,9.94E-15,9.94E-15,9.94E-15
GADM-POL,2.98E-17,2.98E-17,5.61E-17,5.61E-17,1.45E-17,1.45E-17,1.45E-17,1.45E-17,1.45E-17,1.45E-17,1.45E-17,1.45E-17,1.45E-17,1.45E-17,1.45E-17,1.45E-17,1.45E-17,2.09E-17,2.09E-17,2.09E-17,2.09E-17,2.09E-17,2.09E-17,2.09E-17,2.09E-17,2.09E-17,2.09E-17,2.09E-17,2.09E-17,2.09E-17,2.22E-17,2.22E-17,2.22E-17,2.22E-17,2.22E-17,2.22E-17,2.22E-17,2.22E-17,2.22E-17,1.08E-17,1.08E-17,1.08E-17,1.08E-17,1.08E-17,1.08E-17,1.08E-17,1.08E-17,1.08E-17,1.08E-17
GADM-PRT,0,0,0,0,0,0,0,0,0,0,0,0,0,0,0,0,0,0,0,0,0,0,0,0,0,0,0,0,0,0,0,0,0,0,0,0,0,0,0,0,0,0,0,0,0,0,0,0,0
GADM-PRI,0,0,0,0,0,0,0,0,0,0,0,0,0,0,0,0,0,0,0,0,0,0,0,0,0,0,0,0,0,0,0,0,0,0,0,0,0,0,0,0,0,0,0,0,0,0,0,0,0
GADM-QAT,0,0,0,0,0,0,0,0,0,0,0,0,0,0,0,0,0,0,0,0,0,0,0,0,0,0,0,0,0,0,0,0,0,0,0,0,0,0,0,0,0,0,0,0,0,0,0,0,0
GADM-KOR,1.57E-17,1.57E-17,2.96E-17,2.96E-17,7.37E-18,7.37E-18,7.37E-18,7.37E-18,7.37E-18,7.37E-18,7.37E-18,7.37E-18,7.37E-18,7.37E-18,7.37E-18,7.37E-18,7.37E-18,4.55E-17,4.55E-17,4.55E-17,4.55E-17,4.55E-17,4.55E-17,4.55E-17,4.55E-17,4.55E-17,4.55E-17,4.55E-17,4.55E-17,4.55E-17,1.13E-17,1.13E-17,1.13E-17,1.13E-17,1.13E-17,1.13E-17,1.13E-17,1.13E-17,1.13E-17,5.47E-18,5.47E-18,5.47E-18,5.47E-18,5.47E-18,5.47E-18,5.47E-18,5.47E-18,5.47E-18,5.47E-18
GADM-MDA,1.57E-16,1.57E-16,2.96E-16,2.96E-16,7.78E-17,7.78E-17,7.78E-17,7.78E-17,7.78E-17,7.78E-17,7.78E-17,7.78E-17,7.78E-17,7.78E-17,7.78E-17,7.78E-17,7.78E-17,1.18E-16,1.18E-16,1.18E-16,1.18E-16,1.18E-16,1.18E-16,1.18E-16,1.18E-16,1.18E-16,1.18E-16,1.18E-16,1.18E-16,1.18E-16,1.19E-16,1.19E-16,1.19E-16,1.19E-16,1.19E-16,1.19E-16,1.19E-16,1.19E-16,1.19E-16,5.77E-17,5.77E-17,5.77E-17,5.77E-17,5.77E-17,5.77E-17,5.77E-17,5.77E-17,5.77E-17,5.77E-17
GADM-REU,0,0,0,0,0,0,0,0,0,0,0,0,0,0,0,0,0,0,0,0,0,0,0,0,0,0,0,0,0,0,0,0,0,0,0,0,0,0,0,0,0,0,0,0,0,0,0,0,0
GADM-ROU,7.65E-17,7.65E-17,1.44E-16,1.44E-16,3.4E-17,3.4E-17,3.4E-17,3.4E-17,3.4E-17,3.4E-17,3.4E-17,3.4E-17,3.4E-17,3.4E-17,3.4E-17,3.4E-17,3.4E-17,2.14E-17,2.14E-17,2.14E-17,2.14E-17,2.14E-17,2.14E-17,2.14E-17,2.14E-17,2.14E-17,2.14E-17,2.14E-17,2.14E-17,2.14E-17,5.21E-17,5.21E-17,5.21E-17,5.21E-17,5.21E-17,5.21E-17,5.21E-17,5.21E-17,5.21E-17,2.52E-17,2.52E-17,2.52E-17,2.52E-17,2.52E-17,2.52E-17,2.52E-17,2.52E-17,2.52E-17,2.52E-17
GADM-RUS,1.02E-15,1.02E-15,1.92E-15,1.92E-15,1.32E-15,1.32E-15,1.32E-15,1.32E-15,1.32E-15,1.32E-15,1.32E-15,1.32E-15,1.32E-15,1.32E-15,1.32E-15,1.32E-15,1.32E-15,1.53E-15,1.53E-15,1.53E-15,1.53E-15,1.53E-15,1.53E-15,1.53E-15,1.53E-15,1.53E-15,1.53E-15,1.53E-15,1.53E-15,1.53E-15,2.02E-15,2.02E-15,2.02E-15,2.02E-15,2.02E-15,2.02E-15,2.02E-15,2.02E-15,2.02E-15,9.79E-16,9.79E-16,9.79E-16,9.79E-16,9.79E-16,9.79E-16,9.79E-16,9.79E-16,9.79E-16,9.79E-16
GADM-RWA,4.2E-16,4.2E-16,7.91E-16,7.91E-16,4.55E-16,4.55E-16,4.55E-16,4.55E-16,4.55E-16,4.55E-16,4.55E-16,4.55E-16,4.55E-16,4.55E-16,4.55E-16,4.55E-16,4.55E-16,2.5E-15,2.5E-15,2.5E-15,2.5E-15,2.5E-15,2.5E-15,2.5E-15,2.5E-15,2.5E-15,2.5E-15,2.5E-15,2.5E-15,2.5E-15,6.98E-16,6.98E-16,6.98E-16,6.98E-16,6.98E-16,6.98E-16,6.98E-16,6.98E-16,6.98E-16,3.38E-16,3.38E-16,3.38E-16,3.38E-16,3.38E-16,3.38E-16,3.38E-16,3.38E-16,3.38E-16,3.38E-16
GADM-VCT,0,0,0,0,0,0,0,0,0,0,0,0,0,0,0,0,0,0,0,0,0,0,0,0,0,0,0,0,0,0,0,0,0,0,0,0,0,0,0,0,0,0,0,0,0,0,0,0,0
GADM-SAU,1.02E-13,1.02E-13,1.92E-13,1.92E-13,8.11E-14,8.11E-14,8.11E-14,8.11E-14,8.11E-14,8.11E-14,8.11E-14,8.11E-14,8.11E-14,8.11E-14,8.11E-14,8.11E-14,8.11E-14,1.03E-13,1.03E-13,1.03E-13,1.03E-13,1.03E-13,1.03E-13,1.03E-13,1.03E-13,1.03E-13,1.03E-13,1.03E-13,1.03E-13,1.03E-13,1.24E-13,1.24E-13,1.24E-13,1.24E-13,1.24E-13,1.24E-13,1.24E-13,1.24E-13,1.24E-13,6.02E-14,6.02E-14,6.02E-14,6.02E-14,6.02E-14,6.02E-14,6.02E-14,6.02E-14,6.02E-14,6.02E-14
GADM-SEN,3.53E-16,3.53E-16,6.64E-16,6.64E-16,8.6E-16,8.6E-16,8.6E-16,8.6E-16,8.6E-16,8.6E-16,8.6E-16,8.6E-16,8.6E-16,8.6E-16,8.6E-16,8.6E-16,8.6E-16,1.43E-15,1.43E-15,1.43E-15,1.43E-15,1.43E-15,1.43E-15,1.43E-15,1.43E-15,1.43E-15,1.43E-15,1.43E-15,1.43E-15,1.43E-15,1.32E-15,1.32E-15,1.32E-15,1.32E-15,1.32E-15,1.32E-15,1.32E-15,1.32E-15,1.32E-15,6.38E-16,6.38E-16,6.38E-16,6.38E-16,6.38E-16,6.38E-16,6.38E-16,6.38E-16,6.38E-16,6.38E-16
GADM-SRB,5.69E-17,5.69E-17,1.07E-16,1.07E-16,7.11E-17,7.11E-17,7.11E-17,7.11E-17,7.11E-17,7.11E-17,7.11E-17,7.11E-17,7.11E-17,7.11E-17,7.11E-17,7.11E-17,7.11E-17,1.41E-16,1.41E-16,1.41E-16,1.41E-16,1.41E-16,1.41E-16,1.41E-16,1.41E-16,1.41E-16,1.41E-16,1.41E-16,1.41E-16,1.41E-16,1.09E-16,1.09E-16,1.09E-16,1.09E-16,1.09E-16,1.09E-16,1.09E-16,1.09E-16,1.09E-16,5.28E-17,5.28E-17,5.28E-17,5.28E-17,5.28E-17,5.28E-17,5.28E-17,5.28E-17,5.28E-17,5.28E-17
GADM-SLE,2.15E-16,2.15E-16,4.05E-16,4.05E-16,1.04E-16,1.04E-16,1.04E-16,1.04E-16,1.04E-16,1.04E-16,1.04E-16,1.04E-16,1.04E-16,1.04E-16,1.04E-16,1.04E-16,1.04E-16,1.47E-16,1.47E-16,1.47E-16,1.47E-16,1.47E-16,1.47E-16,1.47E-16,1.47E-16,1.47E-16,1.47E-16,1.47E-16,1.47E-16,1.47E-16,1.59E-16,1.59E-16,1.59E-16,1.59E-16,1.59E-16,1.59E-16,1.59E-16,1.59E-16,1.59E-16,7.72E-17,7.72E-17,7.72E-17,7.72E-17,7.72E-17,7.72E-17,7.72E-17,7.72E-17,7.72E-17,7.72E-17
GADM-SVK,3.67E-17,3.67E-17,6.91E-17,6.91E-17,2.29E-17,2.29E-17,2.29E-17,2.29E-17,2.29E-17,2.29E-17,2.29E-17,2.29E-17,2.29E-17,2.29E-17,2.29E-17,2.29E-17,2.29E-17,3.58E-17,3.58E-17,3.58E-17,3.58E-17,3.58E-17,3.58E-17,3.58E-17,3.58E-17,3.58E-17,3.58E-17,3.58E-17,3.58E-17,3.58E-17,3.51E-17,3.51E-17,3.51E-17,3.51E-17,3.51E-17,3.51E-17,3.51E-17,3.51E-17,3.51E-17,1.7E-17,1.7E-17,1.7E-17,1.7E-17,1.7E-17,1.7E-17,1.7E-17,1.7E-17,1.7E-17,1.7E-17
GADM-SVN,0,0,0,0,0,0,0,0,0,0,0,0,0,0,0,0,0,0,0,0,0,0,0,0,0,0,0,0,0,0,0,0,0,0,0,0,0,0,0,0,0,0,0,0,0,0,0,0,0
GADM-SOM,0,0,0,0,4.42E-17,4.42E-17,4.42E-17,4.42E-17,4.42E-17,4.42E-17,4.42E-17,4.42E-17,4.42E-17,4.42E-17,4.42E-17,4.42E-17,4.42E-17,3.66E-17,3.66E-17,3.66E-17,3.66E-17,3.66E-17,3.66E-17,3.66E-17,3.66E-17,3.66E-17,3.66E-17,3.66E-17,3.66E-17,3.66E-17,6.78E-17,6.78E-17,6.78E-17,6.78E-17,6.78E-17,6.78E-17,6.78E-17,6.78E-17,6.78E-17,3.28E-17,3.28E-17,3.28E-17,3.28E-17,3.28E-17,3.28E-17,3.28E-17,3.28E-17,3.28E-17,3.28E-17
GADM-ZAF,3.39E-14,3.39E-14,6.38E-14,6.38E-14,8.56E-14,8.56E-14,8.56E-14,8.56E-14,8.56E-14,8.56E-14,8.56E-14,8.56E-14,8.56E-14,8.56E-14,8.56E-14,8.56E-14,8.56E-14,2.4E-13,2.4E-13,2.4E-13,2.4E-13,2.4E-13,2.4E-13,2.4E-13,2.4E-13,2.4E-13,2.4E-13,2.4E-13,2.4E-13,2.4E-13,1.31E-13,1.31E-13,1.31E-13,1.31E-13,1.31E-13,1.31E-13,1.31E-13,1.31E-13,1.31E-13,6.35E-14,6.35E-14,6.35E-14,6.35E-14,6.35E-14,6.35E-14,6.35E-14,6.35E-14,6.35E-14,6.35E-14
GADM-SSD,0,0,0,0,3.12E-17,3.12E-17,3.12E-17,3.12E-17,3.12E-17,3.12E-17,3.12E-17,3.12E-17,3.12E-17,3.12E-17,3.12E-17,3.12E-17,3.12E-17,3.67E-17,3.67E-17,3.67E-17,3.67E-17,3.67E-17,3.67E-17,3.67E-17,3.67E-17,3.67E-17,3.67E-17,3.67E-17,3.67E-17,3.67E-17,4.78E-17,4.78E-17,4.78E-17,4.78E-17,4.78E-17,4.78E-17,4.78E-17,4.78E-17,4.78E-17,2.31E-17,2.31E-17,2.31E-17,2.31E-17,2.31E-17,2.31E-17,2.31E-17,2.31E-17,2.31E-17,2.31E-17
GADM-ESP,2.27E-15,2.27E-15,4.27E-15,4.27E-15,5.23E-15,5.23E-15,5.23E-15,5.23E-15,5.23E-15,5.23E-15,5.23E-15,5.23E-15,5.23E-15,5.23E-15,5.23E-15,5.23E-15,5.23E-15,1.08E-14,1.08E-14,1.08E-14,1.08E-14,1.08E-14,1.08E-14,1.08E-14,1.08E-14,1.08E-14,1.08E-14,1.08E-14,1.08E-14,1.08E-14,8.02E-15,8.02E-15,8.02E-15,8.02E-15,8.02E-15,8.02E-15,8.02E-15,8.02E-15,8.02E-15,3.88E-15,3.88E-15,3.88E-15,3.88E-15,3.88E-15,3.88E-15,3.88E-15,3.88E-15,3.88E-15,3.88E-15
GADM-LKA,1.4E-14,1.4E-14,2.64E-14,2.64E-14,6.31E-15,6.31E-15,6.31E-15,6.31E-15,6.31E-15,6.31E-15,6.31E-15,6.31E-15,6.31E-15,6.31E-15,6.31E-15,6.31E-15,6.31E-15,2.7E-14,2.7E-14,2.7E-14,2.7E-14,2.7E-14,2.7E-14,2.7E-14,2.7E-14,2.7E-14,2.7E-14,2.7E-14,2.7E-14,2.7E-14,9.68E-15,9.68E-15,9.68E-15,9.68E-15,9.68E-15,9.68E-15,9.68E-15,9.68E-15,9.68E-15,4.68E-15,4.68E-15,4.68E-15,4.68E-15,4.68E-15,4.68E-15,4.68E-15,4.68E-15,4.68E-15,4.68E-15
GADM-SDN,5.8E-17,5.8E-17,1.09E-16,1.09E-16,3.77E-17,3.77E-17,3.77E-17,3.77E-17,3.77E-17,3.77E-17,3.77E-17,3.77E-17,3.77E-17,3.77E-17,3.77E-17,3.77E-17,3.77E-17,7.07E-18,7.07E-18,7.07E-18,7.07E-18,7.07E-18,7.07E-18,7.07E-18,7.07E-18,7.07E-18,7.07E-18,7.07E-18,7.07E-18,7.07E-18,5.78E-17,5.78E-17,5.78E-17,5.78E-17,5.78E-17,5.78E-17,5.78E-17,5.78E-17,5.78E-17,2.8E-17,2.8E-17,2.8E-17,2.8E-17,2.8E-17,2.8E-17,2.8E-17,2.8E-17,2.8E-17,2.8E-17
GADM-SUR,7.18E-16,7.18E-16,1.35E-15,1.35E-15,5.19E-16,5.19E-16,5.19E-16,5.19E-16,5.19E-16,5.19E-16,5.19E-16,5.19E-16,5.19E-16,5.19E-16,5.19E-16,5.19E-16,5.19E-16,1.26E-15,1.26E-15,1.26E-15,1.26E-15,1.26E-15,1.26E-15,1.26E-15,1.26E-15,1.26E-15,1.26E-15,1.26E-15,1.26E-15,1.26E-15,7.96E-16,7.96E-16,7.96E-16,7.96E-16,7.96E-16,7.96E-16,7.96E-16,7.96E-16,7.96E-16,3.85E-16,3.85E-16,3.85E-16,3.85E-16,3.85E-16,3.85E-16,3.85E-16,3.85E-16,3.85E-16,3.85E-16
GADM-SWZ,0,0,0,0,0,0,0,0,0,0,0,0,0,0,0,0,0,0,0,0,0,0,0,0,0,0,0,0,0,0,0,0,0,0,0,0,0,0,0,0,0,0,0,0,0,0,0,0,0
GADM-SWE,4.11E-17,4.11E-17,7.74E-17,7.74E-17,1.34E-17,1.34E-17,1.34E-17,1.34E-17,1.34E-17,1.34E-17,1.34E-17,1.34E-17,1.34E-17,1.34E-17,1.34E-17,1.34E-17,1.34E-17,2.32E-17,2.32E-17,2.32E-17,2.32E-17,2.32E-17,2.32E-17,2.32E-17,2.32E-17,2.32E-17,2.32E-17,2.32E-17,2.32E-17,2.32E-17,2.05E-17,2.05E-17,2.05E-17,2.05E-17,2.05E-17,2.05E-17,2.05E-17,2.05E-17,2.05E-17,9.94E-18,9.94E-18,9.94E-18,9.94E-18,9.94E-18,9.94E-18,9.94E-18,9.94E-18,9.94E-18,9.94E-18
GADM-CHE,0,0,0,0,0,0,0,0,0,0,0,0,0,0,0,0,0,0,0,0,0,0,0,0,0,0,0,0,0,0,0,0,0,0,0,0,0,0,0,0,0,0,0,0,0,0,0,0,0
GADM-SYR,1.31E-13,1.31E-13,2.47E-13,2.47E-13,9.38E-14,9.38E-14,9.38E-14,9.38E-14,9.38E-14,9.38E-14,9.38E-14,9.38E-14,9.38E-14,9.38E-14,9.38E-14,9.38E-14,9.38E-14,3.15E-14,3.15E-14,3.15E-14,3.15E-14,3.15E-14,3.15E-14,3.15E-14,3.15E-14,3.15E-14,3.15E-14,3.15E-14,3.15E-14,3.15E-14,1.44E-13,1.44E-13,1.44E-13,1.44E-13,1.44E-13,1.44E-13,1.44E-13,1.44E-13,1.44E-13,6.96E-14,6.96E-14,6.96E-14,6.96E-14,6.96E-14,6.96E-14,6.96E-14,6.96E-14,6.96E-14,6.96E-14
GADM-TJK,0,0,0,0,0,0,0,0,0,0,0,0,0,0,0,0,0,0,0,0,0,0,0,0,0,0,0,0,0,0,0,0,0,0,0,0,0,0,0,0,0,0,0,0,0,0,0,0,0
GADM-THA,2.95E-16,2.95E-16,5.55E-16,5.55E-16,1.4E-16,1.4E-16,1.4E-16,1.4E-16,1.4E-16,1.4E-16,1.4E-16,1.4E-16,1.4E-16,1.4E-16,1.4E-16,1.4E-16,1.4E-16,4.63E-16,4.63E-16,4.63E-16,4.63E-16,4.63E-16,4.63E-16,4.63E-16,4.63E-16,4.63E-16,4.63E-16,4.63E-16,4.63E-16,4.63E-16,2.15E-16,2.15E-16,2.15E-16,2.15E-16,2.15E-16,2.15E-16,2.15E-16,2.15E-16,2.15E-16,1.04E-16,1.04E-16,1.04E-16,1.04E-16,1.04E-16,1.04E-16,1.04E-16,1.04E-16,1.04E-16,1.04E-16
GADM-MKD,0,0,0,0,0,0,0,0,0,0,0,0,0,0,0,0,0,0,0,0,0,0,0,0,0,0,0,0,0,0,0,0,0,0,0,0,0,0,0,0,0,0,0,0,0,0,0,0,0
GADM-TLS,0,0,0,0,0,0,0,0,0,0,0,0,0,0,0,0,0,0,0,0,0,0,0,0,0,0,0,0,0,0,0,0,0,0,0,0,0,0,0,0,0,0,0,0,0,0,0,0,0
GADM-TGO,0,0,0,0,6.03E-17,6.03E-17,6.03E-17,6.03E-17,6.03E-17,6.03E-17,6.03E-17,6.03E-17,6.03E-17,6.03E-17,6.03E-17,6.03E-17,6.03E-17,4.91E-17,4.91E-17,4.91E-17,4.91E-17,4.91E-17,4.91E-17,4.91E-17,4.91E-17,4.91E-17,4.91E-17,4.91E-17,4.91E-17,4.91E-17,9.25E-17,9.25E-17,9.25E-17,9.25E-17,9.25E-17,9.25E-17,9.25E-17,9.25E-17,9.25E-17,4.47E-17,4.47E-17,4.47E-17,4.47E-17,4.47E-17,4.47E-17,4.47E-17,4.47E-17,4.47E-17,4.47E-17
GADM-TTO,0,0,0,0,0,0,0,0,0,0,0,0,0,0,0,0,0,0,0,0,0,0,0,0,0,0,0,0,0,0,0,0,0,0,0,0,0,0,0,0,0,0,0,0,0,0,0,0,0
GADM-TUN,2.7E-15,2.7E-15,5.08E-15,5.08E-15,1.67E-15,1.67E-15,1.67E-15,1.67E-15,1.67E-15,1.67E-15,1.67E-15,1.67E-15,1.67E-15,1.67E-15,1.67E-15,1.67E-15,1.67E-15,6.98E-16,6.98E-16,6.98E-16,6.98E-16,6.98E-16,6.98E-16,6.98E-16,6.98E-16,6.98E-16,6.98E-16,6.98E-16,6.98E-16,6.98E-16,2.56E-15,2.56E-15,2.56E-15,2.56E-15,2.56E-15,2.56E-15,2.56E-15,2.56E-15,2.56E-15,1.24E-15,1.24E-15,1.24E-15,1.24E-15,1.24E-15,1.24E-15,1.24E-15,1.24E-15,1.24E-15,1.24E-15
GADM-TUR,1.52E-14,1.52E-14,2.86E-14,2.86E-14,1.68E-14,1.68E-14,1.68E-14,1.68E-14,1.68E-14,1.68E-14,1.68E-14,1.68E-14,1.68E-14,1.68E-14,1.68E-14,1.68E-14,1.68E-14,1.39E-14,1.39E-14,1.39E-14,1.39E-14,1.39E-14,1.39E-14,1.39E-14,1.39E-14,1.39E-14,1.39E-14,1.39E-14,1.39E-14,1.39E-14,2.58E-14,2.58E-14,2.58E-14,2.58E-14,2.58E-14,2.58E-14,2.58E-14,2.58E-14,2.58E-14,1.25E-14,1.25E-14,1.25E-14,1.25E-14,1.25E-14,1.25E-14,1.25E-14,1.25E-14,1.25E-14,1.25E-14
GADM-TKM,1.45E-13,1.45E-13,2.73E-13,2.73E-13,5.79E-14,5.79E-14,5.79E-14,5.79E-14,5.79E-14,5.79E-14,5.79E-14,5.79E-14,5.79E-14,5.79E-14,5.79E-14,5.79E-14,5.79E-14,6.18E-14,6.18E-14,6.18E-14,6.18E-14,6.18E-14,6.18E-14,6.18E-14,6.18E-14,6.18E-14,6.18E-14,6.18E-14,6.18E-14,6.18E-14,8.88E-14,8.88E-14,8.88E-14,8.88E-14,8.88E-14,8.88E-14,8.88E-14,8.88E-14,8.88E-14,4.3E-14,4.3E-14,4.3E-14,4.3E-14,4.3E-14,4.3E-14,4.3E-14,4.3E-14,4.3E-14,4.3E-14
GADM-UGA,1.69E-15,1.69E-15,3.18E-15,3.18E-15,1.27E-15,1.27E-15,1.27E-15,1.27E-15,1.27E-15,1.27E-15,1.27E-15,1.27E-15,1.27E-15,1.27E-15,1.27E-15,1.27E-15,1.27E-15,1.25E-15,1.25E-15,1.25E-15,1.25E-15,1.25E-15,1.25E-15,1.25E-15,1.25E-15,1.25E-15,1.25E-15,1.25E-15,1.25E-15,1.25E-15,1.95E-15,1.95E-15,1.95E-15,1.95E-15,1.95E-15,1.95E-15,1.95E-15,1.95E-15,1.95E-15,9.42E-16,9.42E-16,9.42E-16,9.42E-16,9.42E-16,9.42E-16,9.42E-16,9.42E-16,9.42E-16,9.42E-16
GADM-UKR,3.78E-17,3.78E-17,7.12E-17,7.12E-17,6.49E-17,6.49E-17,6.49E-17,6.49E-17,6.49E-17,6.49E-17,6.49E-17,6.49E-17,6.49E-17,6.49E-17,6.49E-17,6.49E-17,6.49E-17,3.74E-17,3.74E-17,3.74E-17,3.74E-17,3.74E-17,3.74E-17,3.74E-17,3.74E-17,3.74E-17,3.74E-17,3.74E-17,3.74E-17,3.74E-17,9.95E-17,9.95E-17,9.95E-17,9.95E-17,9.95E-17,9.95E-17,9.95E-17,9.95E-17,9.95E-17,4.82E-17,4.82E-17,4.82E-17,4.82E-17,4.82E-17,4.82E-17,4.82E-17,4.82E-17,4.82E-17,4.82E-17
GADM-ARE,4.53E-12,4.53E-12,8.53E-12,8.53E-12,2.62E-12,2.62E-12,2.62E-12,2.62E-12,2.62E-12,2.62E-12,2.62E-12,2.62E-12,2.62E-12,2.62E-12,2.62E-12,2.62E-12,2.62E-12,4.83E-13,4.83E-13,4.83E-13,4.83E-13,4.83E-13,4.83E-13,4.83E-13,4.83E-13,4.83E-13,4.83E-13,4.83E-13,4.83E-13,4.83E-13,4.02E-12,4.02E-12,4.02E-12,4.02E-12,4.02E-12,4.02E-12,4.02E-12,4.02E-12,4.02E-12,1.94E-12,1.94E-12,1.94E-12,1.94E-12,1.94E-12,1.94E-12,1.94E-12,1.94E-12,1.94E-12,1.94E-12
GADM-GBR,6.89E-18,6.89E-18,1.3E-17,1.3E-17,7.54E-18,7.54E-18,7.54E-18,7.54E-18,7.54E-18,7.54E-18,7.54E-18,7.54E-18,7.54E-18,7.54E-18,7.54E-18,7.54E-18,7.54E-18,1.59E-17,1.59E-17,1.59E-17,1.59E-17,1.59E-17,1.59E-17,1.59E-17,1.59E-17,1.59E-17,1.59E-17,1.59E-17,1.59E-17,1.59E-17,1.16E-17,1.16E-17,1.16E-17,1.16E-17,1.16E-17,1.16E-17,1.16E-17,1.16E-17,1.16E-17,5.59E-18,5.59E-18,5.59E-18,5.59E-18,5.59E-18,5.59E-18,5.59E-18,5.59E-18,5.59E-18,5.59E-18
GADM-TZA,6.03E-16,6.03E-16,1.14E-15,1.14E-15,4.24E-16,4.24E-16,4.24E-16,4.24E-16,4.24E-16,4.24E-16,4.24E-16,4.24E-16,4.24E-16,4.24E-16,4.24E-16,4.24E-16,4.24E-16,4.65E-16,4.65E-16,4.65E-16,4.65E-16,4.65E-16,4.65E-16,4.65E-16,4.65E-16,4.65E-16,4.65E-16,4.65E-16,4.65E-16,4.65E-16,6.5E-16,6.5E-16,6.5E-16,6.5E-16,6.5E-16,6.5E-16,6.5E-16,6.5E-16,6.5E-16,3.15E-16,3.15E-16,3.15E-16,3.15E-16,3.15E-16,3.15E-16,3.15E-16,3.15E-16,3.15E-16,3.15E-16
GADM-USA,6.76E-16,6.76E-16,1.27E-15,1.27E-15,3.22E-16,3.22E-16,3.22E-16,3.22E-16,3.22E-16,3.22E-16,3.22E-16,3.22E-16,3.22E-16,3.22E-16,3.22E-16,3.22E-16,3.22E-16,3.03E-16,3.03E-16,3.03E-16,3.03E-16,3.03E-16,3.03E-16,3.03E-16,3.03E-16,3.03E-16,3.03E-16,3.03E-16,3.03E-16,3.03E-16,4.94E-16,4.94E-16,4.94E-16,4.94E-16,4.94E-16,4.94E-16,4.94E-16,4.94E-16,4.94E-16,2.39E-16,2.39E-16,2.39E-16,2.39E-16,2.39E-16,2.39E-16,2.39E-16,2.39E-16,2.39E-16,2.39E-16
GADM-URY,8.95E-16,8.95E-16,1.68E-15,1.68E-15,1.96E-16,1.96E-16,1.96E-16,1.96E-16,1.96E-16,1.96E-16,1.96E-16,1.96E-16,1.96E-16,1.96E-16,1.96E-16,1.96E-16,1.96E-16,3.05E-16,3.05E-16,3.05E-16,3.05E-16,3.05E-16,3.05E-16,3.05E-16,3.05E-16,3.05E-16,3.05E-16,3.05E-16,3.05E-16,3.05E-16,3.01E-16,3.01E-16,3.01E-16,3.01E-16,3.01E-16,3.01E-16,3.01E-16,3.01E-16,3.01E-16,1.45E-16,1.45E-16,1.45E-16,1.45E-16,1.45E-16,1.45E-16,1.45E-16,1.45E-16,1.45E-16,1.45E-16
GADM-VIR,0,0,0,0,0,0,0,0,0,0,0,0,0,0,0,0,0,0,0,0,0,0,0,0,0,0,0,0,0,0,0,0,0,0,0,0,0,0,0,0,0,0,0,0,0,0,0,0,0
GADM-UZB,3.06E-13,3.06E-13,5.76E-13,5.76E-13,1.33E-13,1.33E-13,1.33E-13,1.33E-13,1.33E-13,1.33E-13,1.33E-13,1.33E-13,1.33E-13,1.33E-13,1.33E-13,1.33E-13,1.33E-13,1.7E-13,1.7E-13,1.7E-13,1.7E-13,1.7E-13,1.7E-13,1.7E-13,1.7E-13,1.7E-13,1.7E-13,1.7E-13,1.7E-13,1.7E-13,2.04E-13,2.04E-13,2.04E-13,2.04E-13,2.04E-13,2.04E-13,2.04E-13,2.04E-13,2.04E-13,9.87E-14,9.87E-14,9.87E-14,9.87E-14,9.87E-14,9.87E-14,9.87E-14,9.87E-14,9.87E-14,9.87E-14
GADM-VEN,3.26E-15,3.26E-15,6.14E-15,6.14E-15,7.76E-16,7.76E-16,7.76E-16,7.76E-16,7.76E-16,7.76E-16,7.76E-16,7.76E-16,7.76E-16,7.76E-16,7.76E-16,7.76E-16,7.76E-16,4.68E-16,4.68E-16,4.68E-16,4.68E-16,4.68E-16,4.68E-16,4.68E-16,4.68E-16,4.68E-16,4.68E-16,4.68E-16,4.68E-16,4.68E-16,1.19E-15,1.19E-15,1.19E-15,1.19E-15,1.19E-15,1.19E-15,1.19E-15,1.19E-15,1.19E-15,5.76E-16,5.76E-16,5.76E-16,5.76E-16,5.76E-16,5.76E-16,5.76E-16,5.76E-16,5.76E-16,5.76E-16
GADM-VNM,2.08E-16,2.08E-16,3.92E-16,3.92E-16,9.75E-17,9.75E-17,9.75E-17,9.75E-17,9.75E-17,9.75E-17,9.75E-17,9.75E-17,9.75E-17,9.75E-17,9.75E-17,9.75E-17,9.75E-17,2.5E-16,2.5E-16,2.5E-16,2.5E-16,2.5E-16,2.5E-16,2.5E-16,2.5E-16,2.5E-16,2.5E-16,2.5E-16,2.5E-16,2.5E-16,1.49E-16,1.49E-16,1.49E-16,1.49E-16,1.49E-16,1.49E-16,1.49E-16,1.49E-16,1.49E-16,7.23E-17,7.23E-17,7.23E-17,7.23E-17,7.23E-17,7.23E-17,7.23E-17,7.23E-17,7.23E-17,7.23E-17
GADM-YEM,5.56E-15,5.56E-15,1.05E-14,1.05E-14,7.64E-14,7.64E-14,7.64E-14,7.64E-14,7.64E-14,7.64E-14,7.64E-14,7.64E-14,7.64E-14,7.64E-14,7.64E-14,7.64E-14,7.64E-14,6.88E-14,6.88E-14,6.88E-14,6.88E-14,6.88E-14,6.88E-14,6.88E-14,6.88E-14,6.88E-14,6.88E-14,6.88E-14,6.88E-14,6.88E-14,1.17E-13,1.17E-13,1.17E-13,1.17E-13,1.17E-13,1.17E-13,1.17E-13,1.17E-13,1.17E-13,5.67E-14,5.67E-14,5.67E-14,5.67E-14,5.67E-14,5.67E-14,5.67E-14,5.67E-14,5.67E-14,5.67E-14
GADM-ZMB,1.41E-16,1.41E-16,2.65E-16,2.65E-16,7.49E-16,7.49E-16,7.49E-16,7.49E-16,7.49E-16,7.49E-16,7.49E-16,7.49E-16,7.49E-16,7.49E-16,7.49E-16,7.49E-16,7.49E-16,6.26E-16,6.26E-16,6.26E-16,6.26E-16,6.26E-16,6.26E-16,6.26E-16,6.26E-16,6.26E-16,6.26E-16,6.26E-16,6.26E-16,6.26E-16,1.15E-15,1.15E-15,1.15E-15,1.15E-15,1.15E-15,1.15E-15,1.15E-15,1.15E-15,1.15E-15,5.56E-16,5.56E-16,5.56E-16,5.56E-16,5.56E-16,5.56E-16,5.56E-16,5.56E-16,5.56E-16,5.56E-16
GADM-ZWE,1.18E-16,1.18E-16,2.22E-16,2.22E-16,3.62E-16,3.62E-16,3.62E-16,3.62E-16,3.62E-16,3.62E-16,3.62E-16,3.62E-16,3.62E-16,3.62E-16,3.62E-16,3.62E-16,3.62E-16,6.02E-16,6.02E-16,6.02E-16,6.02E-16,6.02E-16,6.02E-16,6.02E-16,6.02E-16,6.02E-16,6.02E-16,6.02E-16,6.02E-16,6.02E-16,5.55E-16,5.55E-16,5.55E-16,5.55E-16,5.55E-16,5.55E-16,5.55E-16,5.55E-16,5.55E-16,2.69E-16,2.69E-16,2.69E-16,2.69E-16,2.69E-16,2.69E-16,2.69E-16,2.69E-16,2.69E-16,2.69E-16
region-africa,1.65E-14,1.65E-14,3.11E-14,3.11E-14,2.02E-14,2.02E-14,2.02E-14,2.02E-14,2.02E-14,2.02E-14,2.02E-14,2.02E-14,2.02E-14,2.02E-14,2.02E-14,2.02E-14,2.02E-14,1.22E-14,1.22E-14,1.22E-14,1.22E-14,1.22E-14,1.22E-14,1.22E-14,1.22E-14,1.22E-14,1.22E-14,1.22E-14,1.22E-14,1.22E-14,3.1E-14,3.1E-14,3.1E-14,3.1E-14,3.1E-14,3.1E-14,3.1E-14,3.1E-14,3.1E-14,1.5E-14,1.5E-14,1.5E-14,1.5E-14,1.5E-14,1.5E-14,1.5E-14,1.5E-14,1.5E-14,1.5E-14
region-asia,2.14E-14,2.14E-14,4.03E-14,4.03E-14,2.69E-14,2.69E-14,2.69E-14,2.69E-14,2.69E-14,2.69E-14,2.69E-14,2.69E-14,2.69E-14,2.69E-14,2.69E-14,2.69E-14,2.69E-14,5.73E-15,5.73E-15,5.73E-15,5.73E-15,5.73E-15,5.73E-15,5.73E-15,5.73E-15,5.73E-15,5.73E-15,5.73E-15,5.73E-15,5.73E-15,4.12E-14,4.12E-14,4.12E-14,4.12E-14,4.12E-14,4.12E-14,4.12E-14,4.12E-14,4.12E-14,2E-14,2E-14,2E-14,2E-14,2E-14,2E-14,2E-14,2E-14,2E-14,2E-14
region-europe,2.4E-14,2.4E-14,4.52E-14,4.52E-14,3.89E-14,3.89E-14,3.89E-14,3.89E-14,3.89E-14,3.89E-14,3.89E-14,3.89E-14,3.89E-14,3.89E-14,3.89E-14,3.89E-14,3.89E-14,1.21E-14,1.21E-14,1.21E-14,1.21E-14,1.21E-14,1.21E-14,1.21E-14,1.21E-14,1.21E-14,1.21E-14,1.21E-14,1.21E-14,1.21E-14,5.96E-14,5.96E-14,5.96E-14,5.96E-14,5.96E-14,5.96E-14,5.96E-14,5.96E-14,5.96E-14,2.89E-14,2.89E-14,2.89E-14,2.89E-14,2.89E-14,2.89E-14,2.89E-14,2.89E-14,2.89E-14,2.89E-14
region-northern-america,1.08E-13,1.08E-13,2.03E-13,2.03E-13,7.75E-15,7.75E-15,7.75E-15,7.75E-15,7.75E-15,7.75E-15,7.75E-15,7.75E-15,7.75E-15,7.75E-15,7.75E-15,7.75E-15,7.75E-15,1.82E-14,1.82E-14,1.82E-14,1.82E-14,1.82E-14,1.82E-14,1.82E-14,1.82E-14,1.82E-14,1.82E-14,1.82E-14,1.82E-14,1.82E-14,1.19E-14,1.19E-14,1.19E-14,1.19E-14,1.19E-14,1.19E-14,1.19E-14,1.19E-14,1.19E-14,5.75E-15,5.75E-15,5.75E-15,5.75E-15,5.75E-15,5.75E-15,5.75E-15,5.75E-15,5.75E-15,5.75E-15
region-oceania,4.6E-14,4.6E-14,8.66E-14,8.66E-14,9.58E-14,9.58E-14,9.58E-14,9.58E-14,9.58E-14,9.58E-14,9.58E-14,9.58E-14,9.58E-14,9.58E-14,9.58E-14,9.58E-14,9.58E-14,1.32E-14,1.32E-14,1.32E-14,1.32E-14,1.32E-14,1.32E-14,1.32E-14,1.32E-14,1.32E-14,1.32E-14,1.32E-14,1.32E-14,1.32E-14,1.47E-13,1.47E-13,1.47E-13,1.47E-13,1.47E-13,1.47E-13,1.47E-13,1.47E-13,1.47E-13,7.11E-14,7.11E-14,7.11E-14,7.11E-14,7.11E-14,7.11E-14,7.11E-14,7.11E-14,7.11E-14,7.11E-14
region-central-america,7.07E-13,7.07E-13,1.33E-12,1.33E-12,2.83E-14,2.83E-14,2.83E-14,2.83E-14,2.83E-14,2.83E-14,2.83E-14,2.83E-14,2.83E-14,2.83E-14,2.83E-14,2.83E-14,2.83E-14,2.23E-14,2.23E-14,2.23E-14,2.23E-14,2.23E-14,2.23E-14,2.23E-14,2.23E-14,2.23E-14,2.23E-14,2.23E-14,2.23E-14,2.23E-14,4.34E-14,4.34E-14,4.34E-14,4.34E-14,4.34E-14,4.34E-14,4.34E-14,4.34E-14,4.34E-14,2.1E-14,2.1E-14,2.1E-14,2.1E-14,2.1E-14,2.1E-14,2.1E-14,2.1E-14,2.1E-14,2.1E-14
region-south-america,7.07E-13,7.07E-13,1.33E-12,1.33E-12,2.83E-14,2.83E-14,2.83E-14,2.83E-14,2.83E-14,2.83E-14,2.83E-14,2.83E-14,2.83E-14,2.83E-14,2.83E-14,2.83E-14,2.83E-14,2.23E-14,2.23E-14,2.23E-14,2.23E-14,2.23E-14,2.23E-14,2.23E-14,2.23E-14,2.23E-14,2.23E-14,2.23E-14,2.23E-14,2.23E-14,4.34E-14,4.34E-14,4.34E-14,4.34E-14,4.34E-14,4.34E-14,4.34E-14,4.34E-14,4.34E-14,2.1E-14,2.1E-14,2.1E-14,2.1E-14,2.1E-14,2.1E-14,2.1E-14,2.1E-14,2.1E-14,2.1E-14
region-world,5.27E-14,5.27E-14,9.92E-14,9.92E-14,2.46E-14,2.46E-14,2.46E-14,2.46E-14,2.46E-14,2.46E-14,2.46E-14,2.46E-14,2.46E-14,2.46E-14,2.46E-14,2.46E-14,2.46E-14,1.04E-14,1.04E-14,1.04E-14,1.04E-14,1.04E-14,1.04E-14,1.04E-14,1.04E-14,1.04E-14,1.04E-14,1.04E-14,1.04E-14,1.04E-14,3.77E-14,3.77E-14,3.77E-14,3.77E-14,3.77E-14,3.77E-14,3.77E-14,3.77E-14,3.77E-14,1.83E-14,1.83E-14,1.83E-14,1.83E-14,1.83E-14,1.83E-14,1.83E-14,1.83E-14,1.83E-14,1.83E-14
