term.id,noxToAirAquacultureSystems,noxToAirCropResidueBurning,noxToAirCropResidueDecomposition,noxToAirExcreta,noxToAirFuelCombustion,noxToAirInorganicFertiliser,noxToAirInputsProduction,noxToAirNaturalVegetationBurning,noxToAirOrganicFertiliser,noxToAirOrganicSoilBurning,noxToAirOrganicSoilCultivation,noxToAirSoilFlux,noxToAirWasteTreatment,nmvocToAirAnimalHousing,nmvocToAirExcreta,nmvocToAirFuelCombustion,nmvocToAirInputsProduction,nmvocToAirSilageFeeding,nmvocToAirSilageStorage,nmvocToAirWasteTreatment
GADM-AFG,2.9E-15,2.9E-15,2.9E-15,2.9E-15,2.9E-15,2.9E-15,2.9E-15,2.9E-15,2.9E-15,2.9E-15,2.9E-15,2.9E-15,2.9E-15,1.1E-16,1.1E-16,1.1E-16,1.1E-16,1.1E-16,1.1E-16,1.1E-16
GADM-ALB,2.1E-15,2.1E-15,2.1E-15,2.1E-15,2.1E-15,2.1E-15,2.1E-15,2.1E-15,2.1E-15,2.1E-15,2.1E-15,2.1E-15,2.1E-15,4.9E-16,4.9E-16,4.9E-16,4.9E-16,4.9E-16,4.9E-16,4.9E-16
GADM-DZA,4.9E-15,4.9E-15,4.9E-15,4.9E-15,4.9E-15,4.9E-15,4.9E-15,4.9E-15,4.9E-15,4.9E-15,4.9E-15,4.9E-15,4.9E-15,7.7E-16,7.7E-16,7.7E-16,7.7E-16,7.7E-16,7.7E-16,7.7E-16
GADM-AGO,1.9E-16,1.9E-16,1.9E-16,1.9E-16,1.9E-16,1.9E-16,1.9E-16,1.9E-16,1.9E-16,1.9E-16,1.9E-16,1.9E-16,1.9E-16,2.6E-17,2.6E-17,2.6E-17,2.6E-17,2.6E-17,2.6E-17,2.6E-17
GADM-ARG,9.5E-16,9.5E-16,9.5E-16,9.5E-16,9.5E-16,9.5E-16,9.5E-16,9.5E-16,9.5E-16,9.5E-16,9.5E-16,9.5E-16,9.5E-16,-1.8E-17,-1.8E-17,-1.8E-17,-1.8E-17,-1.8E-17,-1.8E-17,-1.8E-17
GADM-ARM,1.1E-15,1.1E-15,1.1E-15,1.1E-15,1.1E-15,1.1E-15,1.1E-15,1.1E-15,1.1E-15,1.1E-15,1.1E-15,1.1E-15,1.1E-15,4.4E-16,4.4E-16,4.4E-16,4.4E-16,4.4E-16,4.4E-16,4.4E-16
GADM-ABW,7.2E-15,7.2E-15,7.2E-15,7.2E-15,7.2E-15,7.2E-15,7.2E-15,7.2E-15,7.2E-15,7.2E-15,7.2E-15,7.2E-15,7.2E-15,3E-16,3E-16,3E-16,3E-16,3E-16,3E-16,3E-16
GADM-AUS,1.1E-16,1.1E-16,1.1E-16,1.1E-16,1.1E-16,1.1E-16,1.1E-16,1.1E-16,1.1E-16,1.1E-16,1.1E-16,1.1E-16,1.1E-16,2.4E-17,2.4E-17,2.4E-17,2.4E-17,2.4E-17,2.4E-17,2.4E-17
GADM-AUT,1E-15,1E-15,1E-15,1E-15,1E-15,1E-15,1E-15,1E-15,1E-15,1E-15,1E-15,1E-15,1E-15,7.7E-16,7.7E-16,7.7E-16,7.7E-16,7.7E-16,7.7E-16,7.7E-16
GADM-AZE,1.1E-15,1.1E-15,1.1E-15,1.1E-15,1.1E-15,1.1E-15,1.1E-15,1.1E-15,1.1E-15,1.1E-15,1.1E-15,1.1E-15,1.1E-15,4.4E-16,4.4E-16,4.4E-16,4.4E-16,4.4E-16,4.4E-16,4.4E-16
GADM-BHS,7.2E-15,7.2E-15,7.2E-15,7.2E-15,7.2E-15,7.2E-15,7.2E-15,7.2E-15,7.2E-15,7.2E-15,7.2E-15,7.2E-15,7.2E-15,3E-16,3E-16,3E-16,3E-16,3E-16,3E-16,3E-16
GADM-BHR,1.6E-15,1.6E-15,1.6E-15,1.6E-15,1.6E-15,1.6E-15,1.6E-15,1.6E-15,1.6E-15,1.6E-15,1.6E-15,1.6E-15,1.6E-15,2E-16,2E-16,2E-16,2E-16,2E-16,2E-16,2E-16
GADM-BGD,2.9E-15,2.9E-15,2.9E-15,2.9E-15,2.9E-15,2.9E-15,2.9E-15,2.9E-15,2.9E-15,2.9E-15,2.9E-15,2.9E-15,2.9E-15,1.1E-16,1.1E-16,1.1E-16,1.1E-16,1.1E-16,1.1E-16,1.1E-16
GADM-BRB,7.2E-15,7.2E-15,7.2E-15,7.2E-15,7.2E-15,7.2E-15,7.2E-15,7.2E-15,7.2E-15,7.2E-15,7.2E-15,7.2E-15,7.2E-15,3E-16,3E-16,3E-16,3E-16,3E-16,3E-16,3E-16
GADM-BLR,9.3E-16,9.3E-16,9.3E-16,9.3E-16,9.3E-16,9.3E-16,9.3E-16,9.3E-16,9.3E-16,9.3E-16,9.3E-16,9.3E-16,9.3E-16,5E-16,5E-16,5E-16,5E-16,5E-16,5E-16,5E-16
GADM-BEL,2.9E-16,2.9E-16,2.9E-16,2.9E-16,2.9E-16,2.9E-16,2.9E-16,2.9E-16,2.9E-16,2.9E-16,2.9E-16,2.9E-16,2.9E-16,6.2E-16,6.2E-16,6.2E-16,6.2E-16,6.2E-16,6.2E-16,6.2E-16
GADM-BLZ,7.2E-15,7.2E-15,7.2E-15,7.2E-15,7.2E-15,7.2E-15,7.2E-15,7.2E-15,7.2E-15,7.2E-15,7.2E-15,7.2E-15,7.2E-15,3E-16,3E-16,3E-16,3E-16,3E-16,3E-16,3E-16
GADM-BEN,2.4E-16,2.4E-16,2.4E-16,2.4E-16,2.4E-16,2.4E-16,2.4E-16,2.4E-16,2.4E-16,2.4E-16,2.4E-16,2.4E-16,2.4E-16,5.6E-17,5.6E-17,5.6E-17,5.6E-17,5.6E-17,5.6E-17,5.6E-17
GADM-BTN,2.9E-15,2.9E-15,2.9E-15,2.9E-15,2.9E-15,2.9E-15,2.9E-15,2.9E-15,2.9E-15,2.9E-15,2.9E-15,2.9E-15,2.9E-15,1.1E-16,1.1E-16,1.1E-16,1.1E-16,1.1E-16,1.1E-16,1.1E-16
GADM-BOL,1.6E-15,1.6E-15,1.6E-15,1.6E-15,1.6E-15,1.6E-15,1.6E-15,1.6E-15,1.6E-15,1.6E-15,1.6E-15,1.6E-15,1.6E-15,2.5E-17,2.5E-17,2.5E-17,2.5E-17,2.5E-17,2.5E-17,2.5E-17
GADM-BIH,2.1E-15,2.1E-15,2.1E-15,2.1E-15,2.1E-15,2.1E-15,2.1E-15,2.1E-15,2.1E-15,2.1E-15,2.1E-15,2.1E-15,2.1E-15,4.9E-16,4.9E-16,4.9E-16,4.9E-16,4.9E-16,4.9E-16,4.9E-16
GADM-BWA,1.9E-16,1.9E-16,1.9E-16,1.9E-16,1.9E-16,1.9E-16,1.9E-16,1.9E-16,1.9E-16,1.9E-16,1.9E-16,1.9E-16,1.9E-16,2.6E-17,2.6E-17,2.6E-17,2.6E-17,2.6E-17,2.6E-17,2.6E-17
GADM-BRA,2.5E-15,2.5E-15,2.5E-15,2.5E-15,2.5E-15,2.5E-15,2.5E-15,2.5E-15,2.5E-15,2.5E-15,2.5E-15,2.5E-15,2.5E-15,5.8E-17,5.8E-17,5.8E-17,5.8E-17,5.8E-17,5.8E-17,5.8E-17
GADM-BRN,1.9E-15,1.9E-15,1.9E-15,1.9E-15,1.9E-15,1.9E-15,1.9E-15,1.9E-15,1.9E-15,1.9E-15,1.9E-15,1.9E-15,1.9E-15,5.1E-17,5.1E-17,5.1E-17,5.1E-17,5.1E-17,5.1E-17,5.1E-17
GADM-BGR,1.5E-15,1.5E-15,1.5E-15,1.5E-15,1.5E-15,1.5E-15,1.5E-15,1.5E-15,1.5E-15,1.5E-15,1.5E-15,1.5E-15,1.5E-15,5.8E-16,5.8E-16,5.8E-16,5.8E-16,5.8E-16,5.8E-16,5.8E-16
GADM-BFA,2.4E-16,2.4E-16,2.4E-16,2.4E-16,2.4E-16,2.4E-16,2.4E-16,2.4E-16,2.4E-16,2.4E-16,2.4E-16,2.4E-16,2.4E-16,5.6E-17,5.6E-17,5.6E-17,5.6E-17,5.6E-17,5.6E-17,5.6E-17
GADM-BDI,4.3E-16,4.3E-16,4.3E-16,4.3E-16,4.3E-16,4.3E-16,4.3E-16,4.3E-16,4.3E-16,4.3E-16,4.3E-16,4.3E-16,4.3E-16,5.4E-17,5.4E-17,5.4E-17,5.4E-17,5.4E-17,5.4E-17,5.4E-17
GADM-KHM,8.3E-16,8.3E-16,8.3E-16,8.3E-16,8.3E-16,8.3E-16,8.3E-16,8.3E-16,8.3E-16,8.3E-16,8.3E-16,8.3E-16,8.3E-16,9.7E-17,9.7E-17,9.7E-17,9.7E-17,9.7E-17,9.7E-17,9.7E-17
GADM-CMR,2.4E-16,2.4E-16,2.4E-16,2.4E-16,2.4E-16,2.4E-16,2.4E-16,2.4E-16,2.4E-16,2.4E-16,2.4E-16,2.4E-16,2.4E-16,5.6E-17,5.6E-17,5.6E-17,5.6E-17,5.6E-17,5.6E-17,5.6E-17
GADM-CAN,5.9E-16,5.9E-16,5.9E-16,5.9E-16,5.9E-16,5.9E-16,5.9E-16,5.9E-16,5.9E-16,5.9E-16,5.9E-16,5.9E-16,5.9E-16,2.6E-16,2.6E-16,2.6E-16,2.6E-16,2.6E-16,2.6E-16,2.6E-16
GADM-CPV,2.4E-16,2.4E-16,2.4E-16,2.4E-16,2.4E-16,2.4E-16,2.4E-16,2.4E-16,2.4E-16,2.4E-16,2.4E-16,2.4E-16,2.4E-16,5.6E-17,5.6E-17,5.6E-17,5.6E-17,5.6E-17,5.6E-17,5.6E-17
GADM-CAF,4.3E-16,4.3E-16,4.3E-16,4.3E-16,4.3E-16,4.3E-16,4.3E-16,4.3E-16,4.3E-16,4.3E-16,4.3E-16,4.3E-16,4.3E-16,5.4E-17,5.4E-17,5.4E-17,5.4E-17,5.4E-17,5.4E-17,5.4E-17
GADM-TCD,4.3E-16,4.3E-16,4.3E-16,4.3E-16,4.3E-16,4.3E-16,4.3E-16,4.3E-16,4.3E-16,4.3E-16,4.3E-16,4.3E-16,4.3E-16,5.4E-17,5.4E-17,5.4E-17,5.4E-17,5.4E-17,5.4E-17,5.4E-17
GADM-CHL,1.1E-15,1.1E-15,1.1E-15,1.1E-15,1.1E-15,1.1E-15,1.1E-15,1.1E-15,1.1E-15,1.1E-15,1.1E-15,1.1E-15,1.1E-15,1.3E-16,1.3E-16,1.3E-16,1.3E-16,1.3E-16,1.3E-16,1.3E-16
GADM-CHN,3.9E-17,3.9E-17,3.9E-17,3.9E-17,3.9E-17,3.9E-17,3.9E-17,3.9E-17,3.9E-17,3.9E-17,3.9E-17,3.9E-17,3.9E-17,2.9E-16,2.9E-16,2.9E-16,2.9E-16,2.9E-16,2.9E-16,2.9E-16
GADM-HKG,3.9E-17,3.9E-17,3.9E-17,3.9E-17,3.9E-17,3.9E-17,3.9E-17,3.9E-17,3.9E-17,3.9E-17,3.9E-17,3.9E-17,3.9E-17,2.9E-16,2.9E-16,2.9E-16,2.9E-16,2.9E-16,2.9E-16,2.9E-16
GADM-COL,1.6E-15,1.6E-15,1.6E-15,1.6E-15,1.6E-15,1.6E-15,1.6E-15,1.6E-15,1.6E-15,1.6E-15,1.6E-15,1.6E-15,1.6E-15,2.5E-17,2.5E-17,2.5E-17,2.5E-17,2.5E-17,2.5E-17,2.5E-17
GADM-COM,4.3E-16,4.3E-16,4.3E-16,4.3E-16,4.3E-16,4.3E-16,4.3E-16,4.3E-16,4.3E-16,4.3E-16,4.3E-16,4.3E-16,4.3E-16,5.4E-17,5.4E-17,5.4E-17,5.4E-17,5.4E-17,5.4E-17,5.4E-17
GADM-COG,2.4E-16,2.4E-16,2.4E-16,2.4E-16,2.4E-16,2.4E-16,2.4E-16,2.4E-16,2.4E-16,2.4E-16,2.4E-16,2.4E-16,2.4E-16,5.6E-17,5.6E-17,5.6E-17,5.6E-17,5.6E-17,5.6E-17,5.6E-17
GADM-CRI,7.2E-15,7.2E-15,7.2E-15,7.2E-15,7.2E-15,7.2E-15,7.2E-15,7.2E-15,7.2E-15,7.2E-15,7.2E-15,7.2E-15,7.2E-15,3E-16,3E-16,3E-16,3E-16,3E-16,3E-16,3E-16
GADM-CIV,2.4E-16,2.4E-16,2.4E-16,2.4E-16,2.4E-16,2.4E-16,2.4E-16,2.4E-16,2.4E-16,2.4E-16,2.4E-16,2.4E-16,2.4E-16,5.6E-17,5.6E-17,5.6E-17,5.6E-17,5.6E-17,5.6E-17,5.6E-17
GADM-HRV,2.1E-15,2.1E-15,2.1E-15,2.1E-15,2.1E-15,2.1E-15,2.1E-15,2.1E-15,2.1E-15,2.1E-15,2.1E-15,2.1E-15,2.1E-15,4.9E-16,4.9E-16,4.9E-16,4.9E-16,4.9E-16,4.9E-16,4.9E-16
GADM-CUB,7.2E-15,7.2E-15,7.2E-15,7.2E-15,7.2E-15,7.2E-15,7.2E-15,7.2E-15,7.2E-15,7.2E-15,7.2E-15,7.2E-15,7.2E-15,3E-16,3E-16,3E-16,3E-16,3E-16,3E-16,3E-16
GADM-CYP,2.4E-15,2.4E-15,2.4E-15,2.4E-15,2.4E-15,2.4E-15,2.4E-15,2.4E-15,2.4E-15,2.4E-15,2.4E-15,2.4E-15,2.4E-15,8.2E-16,8.2E-16,8.2E-16,8.2E-16,8.2E-16,8.2E-16,8.2E-16
GADM-CZE,6.2E-16,6.2E-16,6.2E-16,6.2E-16,6.2E-16,6.2E-16,6.2E-16,6.2E-16,6.2E-16,6.2E-16,6.2E-16,6.2E-16,6.2E-16,6.1E-16,6.1E-16,6.1E-16,6.1E-16,6.1E-16,6.1E-16,6.1E-16
GADM-PRK,1.4E-15,1.4E-15,1.4E-15,1.4E-15,1.4E-15,1.4E-15,1.4E-15,1.4E-15,1.4E-15,1.4E-15,1.4E-15,1.4E-15,1.4E-15,-2.6E-16,-2.6E-16,-2.6E-16,-2.6E-16,-2.6E-16,-2.6E-16,-2.6E-16
GADM-COD,4.3E-16,4.3E-16,4.3E-16,4.3E-16,4.3E-16,4.3E-16,4.3E-16,4.3E-16,4.3E-16,4.3E-16,4.3E-16,4.3E-16,4.3E-16,5.4E-17,5.4E-17,5.4E-17,5.4E-17,5.4E-17,5.4E-17,5.4E-17
GADM-DNK,3.9E-16,3.9E-16,3.9E-16,3.9E-16,3.9E-16,3.9E-16,3.9E-16,3.9E-16,3.9E-16,3.9E-16,3.9E-16,3.9E-16,3.9E-16,4.1E-16,4.1E-16,4.1E-16,4.1E-16,4.1E-16,4.1E-16,4.1E-16
GADM-DJI,4.3E-16,4.3E-16,4.3E-16,4.3E-16,4.3E-16,4.3E-16,4.3E-16,4.3E-16,4.3E-16,4.3E-16,4.3E-16,4.3E-16,4.3E-16,5.4E-17,5.4E-17,5.4E-17,5.4E-17,5.4E-17,5.4E-17,5.4E-17
GADM-DOM,7.2E-15,7.2E-15,7.2E-15,7.2E-15,7.2E-15,7.2E-15,7.2E-15,7.2E-15,7.2E-15,7.2E-15,7.2E-15,7.2E-15,7.2E-15,3E-16,3E-16,3E-16,3E-16,3E-16,3E-16,3E-16
GADM-ECU,1.6E-15,1.6E-15,1.6E-15,1.6E-15,1.6E-15,1.6E-15,1.6E-15,1.6E-15,1.6E-15,1.6E-15,1.6E-15,1.6E-15,1.6E-15,2.5E-17,2.5E-17,2.5E-17,2.5E-17,2.5E-17,2.5E-17,2.5E-17
GADM-EGY,5.2E-16,5.2E-16,5.2E-16,5.2E-16,5.2E-16,5.2E-16,5.2E-16,5.2E-16,5.2E-16,5.2E-16,5.2E-16,5.2E-16,5.2E-16,2.6E-16,2.6E-16,2.6E-16,2.6E-16,2.6E-16,2.6E-16,2.6E-16
GADM-SLV,7.2E-15,7.2E-15,7.2E-15,7.2E-15,7.2E-15,7.2E-15,7.2E-15,7.2E-15,7.2E-15,7.2E-15,7.2E-15,7.2E-15,7.2E-15,3E-16,3E-16,3E-16,3E-16,3E-16,3E-16,3E-16
GADM-GNQ,2.4E-16,2.4E-16,2.4E-16,2.4E-16,2.4E-16,2.4E-16,2.4E-16,2.4E-16,2.4E-16,2.4E-16,2.4E-16,2.4E-16,2.4E-16,5.6E-17,5.6E-17,5.6E-17,5.6E-17,5.6E-17,5.6E-17,5.6E-17
GADM-ERI,4.3E-16,4.3E-16,4.3E-16,4.3E-16,4.3E-16,4.3E-16,4.3E-16,4.3E-16,4.3E-16,4.3E-16,4.3E-16,4.3E-16,4.3E-16,5.4E-17,5.4E-17,5.4E-17,5.4E-17,5.4E-17,5.4E-17,5.4E-17
GADM-EST,6.3E-16,6.3E-16,6.3E-16,6.3E-16,6.3E-16,6.3E-16,6.3E-16,6.3E-16,6.3E-16,6.3E-16,6.3E-16,6.3E-16,6.3E-16,5.5E-16,5.5E-16,5.5E-16,5.5E-16,5.5E-16,5.5E-16,5.5E-16
GADM-ETH,4.3E-16,4.3E-16,4.3E-16,4.3E-16,4.3E-16,4.3E-16,4.3E-16,4.3E-16,4.3E-16,4.3E-16,4.3E-16,4.3E-16,4.3E-16,5.4E-17,5.4E-17,5.4E-17,5.4E-17,5.4E-17,5.4E-17,5.4E-17
GADM-FJI,2.2E-16,2.2E-16,2.2E-16,2.2E-16,2.2E-16,2.2E-16,2.2E-16,2.2E-16,2.2E-16,2.2E-16,2.2E-16,2.2E-16,2.2E-16,2E-17,2E-17,2E-17,2E-17,2E-17,2E-17,2E-17
GADM-FIN,2.6E-16,2.6E-16,2.6E-16,2.6E-16,2.6E-16,2.6E-16,2.6E-16,2.6E-16,2.6E-16,2.6E-16,2.6E-16,2.6E-16,2.6E-16,3.6E-16,3.6E-16,3.6E-16,3.6E-16,3.6E-16,3.6E-16,3.6E-16
GADM-FRA,1.6E-15,1.6E-15,1.6E-15,1.6E-15,1.6E-15,1.6E-15,1.6E-15,1.6E-15,1.6E-15,1.6E-15,1.6E-15,1.6E-15,1.6E-15,8.3E-16,8.3E-16,8.3E-16,8.3E-16,8.3E-16,8.3E-16,8.3E-16
GADM-GUF,1.6E-15,1.6E-15,1.6E-15,1.6E-15,1.6E-15,1.6E-15,1.6E-15,1.6E-15,1.6E-15,1.6E-15,1.6E-15,1.6E-15,1.6E-15,2.5E-17,2.5E-17,2.5E-17,2.5E-17,2.5E-17,2.5E-17,2.5E-17
GADM-GAB,2.4E-16,2.4E-16,2.4E-16,2.4E-16,2.4E-16,2.4E-16,2.4E-16,2.4E-16,2.4E-16,2.4E-16,2.4E-16,2.4E-16,2.4E-16,5.6E-17,5.6E-17,5.6E-17,5.6E-17,5.6E-17,5.6E-17,5.6E-17
GADM-GMB,2.4E-16,2.4E-16,2.4E-16,2.4E-16,2.4E-16,2.4E-16,2.4E-16,2.4E-16,2.4E-16,2.4E-16,2.4E-16,2.4E-16,2.4E-16,5.6E-17,5.6E-17,5.6E-17,5.6E-17,5.6E-17,5.6E-17,5.6E-17
GADM-GEO,1.1E-15,1.1E-15,1.1E-15,1.1E-15,1.1E-15,1.1E-15,1.1E-15,1.1E-15,1.1E-15,1.1E-15,1.1E-15,1.1E-15,1.1E-15,4.4E-16,4.4E-16,4.4E-16,4.4E-16,4.4E-16,4.4E-16,4.4E-16
GADM-DEU,1.3E-15,1.3E-15,1.3E-15,1.3E-15,1.3E-15,1.3E-15,1.3E-15,1.3E-15,1.3E-15,1.3E-15,1.3E-15,1.3E-15,1.3E-15,6.3E-16,6.3E-16,6.3E-16,6.3E-16,6.3E-16,6.3E-16,6.3E-16
GADM-GHA,2.4E-16,2.4E-16,2.4E-16,2.4E-16,2.4E-16,2.4E-16,2.4E-16,2.4E-16,2.4E-16,2.4E-16,2.4E-16,2.4E-16,2.4E-16,5.6E-17,5.6E-17,5.6E-17,5.6E-17,5.6E-17,5.6E-17,5.6E-17
GADM-GRC,2.4E-15,2.4E-15,2.4E-15,2.4E-15,2.4E-15,2.4E-15,2.4E-15,2.4E-15,2.4E-15,2.4E-15,2.4E-15,2.4E-15,2.4E-15,8.2E-16,8.2E-16,8.2E-16,8.2E-16,8.2E-16,8.2E-16,8.2E-16
GADM-GRL,5.9E-16,5.9E-16,5.9E-16,5.9E-16,5.9E-16,5.9E-16,5.9E-16,5.9E-16,5.9E-16,5.9E-16,5.9E-16,5.9E-16,5.9E-16,2.6E-16,2.6E-16,2.6E-16,2.6E-16,2.6E-16,2.6E-16,2.6E-16
GADM-GRD,7.2E-15,7.2E-15,7.2E-15,7.2E-15,7.2E-15,7.2E-15,7.2E-15,7.2E-15,7.2E-15,7.2E-15,7.2E-15,7.2E-15,7.2E-15,3E-16,3E-16,3E-16,3E-16,3E-16,3E-16,3E-16
GADM-GLP,7.2E-15,7.2E-15,7.2E-15,7.2E-15,7.2E-15,7.2E-15,7.2E-15,7.2E-15,7.2E-15,7.2E-15,7.2E-15,7.2E-15,7.2E-15,3E-16,3E-16,3E-16,3E-16,3E-16,3E-16,3E-16
GADM-GTM,7.2E-15,7.2E-15,7.2E-15,7.2E-15,7.2E-15,7.2E-15,7.2E-15,7.2E-15,7.2E-15,7.2E-15,7.2E-15,7.2E-15,7.2E-15,3E-16,3E-16,3E-16,3E-16,3E-16,3E-16,3E-16
GADM-GIN,2.4E-16,2.4E-16,2.4E-16,2.4E-16,2.4E-16,2.4E-16,2.4E-16,2.4E-16,2.4E-16,2.4E-16,2.4E-16,2.4E-16,2.4E-16,5.6E-17,5.6E-17,5.6E-17,5.6E-17,5.6E-17,5.6E-17,5.6E-17
GADM-GNB,2.4E-16,2.4E-16,2.4E-16,2.4E-16,2.4E-16,2.4E-16,2.4E-16,2.4E-16,2.4E-16,2.4E-16,2.4E-16,2.4E-16,2.4E-16,5.6E-17,5.6E-17,5.6E-17,5.6E-17,5.6E-17,5.6E-17,5.6E-17
GADM-GUY,1.6E-15,1.6E-15,1.6E-15,1.6E-15,1.6E-15,1.6E-15,1.6E-15,1.6E-15,1.6E-15,1.6E-15,1.6E-15,1.6E-15,1.6E-15,2.5E-17,2.5E-17,2.5E-17,2.5E-17,2.5E-17,2.5E-17,2.5E-17
GADM-HTI,7.2E-15,7.2E-15,7.2E-15,7.2E-15,7.2E-15,7.2E-15,7.2E-15,7.2E-15,7.2E-15,7.2E-15,7.2E-15,7.2E-15,7.2E-15,3E-16,3E-16,3E-16,3E-16,3E-16,3E-16,3E-16
GADM-HND,7.2E-15,7.2E-15,7.2E-15,7.2E-15,7.2E-15,7.2E-15,7.2E-15,7.2E-15,7.2E-15,7.2E-15,7.2E-15,7.2E-15,7.2E-15,3E-16,3E-16,3E-16,3E-16,3E-16,3E-16,3E-16
GADM-HUN,1.1E-15,1.1E-15,1.1E-15,1.1E-15,1.1E-15,1.1E-15,1.1E-15,1.1E-15,1.1E-15,1.1E-15,1.1E-15,1.1E-15,1.1E-15,6E-16,6E-16,6E-16,6E-16,6E-16,6E-16,6E-16
GADM-ISL,7.7E-16,7.7E-16,7.7E-16,7.7E-16,7.7E-16,7.7E-16,7.7E-16,7.7E-16,7.7E-16,7.7E-16,7.7E-16,7.7E-16,7.7E-16,3.6E-16,3.6E-16,3.6E-16,3.6E-16,3.6E-16,3.6E-16,3.6E-16
GADM-IND,5.6E-16,5.6E-16,5.6E-16,5.6E-16,5.6E-16,5.6E-16,5.6E-16,5.6E-16,5.6E-16,5.6E-16,5.6E-16,5.6E-16,5.6E-16,2.1E-16,2.1E-16,2.1E-16,2.1E-16,2.1E-16,2.1E-16,2.1E-16
GADM-IDN,8E-16,8E-16,8E-16,8E-16,8E-16,8E-16,8E-16,8E-16,8E-16,8E-16,8E-16,8E-16,8E-16,2.6E-17,2.6E-17,2.6E-17,2.6E-17,2.6E-17,2.6E-17,2.6E-17
GADM-IRN,1.6E-15,1.6E-15,1.6E-15,1.6E-15,1.6E-15,1.6E-15,1.6E-15,1.6E-15,1.6E-15,1.6E-15,1.6E-15,1.6E-15,1.6E-15,2E-16,2E-16,2E-16,2E-16,2E-16,2E-16,2E-16
GADM-IRQ,1.6E-15,1.6E-15,1.6E-15,1.6E-15,1.6E-15,1.6E-15,1.6E-15,1.6E-15,1.6E-15,1.6E-15,1.6E-15,1.6E-15,1.6E-15,2E-16,2E-16,2E-16,2E-16,2E-16,2E-16,2E-16
GADM-IRL,3.6E-16,3.6E-16,3.6E-16,3.6E-16,3.6E-16,3.6E-16,3.6E-16,3.6E-16,3.6E-16,3.6E-16,3.6E-16,3.6E-16,3.6E-16,6E-16,6E-16,6E-16,6E-16,6E-16,6E-16,6E-16
GADM-ISR,9.7E-16,9.7E-16,9.7E-16,9.7E-16,9.7E-16,9.7E-16,9.7E-16,9.7E-16,9.7E-16,9.7E-16,9.7E-16,9.7E-16,9.7E-16,4.2E-16,4.2E-16,4.2E-16,4.2E-16,4.2E-16,4.2E-16,4.2E-16
GADM-ITA,1.9E-15,1.9E-15,1.9E-15,1.9E-15,1.9E-15,1.9E-15,1.9E-15,1.9E-15,1.9E-15,1.9E-15,1.9E-15,1.9E-15,1.9E-15,1.3E-15,1.3E-15,1.3E-15,1.3E-15,1.3E-15,1.3E-15,1.3E-15
GADM-JAM,7.2E-15,7.2E-15,7.2E-15,7.2E-15,7.2E-15,7.2E-15,7.2E-15,7.2E-15,7.2E-15,7.2E-15,7.2E-15,7.2E-15,7.2E-15,3E-16,3E-16,3E-16,3E-16,3E-16,3E-16,3E-16
GADM-JPN,1.1E-15,1.1E-15,1.1E-15,1.1E-15,1.1E-15,1.1E-15,1.1E-15,1.1E-15,1.1E-15,1.1E-15,1.1E-15,1.1E-15,1.1E-15,1E-15,1E-15,1E-15,1E-15,1E-15,1E-15,1E-15
GADM-JOR,9.7E-16,9.7E-16,9.7E-16,9.7E-16,9.7E-16,9.7E-16,9.7E-16,9.7E-16,9.7E-16,9.7E-16,9.7E-16,9.7E-16,9.7E-16,4.2E-16,4.2E-16,4.2E-16,4.2E-16,4.2E-16,4.2E-16,4.2E-16
GADM-KAZ,1.2E-15,1.2E-15,1.2E-15,1.2E-15,1.2E-15,1.2E-15,1.2E-15,1.2E-15,1.2E-15,1.2E-15,1.2E-15,1.2E-15,1.2E-15,2.8E-16,2.8E-16,2.8E-16,2.8E-16,2.8E-16,2.8E-16,2.8E-16
GADM-KEN,4.3E-16,4.3E-16,4.3E-16,4.3E-16,4.3E-16,4.3E-16,4.3E-16,4.3E-16,4.3E-16,4.3E-16,4.3E-16,4.3E-16,4.3E-16,5.4E-17,5.4E-17,5.4E-17,5.4E-17,5.4E-17,5.4E-17,5.4E-17
GADM-KWT,1.6E-15,1.6E-15,1.6E-15,1.6E-15,1.6E-15,1.6E-15,1.6E-15,1.6E-15,1.6E-15,1.6E-15,1.6E-15,1.6E-15,1.6E-15,2E-16,2E-16,2E-16,2E-16,2E-16,2E-16,2E-16
GADM-KGZ,2.4E-15,2.4E-15,2.4E-15,2.4E-15,2.4E-15,2.4E-15,2.4E-15,2.4E-15,2.4E-15,2.4E-15,2.4E-15,2.4E-15,2.4E-15,3.6E-16,3.6E-16,3.6E-16,3.6E-16,3.6E-16,3.6E-16,3.6E-16
GADM-LAO,8.3E-16,8.3E-16,8.3E-16,8.3E-16,8.3E-16,8.3E-16,8.3E-16,8.3E-16,8.3E-16,8.3E-16,8.3E-16,8.3E-16,8.3E-16,9.7E-17,9.7E-17,9.7E-17,9.7E-17,9.7E-17,9.7E-17,9.7E-17
GADM-LVA,6.3E-16,6.3E-16,6.3E-16,6.3E-16,6.3E-16,6.3E-16,6.3E-16,6.3E-16,6.3E-16,6.3E-16,6.3E-16,6.3E-16,6.3E-16,5.5E-16,5.5E-16,5.5E-16,5.5E-16,5.5E-16,5.5E-16,5.5E-16
GADM-LBN,9.7E-16,9.7E-16,9.7E-16,9.7E-16,9.7E-16,9.7E-16,9.7E-16,9.7E-16,9.7E-16,9.7E-16,9.7E-16,9.7E-16,9.7E-16,4.2E-16,4.2E-16,4.2E-16,4.2E-16,4.2E-16,4.2E-16,4.2E-16
GADM-LSO,3.7E-16,3.7E-16,3.7E-16,3.7E-16,3.7E-16,3.7E-16,3.7E-16,3.7E-16,3.7E-16,3.7E-16,3.7E-16,3.7E-16,3.7E-16,2E-16,2E-16,2E-16,2E-16,2E-16,2E-16,2E-16
GADM-LBR,2.4E-16,2.4E-16,2.4E-16,2.4E-16,2.4E-16,2.4E-16,2.4E-16,2.4E-16,2.4E-16,2.4E-16,2.4E-16,2.4E-16,2.4E-16,5.6E-17,5.6E-17,5.6E-17,5.6E-17,5.6E-17,5.6E-17,5.6E-17
GADM-LBY,4.9E-15,4.9E-15,4.9E-15,4.9E-15,4.9E-15,4.9E-15,4.9E-15,4.9E-15,4.9E-15,4.9E-15,4.9E-15,4.9E-15,4.9E-15,7.7E-16,7.7E-16,7.7E-16,7.7E-16,7.7E-16,7.7E-16,7.7E-16
GADM-LTU,6.3E-16,6.3E-16,6.3E-16,6.3E-16,6.3E-16,6.3E-16,6.3E-16,6.3E-16,6.3E-16,6.3E-16,6.3E-16,6.3E-16,6.3E-16,5.5E-16,5.5E-16,5.5E-16,5.5E-16,5.5E-16,5.5E-16,5.5E-16
GADM-LUX,2.9E-16,2.9E-16,2.9E-16,2.9E-16,2.9E-16,2.9E-16,2.9E-16,2.9E-16,2.9E-16,2.9E-16,2.9E-16,2.9E-16,2.9E-16,6.2E-16,6.2E-16,6.2E-16,6.2E-16,6.2E-16,6.2E-16,6.2E-16
GADM-MDG,4.3E-16,4.3E-16,4.3E-16,4.3E-16,4.3E-16,4.3E-16,4.3E-16,4.3E-16,4.3E-16,4.3E-16,4.3E-16,4.3E-16,4.3E-16,5.4E-17,5.4E-17,5.4E-17,5.4E-17,5.4E-17,5.4E-17,5.4E-17
GADM-MWI,1.9E-16,1.9E-16,1.9E-16,1.9E-16,1.9E-16,1.9E-16,1.9E-16,1.9E-16,1.9E-16,1.9E-16,1.9E-16,1.9E-16,1.9E-16,2.6E-17,2.6E-17,2.6E-17,2.6E-17,2.6E-17,2.6E-17,2.6E-17
GADM-MYS,1.9E-15,1.9E-15,1.9E-15,1.9E-15,1.9E-15,1.9E-15,1.9E-15,1.9E-15,1.9E-15,1.9E-15,1.9E-15,1.9E-15,1.9E-15,5.1E-17,5.1E-17,5.1E-17,5.1E-17,5.1E-17,5.1E-17,5.1E-17
GADM-MDV,5.6E-16,5.6E-16,5.6E-16,5.6E-16,5.6E-16,5.6E-16,5.6E-16,5.6E-16,5.6E-16,5.6E-16,5.6E-16,5.6E-16,5.6E-16,2.1E-16,2.1E-16,2.1E-16,2.1E-16,2.1E-16,2.1E-16,2.1E-16
GADM-MLI,2.4E-16,2.4E-16,2.4E-16,2.4E-16,2.4E-16,2.4E-16,2.4E-16,2.4E-16,2.4E-16,2.4E-16,2.4E-16,2.4E-16,2.4E-16,5.6E-17,5.6E-17,5.6E-17,5.6E-17,5.6E-17,5.6E-17,5.6E-17
GADM-MLT,1.9E-15,1.9E-15,1.9E-15,1.9E-15,1.9E-15,1.9E-15,1.9E-15,1.9E-15,1.9E-15,1.9E-15,1.9E-15,1.9E-15,1.9E-15,1.3E-15,1.3E-15,1.3E-15,1.3E-15,1.3E-15,1.3E-15,1.3E-15
GADM-MTQ,7.2E-15,7.2E-15,7.2E-15,7.2E-15,7.2E-15,7.2E-15,7.2E-15,7.2E-15,7.2E-15,7.2E-15,7.2E-15,7.2E-15,7.2E-15,3E-16,3E-16,3E-16,3E-16,3E-16,3E-16,3E-16
GADM-MRT,2.4E-16,2.4E-16,2.4E-16,2.4E-16,2.4E-16,2.4E-16,2.4E-16,2.4E-16,2.4E-16,2.4E-16,2.4E-16,2.4E-16,2.4E-16,5.6E-17,5.6E-17,5.6E-17,5.6E-17,5.6E-17,5.6E-17,5.6E-17
GADM-MUS,4.3E-16,4.3E-16,4.3E-16,4.3E-16,4.3E-16,4.3E-16,4.3E-16,4.3E-16,4.3E-16,4.3E-16,4.3E-16,4.3E-16,4.3E-16,5.4E-17,5.4E-17,5.4E-17,5.4E-17,5.4E-17,5.4E-17,5.4E-17
GADM-MEX,1.6E-14,1.6E-14,1.6E-14,1.6E-14,1.6E-14,1.6E-14,1.6E-14,1.6E-14,1.6E-14,1.6E-14,1.6E-14,1.6E-14,1.6E-14,3.4E-16,3.4E-16,3.4E-16,3.4E-16,3.4E-16,3.4E-16,3.4E-16
GADM-MNG,1.4E-15,1.4E-15,1.4E-15,1.4E-15,1.4E-15,1.4E-15,1.4E-15,1.4E-15,1.4E-15,1.4E-15,1.4E-15,1.4E-15,1.4E-15,-2.6E-16,-2.6E-16,-2.6E-16,-2.6E-16,-2.6E-16,-2.6E-16,-2.6E-16
GADM-MAR,4.9E-15,4.9E-15,4.9E-15,4.9E-15,4.9E-15,4.9E-15,4.9E-15,4.9E-15,4.9E-15,4.9E-15,4.9E-15,4.9E-15,4.9E-15,7.7E-16,7.7E-16,7.7E-16,7.7E-16,7.7E-16,7.7E-16,7.7E-16
GADM-MOZ,1.9E-16,1.9E-16,1.9E-16,1.9E-16,1.9E-16,1.9E-16,1.9E-16,1.9E-16,1.9E-16,1.9E-16,1.9E-16,1.9E-16,1.9E-16,2.6E-17,2.6E-17,2.6E-17,2.6E-17,2.6E-17,2.6E-17,2.6E-17
GADM-MMR,8.3E-16,8.3E-16,8.3E-16,8.3E-16,8.3E-16,8.3E-16,8.3E-16,8.3E-16,8.3E-16,8.3E-16,8.3E-16,8.3E-16,8.3E-16,9.7E-17,9.7E-17,9.7E-17,9.7E-17,9.7E-17,9.7E-17,9.7E-17
GADM-NAM,1.9E-16,1.9E-16,1.9E-16,1.9E-16,1.9E-16,1.9E-16,1.9E-16,1.9E-16,1.9E-16,1.9E-16,1.9E-16,1.9E-16,1.9E-16,2.6E-17,2.6E-17,2.6E-17,2.6E-17,2.6E-17,2.6E-17,2.6E-17
GADM-NPL,2.9E-15,2.9E-15,2.9E-15,2.9E-15,2.9E-15,2.9E-15,2.9E-15,2.9E-15,2.9E-15,2.9E-15,2.9E-15,2.9E-15,2.9E-15,1.1E-16,1.1E-16,1.1E-16,1.1E-16,1.1E-16,1.1E-16,1.1E-16
GADM-NLD,2.9E-16,2.9E-16,2.9E-16,2.9E-16,2.9E-16,2.9E-16,2.9E-16,2.9E-16,2.9E-16,2.9E-16,2.9E-16,2.9E-16,2.9E-16,6.2E-16,6.2E-16,6.2E-16,6.2E-16,6.2E-16,6.2E-16,6.2E-16
GADM-BES,7.2E-15,7.2E-15,7.2E-15,7.2E-15,7.2E-15,7.2E-15,7.2E-15,7.2E-15,7.2E-15,7.2E-15,7.2E-15,7.2E-15,7.2E-15,3E-16,3E-16,3E-16,3E-16,3E-16,3E-16,3E-16
GADM-CUW,7.2E-15,7.2E-15,7.2E-15,7.2E-15,7.2E-15,7.2E-15,7.2E-15,7.2E-15,7.2E-15,7.2E-15,7.2E-15,7.2E-15,7.2E-15,3E-16,3E-16,3E-16,3E-16,3E-16,3E-16,3E-16
GADM-SXM,7.2E-15,7.2E-15,7.2E-15,7.2E-15,7.2E-15,7.2E-15,7.2E-15,7.2E-15,7.2E-15,7.2E-15,7.2E-15,7.2E-15,7.2E-15,3E-16,3E-16,3E-16,3E-16,3E-16,3E-16,3E-16
GADM-NZL,4.5E-18,4.5E-18,4.5E-18,4.5E-18,4.5E-18,4.5E-18,4.5E-18,4.5E-18,4.5E-18,4.5E-18,4.5E-18,4.5E-18,4.5E-18,3E-18,3E-18,3E-18,3E-18,3E-18,3E-18,3E-18
GADM-NIC,7.2E-15,7.2E-15,7.2E-15,7.2E-15,7.2E-15,7.2E-15,7.2E-15,7.2E-15,7.2E-15,7.2E-15,7.2E-15,7.2E-15,7.2E-15,3E-16,3E-16,3E-16,3E-16,3E-16,3E-16,3E-16
GADM-NER,2.4E-16,2.4E-16,2.4E-16,2.4E-16,2.4E-16,2.4E-16,2.4E-16,2.4E-16,2.4E-16,2.4E-16,2.4E-16,2.4E-16,2.4E-16,5.6E-17,5.6E-17,5.6E-17,5.6E-17,5.6E-17,5.6E-17,5.6E-17
GADM-NGA,2.4E-16,2.4E-16,2.4E-16,2.4E-16,2.4E-16,2.4E-16,2.4E-16,2.4E-16,2.4E-16,2.4E-16,2.4E-16,2.4E-16,2.4E-16,5.6E-17,5.6E-17,5.6E-17,5.6E-17,5.6E-17,5.6E-17,5.6E-17
GADM-NOR,7.7E-16,7.7E-16,7.7E-16,7.7E-16,7.7E-16,7.7E-16,7.7E-16,7.7E-16,7.7E-16,7.7E-16,7.7E-16,7.7E-16,7.7E-16,3.6E-16,3.6E-16,3.6E-16,3.6E-16,3.6E-16,3.6E-16,3.6E-16
GADM-OMN,1.6E-15,1.6E-15,1.6E-15,1.6E-15,1.6E-15,1.6E-15,1.6E-15,1.6E-15,1.6E-15,1.6E-15,1.6E-15,1.6E-15,1.6E-15,2E-16,2E-16,2E-16,2E-16,2E-16,2E-16,2E-16
GADM-PAK,2.9E-15,2.9E-15,2.9E-15,2.9E-15,2.9E-15,2.9E-15,2.9E-15,2.9E-15,2.9E-15,2.9E-15,2.9E-15,2.9E-15,2.9E-15,1.1E-16,1.1E-16,1.1E-16,1.1E-16,1.1E-16,1.1E-16,1.1E-16
GADM-PAN,7.2E-15,7.2E-15,7.2E-15,7.2E-15,7.2E-15,7.2E-15,7.2E-15,7.2E-15,7.2E-15,7.2E-15,7.2E-15,7.2E-15,7.2E-15,3E-16,3E-16,3E-16,3E-16,3E-16,3E-16,3E-16
GADM-PNG,2.2E-16,2.2E-16,2.2E-16,2.2E-16,2.2E-16,2.2E-16,2.2E-16,2.2E-16,2.2E-16,2.2E-16,2.2E-16,2.2E-16,2.2E-16,2E-17,2E-17,2E-17,2E-17,2E-17,2E-17,2E-17
GADM-PRY,1.6E-15,1.6E-15,1.6E-15,1.6E-15,1.6E-15,1.6E-15,1.6E-15,1.6E-15,1.6E-15,1.6E-15,1.6E-15,1.6E-15,1.6E-15,2.5E-17,2.5E-17,2.5E-17,2.5E-17,2.5E-17,2.5E-17,2.5E-17
GADM-PER,1.6E-15,1.6E-15,1.6E-15,1.6E-15,1.6E-15,1.6E-15,1.6E-15,1.6E-15,1.6E-15,1.6E-15,1.6E-15,1.6E-15,1.6E-15,2.5E-17,2.5E-17,2.5E-17,2.5E-17,2.5E-17,2.5E-17,2.5E-17
GADM-PHL,1.1E-15,1.1E-15,1.1E-15,1.1E-15,1.1E-15,1.1E-15,1.1E-15,1.1E-15,1.1E-15,1.1E-15,1.1E-15,1.1E-15,1.1E-15,2.4E-16,2.4E-16,2.4E-16,2.4E-16,2.4E-16,2.4E-16,2.4E-16
GADM-POL,6.3E-16,6.3E-16,6.3E-16,6.3E-16,6.3E-16,6.3E-16,6.3E-16,6.3E-16,6.3E-16,6.3E-16,6.3E-16,6.3E-16,6.3E-16,5.5E-16,5.5E-16,5.5E-16,5.5E-16,5.5E-16,5.5E-16,5.5E-16
GADM-PRT,3.7E-15,3.7E-15,3.7E-15,3.7E-15,3.7E-15,3.7E-15,3.7E-15,3.7E-15,3.7E-15,3.7E-15,3.7E-15,3.7E-15,3.7E-15,9.8E-16,9.8E-16,9.8E-16,9.8E-16,9.8E-16,9.8E-16,9.8E-16
GADM-PRI,7.2E-15,7.2E-15,7.2E-15,7.2E-15,7.2E-15,7.2E-15,7.2E-15,7.2E-15,7.2E-15,7.2E-15,7.2E-15,7.2E-15,7.2E-15,3E-16,3E-16,3E-16,3E-16,3E-16,3E-16,3E-16
GADM-QAT,1.6E-15,1.6E-15,1.6E-15,1.6E-15,1.6E-15,1.6E-15,1.6E-15,1.6E-15,1.6E-15,1.6E-15,1.6E-15,1.6E-15,1.6E-15,2E-16,2E-16,2E-16,2E-16,2E-16,2E-16,2E-16
GADM-KOR,1.9E-15,1.9E-15,1.9E-15,1.9E-15,1.9E-15,1.9E-15,1.9E-15,1.9E-15,1.9E-15,1.9E-15,1.9E-15,1.9E-15,1.9E-15,1.4E-15,1.4E-15,1.4E-15,1.4E-15,1.4E-15,1.4E-15,1.4E-15
GADM-MDA,9.3E-16,9.3E-16,9.3E-16,9.3E-16,9.3E-16,9.3E-16,9.3E-16,9.3E-16,9.3E-16,9.3E-16,9.3E-16,9.3E-16,9.3E-16,5E-16,5E-16,5E-16,5E-16,5E-16,5E-16,5E-16
GADM-REU,4.3E-16,4.3E-16,4.3E-16,4.3E-16,4.3E-16,4.3E-16,4.3E-16,4.3E-16,4.3E-16,4.3E-16,4.3E-16,4.3E-16,4.3E-16,5.4E-17,5.4E-17,5.4E-17,5.4E-17,5.4E-17,5.4E-17,5.4E-17
GADM-ROU,1.6E-15,1.6E-15,1.6E-15,1.6E-15,1.6E-15,1.6E-15,1.6E-15,1.6E-15,1.6E-15,1.6E-15,1.6E-15,1.6E-15,1.6E-15,5.9E-16,5.9E-16,5.9E-16,5.9E-16,5.9E-16,5.9E-16,5.9E-16
GADM-RUS,1.05E-15,1.05E-15,1.05E-15,1.05E-15,1.05E-15,1.05E-15,1.05E-15,1.05E-15,1.05E-15,1.05E-15,1.05E-15,1.05E-15,1.05E-15,3.35E-16,3.35E-16,3.35E-16,3.35E-16,3.35E-16,3.35E-16,3.35E-16
GADM-RWA,4.3E-16,4.3E-16,4.3E-16,4.3E-16,4.3E-16,4.3E-16,4.3E-16,4.3E-16,4.3E-16,4.3E-16,4.3E-16,4.3E-16,4.3E-16,5.4E-17,5.4E-17,5.4E-17,5.4E-17,5.4E-17,5.4E-17,5.4E-17
GADM-LCA,7.2E-15,7.2E-15,7.2E-15,7.2E-15,7.2E-15,7.2E-15,7.2E-15,7.2E-15,7.2E-15,7.2E-15,7.2E-15,7.2E-15,7.2E-15,3E-16,3E-16,3E-16,3E-16,3E-16,3E-16,3E-16
GADM-VCT,7.2E-15,7.2E-15,7.2E-15,7.2E-15,7.2E-15,7.2E-15,7.2E-15,7.2E-15,7.2E-15,7.2E-15,7.2E-15,7.2E-15,7.2E-15,3E-16,3E-16,3E-16,3E-16,3E-16,3E-16,3E-16
GADM-WSM,2.2E-16,2.2E-16,2.2E-16,2.2E-16,2.2E-16,2.2E-16,2.2E-16,2.2E-16,2.2E-16,2.2E-16,2.2E-16,2.2E-16,2.2E-16,2E-17,2E-17,2E-17,2E-17,2E-17,2E-17,2E-17
GADM-STP,2.4E-16,2.4E-16,2.4E-16,2.4E-16,2.4E-16,2.4E-16,2.4E-16,2.4E-16,2.4E-16,2.4E-16,2.4E-16,2.4E-16,2.4E-16,5.6E-17,5.6E-17,5.6E-17,5.6E-17,5.6E-17,5.6E-17,5.6E-17
GADM-SAU,1.6E-15,1.6E-15,1.6E-15,1.6E-15,1.6E-15,1.6E-15,1.6E-15,1.6E-15,1.6E-15,1.6E-15,1.6E-15,1.6E-15,1.6E-15,2E-16,2E-16,2E-16,2E-16,2E-16,2E-16,2E-16
GADM-SEN,2.4E-16,2.4E-16,2.4E-16,2.4E-16,2.4E-16,2.4E-16,2.4E-16,2.4E-16,2.4E-16,2.4E-16,2.4E-16,2.4E-16,2.4E-16,5.6E-17,5.6E-17,5.6E-17,5.6E-17,5.6E-17,5.6E-17,5.6E-17
GADM-SRB,2.1E-15,2.1E-15,2.1E-15,2.1E-15,2.1E-15,2.1E-15,2.1E-15,2.1E-15,2.1E-15,2.1E-15,2.1E-15,2.1E-15,2.1E-15,4.9E-16,4.9E-16,4.9E-16,4.9E-16,4.9E-16,4.9E-16,4.9E-16
GADM-SLE,2.4E-16,2.4E-16,2.4E-16,2.4E-16,2.4E-16,2.4E-16,2.4E-16,2.4E-16,2.4E-16,2.4E-16,2.4E-16,2.4E-16,2.4E-16,5.6E-17,5.6E-17,5.6E-17,5.6E-17,5.6E-17,5.6E-17,5.6E-17
GADM-SGP,1.9E-15,1.9E-15,1.9E-15,1.9E-15,1.9E-15,1.9E-15,1.9E-15,1.9E-15,1.9E-15,1.9E-15,1.9E-15,1.9E-15,1.9E-15,5.1E-17,5.1E-17,5.1E-17,5.1E-17,5.1E-17,5.1E-17,5.1E-17
GADM-SVK,6.2E-16,6.2E-16,6.2E-16,6.2E-16,6.2E-16,6.2E-16,6.2E-16,6.2E-16,6.2E-16,6.2E-16,6.2E-16,6.2E-16,6.2E-16,6.1E-16,6.1E-16,6.1E-16,6.1E-16,6.1E-16,6.1E-16,6.1E-16
GADM-SVN,1E-15,1E-15,1E-15,1E-15,1E-15,1E-15,1E-15,1E-15,1E-15,1E-15,1E-15,1E-15,1E-15,7.7E-16,7.7E-16,7.7E-16,7.7E-16,7.7E-16,7.7E-16,7.7E-16
GADM-SLB,2.2E-16,2.2E-16,2.2E-16,2.2E-16,2.2E-16,2.2E-16,2.2E-16,2.2E-16,2.2E-16,2.2E-16,2.2E-16,2.2E-16,2.2E-16,2E-17,2E-17,2E-17,2E-17,2E-17,2E-17,2E-17
GADM-SOM,4.3E-16,4.3E-16,4.3E-16,4.3E-16,4.3E-16,4.3E-16,4.3E-16,4.3E-16,4.3E-16,4.3E-16,4.3E-16,4.3E-16,4.3E-16,5.4E-17,5.4E-17,5.4E-17,5.4E-17,5.4E-17,5.4E-17,5.4E-17
GADM-ZAF,3.7E-16,3.7E-16,3.7E-16,3.7E-16,3.7E-16,3.7E-16,3.7E-16,3.7E-16,3.7E-16,3.7E-16,3.7E-16,3.7E-16,3.7E-16,2E-16,2E-16,2E-16,2E-16,2E-16,2E-16,2E-16
GADM-ESP,3.7E-15,3.7E-15,3.7E-15,3.7E-15,3.7E-15,3.7E-15,3.7E-15,3.7E-15,3.7E-15,3.7E-15,3.7E-15,3.7E-15,3.7E-15,9.8E-16,9.8E-16,9.8E-16,9.8E-16,9.8E-16,9.8E-16,9.8E-16
GADM-LKA,5.6E-16,5.6E-16,5.6E-16,5.6E-16,5.6E-16,5.6E-16,5.6E-16,5.6E-16,5.6E-16,5.6E-16,5.6E-16,5.6E-16,5.6E-16,2.1E-16,2.1E-16,2.1E-16,2.1E-16,2.1E-16,2.1E-16,2.1E-16
GADM-SDN,4.3E-16,4.3E-16,4.3E-16,4.3E-16,4.3E-16,4.3E-16,4.3E-16,4.3E-16,4.3E-16,4.3E-16,4.3E-16,4.3E-16,4.3E-16,5.4E-17,5.4E-17,5.4E-17,5.4E-17,5.4E-17,5.4E-17,5.4E-17
GADM-SUR,1.6E-15,1.6E-15,1.6E-15,1.6E-15,1.6E-15,1.6E-15,1.6E-15,1.6E-15,1.6E-15,1.6E-15,1.6E-15,1.6E-15,1.6E-15,2.5E-17,2.5E-17,2.5E-17,2.5E-17,2.5E-17,2.5E-17,2.5E-17
GADM-SWZ,3.7E-16,3.7E-16,3.7E-16,3.7E-16,3.7E-16,3.7E-16,3.7E-16,3.7E-16,3.7E-16,3.7E-16,3.7E-16,3.7E-16,3.7E-16,2E-16,2E-16,2E-16,2E-16,2E-16,2E-16,2E-16
GADM-SWE,3.9E-16,3.9E-16,3.9E-16,3.9E-16,3.9E-16,3.9E-16,3.9E-16,3.9E-16,3.9E-16,3.9E-16,3.9E-16,3.9E-16,3.9E-16,4.1E-16,4.1E-16,4.1E-16,4.1E-16,4.1E-16,4.1E-16,4.1E-16
GADM-CHE,1.9E-15,1.9E-15,1.9E-15,1.9E-15,1.9E-15,1.9E-15,1.9E-15,1.9E-15,1.9E-15,1.9E-15,1.9E-15,1.9E-15,1.9E-15,7.1E-16,7.1E-16,7.1E-16,7.1E-16,7.1E-16,7.1E-16,7.1E-16
GADM-SYR,9.7E-16,9.7E-16,9.7E-16,9.7E-16,9.7E-16,9.7E-16,9.7E-16,9.7E-16,9.7E-16,9.7E-16,9.7E-16,9.7E-16,9.7E-16,4.2E-16,4.2E-16,4.2E-16,4.2E-16,4.2E-16,4.2E-16,4.2E-16
GADM-TJK,2.4E-15,2.4E-15,2.4E-15,2.4E-15,2.4E-15,2.4E-15,2.4E-15,2.4E-15,2.4E-15,2.4E-15,2.4E-15,2.4E-15,2.4E-15,3.6E-16,3.6E-16,3.6E-16,3.6E-16,3.6E-16,3.6E-16,3.6E-16
GADM-TWN,-2E-14,-2E-14,-2E-14,-2E-14,-2E-14,-2E-14,-2E-14,-2E-14,-2E-14,-2E-14,-2E-14,-2E-14,-2E-14,1E-14,1E-14,1E-14,1E-14,1E-14,1E-14,1E-14
GADM-THA,1.1E-15,1.1E-15,1.1E-15,1.1E-15,1.1E-15,1.1E-15,1.1E-15,1.1E-15,1.1E-15,1.1E-15,1.1E-15,1.1E-15,1.1E-15,1.3E-16,1.3E-16,1.3E-16,1.3E-16,1.3E-16,1.3E-16,1.3E-16
GADM-MKD,2.1E-15,2.1E-15,2.1E-15,2.1E-15,2.1E-15,2.1E-15,2.1E-15,2.1E-15,2.1E-15,2.1E-15,2.1E-15,2.1E-15,2.1E-15,4.9E-16,4.9E-16,4.9E-16,4.9E-16,4.9E-16,4.9E-16,4.9E-16
GADM-TGO,2.4E-16,2.4E-16,2.4E-16,2.4E-16,2.4E-16,2.4E-16,2.4E-16,2.4E-16,2.4E-16,2.4E-16,2.4E-16,2.4E-16,2.4E-16,5.6E-17,5.6E-17,5.6E-17,5.6E-17,5.6E-17,5.6E-17,5.6E-17
GADM-TON,2.2E-16,2.2E-16,2.2E-16,2.2E-16,2.2E-16,2.2E-16,2.2E-16,2.2E-16,2.2E-16,2.2E-16,2.2E-16,2.2E-16,2.2E-16,2E-17,2E-17,2E-17,2E-17,2E-17,2E-17,2E-17
GADM-TTO,7.2E-15,7.2E-15,7.2E-15,7.2E-15,7.2E-15,7.2E-15,7.2E-15,7.2E-15,7.2E-15,7.2E-15,7.2E-15,7.2E-15,7.2E-15,3E-16,3E-16,3E-16,3E-16,3E-16,3E-16,3E-16
GADM-TUN,4.9E-15,4.9E-15,4.9E-15,4.9E-15,4.9E-15,4.9E-15,4.9E-15,4.9E-15,4.9E-15,4.9E-15,4.9E-15,4.9E-15,4.9E-15,7.7E-16,7.7E-16,7.7E-16,7.7E-16,7.7E-16,7.7E-16,7.7E-16
GADM-TUR,3.7E-15,3.7E-15,3.7E-15,3.7E-15,3.7E-15,3.7E-15,3.7E-15,3.7E-15,3.7E-15,3.7E-15,3.7E-15,3.7E-15,3.7E-15,7.5E-16,7.5E-16,7.5E-16,7.5E-16,7.5E-16,7.5E-16,7.5E-16
GADM-TKM,2.4E-15,2.4E-15,2.4E-15,2.4E-15,2.4E-15,2.4E-15,2.4E-15,2.4E-15,2.4E-15,2.4E-15,2.4E-15,2.4E-15,2.4E-15,3.6E-16,3.6E-16,3.6E-16,3.6E-16,3.6E-16,3.6E-16,3.6E-16
GADM-UGA,4.3E-16,4.3E-16,4.3E-16,4.3E-16,4.3E-16,4.3E-16,4.3E-16,4.3E-16,4.3E-16,4.3E-16,4.3E-16,4.3E-16,4.3E-16,5.4E-17,5.4E-17,5.4E-17,5.4E-17,5.4E-17,5.4E-17,5.4E-17
GADM-UKR,9.3E-16,9.3E-16,9.3E-16,9.3E-16,9.3E-16,9.3E-16,9.3E-16,9.3E-16,9.3E-16,9.3E-16,9.3E-16,9.3E-16,9.3E-16,5E-16,5E-16,5E-16,5E-16,5E-16,5E-16,5E-16
GADM-ARE,1.6E-15,1.6E-15,1.6E-15,1.6E-15,1.6E-15,1.6E-15,1.6E-15,1.6E-15,1.6E-15,1.6E-15,1.6E-15,1.6E-15,1.6E-15,2E-16,2E-16,2E-16,2E-16,2E-16,2E-16,2E-16
GADM-GBR,3.6E-16,3.6E-16,3.6E-16,3.6E-16,3.6E-16,3.6E-16,3.6E-16,3.6E-16,3.6E-16,3.6E-16,3.6E-16,3.6E-16,3.6E-16,6E-16,6E-16,6E-16,6E-16,6E-16,6E-16,6E-16
GADM-TZA,4.3E-16,4.3E-16,4.3E-16,4.3E-16,4.3E-16,4.3E-16,4.3E-16,4.3E-16,4.3E-16,4.3E-16,4.3E-16,4.3E-16,4.3E-16,5.4E-17,5.4E-17,5.4E-17,5.4E-17,5.4E-17,5.4E-17,5.4E-17
GADM-USA,8E-17,8E-17,8E-17,8E-17,8E-17,8E-17,8E-17,8E-17,8E-17,8E-17,8E-17,8E-17,8E-17,1.6E-15,1.6E-15,1.6E-15,1.6E-15,1.6E-15,1.6E-15,1.6E-15
GADM-URY,9.5E-16,9.5E-16,9.5E-16,9.5E-16,9.5E-16,9.5E-16,9.5E-16,9.5E-16,9.5E-16,9.5E-16,9.5E-16,9.5E-16,9.5E-16,-1.8E-17,-1.8E-17,-1.8E-17,-1.8E-17,-1.8E-17,-1.8E-17,-1.8E-17
GADM-UZB,2.4E-15,2.4E-15,2.4E-15,2.4E-15,2.4E-15,2.4E-15,2.4E-15,2.4E-15,2.4E-15,2.4E-15,2.4E-15,2.4E-15,2.4E-15,3.6E-16,3.6E-16,3.6E-16,3.6E-16,3.6E-16,3.6E-16,3.6E-16
GADM-VUT,2.2E-16,2.2E-16,2.2E-16,2.2E-16,2.2E-16,2.2E-16,2.2E-16,2.2E-16,2.2E-16,2.2E-16,2.2E-16,2.2E-16,2.2E-16,2E-17,2E-17,2E-17,2E-17,2E-17,2E-17,2E-17
GADM-VEN,1.6E-15,1.6E-15,1.6E-15,1.6E-15,1.6E-15,1.6E-15,1.6E-15,1.6E-15,1.6E-15,1.6E-15,1.6E-15,1.6E-15,1.6E-15,2.5E-17,2.5E-17,2.5E-17,2.5E-17,2.5E-17,2.5E-17,2.5E-17
GADM-VNM,1.3E-15,1.3E-15,1.3E-15,1.3E-15,1.3E-15,1.3E-15,1.3E-15,1.3E-15,1.3E-15,1.3E-15,1.3E-15,1.3E-15,1.3E-15,1.3E-16,1.3E-16,1.3E-16,1.3E-16,1.3E-16,1.3E-16,1.3E-16
GADM-ESH,4.9E-15,4.9E-15,4.9E-15,4.9E-15,4.9E-15,4.9E-15,4.9E-15,4.9E-15,4.9E-15,4.9E-15,4.9E-15,4.9E-15,4.9E-15,7.7E-16,7.7E-16,7.7E-16,7.7E-16,7.7E-16,7.7E-16,7.7E-16
GADM-YEM,1.6E-15,1.6E-15,1.6E-15,1.6E-15,1.6E-15,1.6E-15,1.6E-15,1.6E-15,1.6E-15,1.6E-15,1.6E-15,1.6E-15,1.6E-15,2E-16,2E-16,2E-16,2E-16,2E-16,2E-16,2E-16
GADM-ZMB,1.9E-16,1.9E-16,1.9E-16,1.9E-16,1.9E-16,1.9E-16,1.9E-16,1.9E-16,1.9E-16,1.9E-16,1.9E-16,1.9E-16,1.9E-16,2.6E-17,2.6E-17,2.6E-17,2.6E-17,2.6E-17,2.6E-17,2.6E-17
GADM-ZWE,1.9E-16,1.9E-16,1.9E-16,1.9E-16,1.9E-16,1.9E-16,1.9E-16,1.9E-16,1.9E-16,1.9E-16,1.9E-16,1.9E-16,1.9E-16,2.6E-17,2.6E-17,2.6E-17,2.6E-17,2.6E-17,2.6E-17,2.6E-17
region-africa,6E-16,6E-16,6E-16,6E-16,6E-16,6E-16,6E-16,6E-16,6E-16,6E-16,6E-16,6E-16,6E-16,9.1E-17,9.1E-17,9.1E-17,9.1E-17,9.1E-17,9.1E-17,9.1E-17
region-asia,3.6E-16,3.6E-16,3.6E-16,3.6E-16,3.6E-16,3.6E-16,3.6E-16,3.6E-16,3.6E-16,3.6E-16,3.6E-16,3.6E-16,3.6E-16,3.5E-16,3.5E-16,3.5E-16,3.5E-16,3.5E-16,3.5E-16,3.5E-16
region-europe,1.4E-15,1.4E-15,1.4E-15,1.4E-15,1.4E-15,1.4E-15,1.4E-15,1.4E-15,1.4E-15,1.4E-15,1.4E-15,1.4E-15,1.4E-15,4.9E-16,4.9E-16,4.9E-16,4.9E-16,4.9E-16,4.9E-16,4.9E-16
region-northern-america,1.4E-16,1.4E-16,1.4E-16,1.4E-16,1.4E-16,1.4E-16,1.4E-16,1.4E-16,1.4E-16,1.4E-16,1.4E-16,1.4E-16,1.4E-16,1.3E-15,1.3E-15,1.3E-15,1.3E-15,1.3E-15,1.3E-15,1.3E-15
region-oceania,1.1E-16,1.1E-16,1.1E-16,1.1E-16,1.1E-16,1.1E-16,1.1E-16,1.1E-16,1.1E-16,1.1E-16,1.1E-16,1.1E-16,1.1E-16,2.3E-17,2.3E-17,2.3E-17,2.3E-17,2.3E-17,2.3E-17,2.3E-17
region-central-america,5.2E-15,5.2E-15,5.2E-15,5.2E-15,5.2E-15,5.2E-15,5.2E-15,5.2E-15,5.2E-15,5.2E-15,5.2E-15,5.2E-15,5.2E-15,9.8E-17,9.8E-17,9.8E-17,9.8E-17,9.8E-17,9.8E-17,9.8E-17
region-south-america,5.2E-15,5.2E-15,5.2E-15,5.2E-15,5.2E-15,5.2E-15,5.2E-15,5.2E-15,5.2E-15,5.2E-15,5.2E-15,5.2E-15,5.2E-15,9.8E-17,9.8E-17,9.8E-17,9.8E-17,9.8E-17,9.8E-17,9.8E-17
region-world,1E-15,1E-15,1E-15,1E-15,1E-15,1E-15,1E-15,1E-15,1E-15,1E-15,1E-15,1E-15,1E-15,3.7E-16,3.7E-16,3.7E-16,3.7E-16,3.7E-16,3.7E-16,3.7E-16
