term.id,pm25ToAirAnimalHousing,pm25ToAirFuelCombustion,pm25ToAirInputsProduction
GADM-AFG,0.00402,0.00402,0.00402
GADM-ALB,0.000959,0.000959,0.000959
GADM-DZA,0.000663,0.000663,0.000663
GADM-AGO,6.26E-05,6.26E-05,6.26E-05
GADM-ARG,0.000213,0.000213,0.000213
GADM-ARM,0.00135,0.00135,0.00135
GADM-ABW,0.000158,0.000158,0.000158
GADM-AUS,2.03E-05,2.03E-05,2.03E-05
GADM-AUT,0.0012,0.0012,0.0012
GADM-AZE,0.00135,0.00135,0.00135
GADM-BHS,0.000158,0.000158,0.000158
GADM-BHR,0.000563,0.000563,0.000563
GADM-BGD,0.00402,0.00402,0.00402
GADM-BRB,0.000158,0.000158,0.000158
GADM-BLR,0.00134,0.00134,0.00134
GADM-BEL,0.00129,0.00129,0.00129
GADM-BLZ,0.000158,0.000158,0.000158
GADM-BEN,0.000244,0.000244,0.000244
GADM-BTN,0.00402,0.00402,0.00402
GADM-BOL,7.11E-05,7.11E-05,7.11E-05
GADM-BIH,0.000959,0.000959,0.000959
GADM-BWA,6.26E-05,6.26E-05,6.26E-05
GADM-BRA,9.65E-05,9.65E-05,9.65E-05
GADM-BRN,9.67E-05,9.67E-05,9.67E-05
GADM-BGR,0.00122,0.00122,0.00122
GADM-BFA,0.000244,0.000244,0.000244
GADM-BDI,0.000141,0.000141,0.000141
GADM-KHM,0.000337,0.000337,0.000337
GADM-CMR,0.000244,0.000244,0.000244
GADM-CAN,8.78E-05,8.78E-05,8.78E-05
GADM-CPV,0.000244,0.000244,0.000244
GADM-CAF,0.000141,0.000141,0.000141
GADM-TCD,0.000141,0.000141,0.000141
GADM-CHL,0.000657,0.000657,0.000657
GADM-CHN,0.0017,0.0017,0.0017
GADM-HKG,0.0017,0.0017,0.0017
GADM-COL,7.11E-05,7.11E-05,7.11E-05
GADM-COM,0.000141,0.000141,0.000141
GADM-COG,0.000244,0.000244,0.000244
GADM-CRI,0.000158,0.000158,0.000158
GADM-CIV,0.000244,0.000244,0.000244
GADM-HRV,0.000959,0.000959,0.000959
GADM-CUB,0.000158,0.000158,0.000158
GADM-CYP,0.000654,0.000654,0.000654
GADM-CZE,0.00119,0.00119,0.00119
GADM-PRK,0.000718,0.000718,0.000718
GADM-COD,0.000141,0.000141,0.000141
GADM-DNK,0.00031,0.00031,0.00031
GADM-DJI,0.000141,0.000141,0.000141
GADM-DOM,0.000158,0.000158,0.000158
GADM-ECU,7.11E-05,7.11E-05,7.11E-05
GADM-EGY,0.00218,0.00218,0.00218
GADM-SLV,0.000158,0.000158,0.000158
GADM-GNQ,0.000244,0.000244,0.000244
GADM-ERI,0.000141,0.000141,0.000141
GADM-EST,0.000812,0.000812,0.000812
GADM-ETH,0.000141,0.000141,0.000141
GADM-FJI,1.14E-05,1.14E-05,1.14E-05
GADM-FIN,0.000238,0.000238,0.000238
GADM-FRA,0.000816,0.000816,0.000816
GADM-GUF,7.11E-05,7.11E-05,7.11E-05
GADM-GAB,0.000244,0.000244,0.000244
GADM-GMB,0.000244,0.000244,0.000244
GADM-GEO,0.00135,0.00135,0.00135
GADM-DEU,0.00133,0.00133,0.00133
GADM-GHA,0.000244,0.000244,0.000244
GADM-GRC,0.000654,0.000654,0.000654
GADM-GRL,8.78E-05,8.78E-05,8.78E-05
GADM-GRD,0.000158,0.000158,0.000158
GADM-GLP,0.000158,0.000158,0.000158
GADM-GTM,0.000158,0.000158,0.000158
GADM-GIN,0.000244,0.000244,0.000244
GADM-GNB,0.000244,0.000244,0.000244
GADM-GUY,7.11E-05,7.11E-05,7.11E-05
GADM-HTI,0.000158,0.000158,0.000158
GADM-HND,0.000158,0.000158,0.000158
GADM-HUN,0.00144,0.00144,0.00144
GADM-ISL,0.000246,0.000246,0.000246
GADM-IND,0.00336,0.00336,0.00336
GADM-IDN,0.000188,0.000188,0.000188
GADM-IRN,0.000563,0.000563,0.000563
GADM-IRQ,0.000563,0.000563,0.000563
GADM-IRL,0.00127,0.00127,0.00127
GADM-ISR,0.000755,0.000755,0.000755
GADM-ITA,0.00161,0.00161,0.00161
GADM-JAM,0.000158,0.000158,0.000158
GADM-JPN,0.00147,0.00147,0.00147
GADM-JOR,0.000755,0.000755,0.000755
GADM-KAZ,0.000241,0.000241,0.000241
GADM-KEN,0.000141,0.000141,0.000141
GADM-KWT,0.000563,0.000563,0.000563
GADM-KGZ,0.00108,0.00108,0.00108
GADM-LAO,0.000337,0.000337,0.000337
GADM-LVA,0.000812,0.000812,0.000812
GADM-LBN,0.000755,0.000755,0.000755
GADM-LSO,0.000315,0.000315,0.000315
GADM-LBR,0.000244,0.000244,0.000244
GADM-LBY,0.000663,0.000663,0.000663
GADM-LTU,0.000812,0.000812,0.000812
GADM-LUX,0.00129,0.00129,0.00129
GADM-MDG,0.000141,0.000141,0.000141
GADM-MWI,6.26E-05,6.26E-05,6.26E-05
GADM-MYS,9.67E-05,9.67E-05,9.67E-05
GADM-MDV,0.00336,0.00336,0.00336
GADM-MLI,0.000244,0.000244,0.000244
GADM-MLT,0.00161,0.00161,0.00161
GADM-MTQ,0.000158,0.000158,0.000158
GADM-MRT,0.000244,0.000244,0.000244
GADM-MUS,0.000141,0.000141,0.000141
GADM-MEX,0.00022,0.00022,0.00022
GADM-MNG,0.000718,0.000718,0.000718
GADM-MAR,0.000663,0.000663,0.000663
GADM-MOZ,6.26E-05,6.26E-05,6.26E-05
GADM-MMR,0.000337,0.000337,0.000337
GADM-NAM,6.26E-05,6.26E-05,6.26E-05
GADM-NPL,0.00402,0.00402,0.00402
GADM-NLD,0.00129,0.00129,0.00129
GADM-BES,0.000158,0.000158,0.000158
GADM-CUW,0.000158,0.000158,0.000158
GADM-SXM,0.000158,0.000158,0.000158
GADM-NZL,9.4E-06,9.4E-06,9.4E-06
GADM-NIC,0.000158,0.000158,0.000158
GADM-NER,0.000244,0.000244,0.000244
GADM-NGA,0.000244,0.000244,0.000244
GADM-NOR,0.000246,0.000246,0.000246
GADM-OMN,0.000563,0.000563,0.000563
GADM-PAK,0.00402,0.00402,0.00402
GADM-PAN,0.000158,0.000158,0.000158
GADM-PNG,1.14E-05,1.14E-05,1.14E-05
GADM-PRY,7.11E-05,7.11E-05,7.11E-05
GADM-PER,7.11E-05,7.11E-05,7.11E-05
GADM-PHL,0.000561,0.000561,0.000561
GADM-POL,0.000812,0.000812,0.000812
GADM-PRT,0.00061,0.00061,0.00061
GADM-PRI,0.000158,0.000158,0.000158
GADM-QAT,0.000563,0.000563,0.000563
GADM-KOR,0.000696,0.000696,0.000696
GADM-MDA,0.00134,0.00134,0.00134
GADM-REU,0.000141,0.000141,0.000141
GADM-ROU,0.00171,0.00171,0.00171
GADM-RUS,0.000739,0.000739,0.000739
GADM-RWA,0.000141,0.000141,0.000141
GADM-LCA,0.000158,0.000158,0.000158
GADM-VCT,0.000158,0.000158,0.000158
GADM-WSM,1.14E-05,1.14E-05,1.14E-05
GADM-STP,0.000244,0.000244,0.000244
GADM-SAU,0.000563,0.000563,0.000563
GADM-SEN,0.000244,0.000244,0.000244
GADM-SRB,0.000959,0.000959,0.000959
GADM-SLE,0.000244,0.000244,0.000244
GADM-SGP,9.67E-05,9.67E-05,9.67E-05
GADM-SVK,0.00119,0.00119,0.00119
GADM-SVN,0.0012,0.0012,0.0012
GADM-SLB,1.14E-05,1.14E-05,1.14E-05
GADM-SOM,0.000141,0.000141,0.000141
GADM-ZAF,0.000315,0.000315,0.000315
GADM-ESP,0.00061,0.00061,0.00061
GADM-LKA,0.00336,0.00336,0.00336
GADM-SDN,0.000141,0.000141,0.000141
GADM-SUR,7.11E-05,7.11E-05,7.11E-05
GADM-SWZ,0.000315,0.000315,0.000315
GADM-SWE,0.00031,0.00031,0.00031
GADM-CHE,0.00148,0.00148,0.00148
GADM-SYR,0.000755,0.000755,0.000755
GADM-TJK,0.00108,0.00108,0.00108
GADM-TWN,0.000351,0.000351,0.000351
GADM-THA,0.000231,0.000231,0.000231
GADM-MKD,0.000959,0.000959,0.000959
GADM-TGO,0.000244,0.000244,0.000244
GADM-TON,1.14E-05,1.14E-05,1.14E-05
GADM-TTO,0.000158,0.000158,0.000158
GADM-TUN,0.000663,0.000663,0.000663
GADM-TUR,0.000814,0.000814,0.000814
GADM-TKM,0.00108,0.00108,0.00108
GADM-UGA,0.000141,0.000141,0.000141
GADM-UKR,0.00134,0.00134,0.00134
GADM-ARE,0.000563,0.000563,0.000563
GADM-GBR,0.00127,0.00127,0.00127
GADM-TZA,0.000141,0.000141,0.000141
GADM-USA,0.000455,0.000455,0.000455
GADM-URY,0.000213,0.000213,0.000213
GADM-UZB,0.00108,0.00108,0.00108
GADM-VUT,1.14E-05,1.14E-05,1.14E-05
GADM-VEN,7.11E-05,7.11E-05,7.11E-05
GADM-VNM,0.000961,0.000961,0.000961
GADM-ESH,0.000663,0.000663,0.000663
GADM-YEM,0.000563,0.000563,0.000563
GADM-ZMB,6.26E-05,6.26E-05,6.26E-05
GADM-ZWE,6.26E-05,6.26E-05,6.26E-05
region-africa,0.000162,0.000162,0.000162
region-asia,0.00135,0.00135,0.00135
region-europe,0.000595,0.000595,0.000595
region-northern-america,0.000309,0.000309,0.000309
region-oceania,1.94E-05,1.94E-05,1.94E-05
region-central-america,0.000124,0.000124,0.000124
region-south-america,0.000124,0.000124,0.000124
region-world,0.000629,0.000629,0.000629
